digraph "/home/mludwig/cernLocal/projects/opcua-lxi-master/generatedSources/ASChannel.h"
{
 // LATEX_PDF_SIZE
  edge [fontname="Helvetica",fontsize="10",labelfontname="Helvetica",labelfontsize="10"];
  node [fontname="Helvetica",fontsize="10",shape=record];
  Node1 [label="/home/mludwig/cernLocal\l/projects/opcua-lxi-master\l/generatedSources/ASChannel.h",height=0.2,width=0.4,color="black", fillcolor="grey75", style="filled", fontcolor="black",tooltip=" "];
  Node1 -> Node2 [color="midnightblue",fontsize="10",style="solid",fontname="Helvetica"];
  Node2 [label="opcua_baseobjecttype.h",height=0.2,width=0.4,color="black", fillcolor="white", style="filled",URL="$opcua__baseobjecttype_8h.html",tooltip=" "];
  Node2 -> Node3 [color="midnightblue",fontsize="10",style="solid",fontname="Helvetica"];
  Node3 [label="uanode.h",height=0.2,width=0.4,color="red", fillcolor="white", style="filled",URL="$uanode_8h.html",tooltip=" "];
  Node2 -> Node32 [color="midnightblue",fontsize="10",style="solid",fontname="Helvetica"];
  Node32 [label="uabasenodes.h",height=0.2,width=0.4,color="black", fillcolor="white", style="filled",URL="$uabasenodes_8h.html",tooltip=" "];
  Node32 -> Node3 [color="midnightblue",fontsize="10",style="solid",fontname="Helvetica"];
  Node2 -> Node33 [color="midnightblue",fontsize="10",style="solid",fontname="Helvetica"];
  Node33 [label="nodemanagerbase.h",height=0.2,width=0.4,color="red", fillcolor="white", style="filled",URL="$nodemanagerbase_8h.html",tooltip=" "];
  Node33 -> Node3 [color="midnightblue",fontsize="10",style="solid",fontname="Helvetica"];
  Node2 -> Node36 [color="midnightblue",fontsize="10",style="solid",fontname="Helvetica"];
  Node36 [label="uadatavariablecache.h",height=0.2,width=0.4,color="red", fillcolor="white", style="filled",URL="$uadatavariablecache_8h.html",tooltip=" "];
  Node36 -> Node3 [color="midnightblue",fontsize="10",style="solid",fontname="Helvetica"];
  Node36 -> Node32 [color="midnightblue",fontsize="10",style="solid",fontname="Helvetica"];
  Node2 -> Node39 [color="midnightblue",fontsize="10",style="solid",fontname="Helvetica"];
  Node39 [label="methodhandleuanode.h",height=0.2,width=0.4,color="black", fillcolor="white", style="filled",URL="$methodhandleuanode_8h.html",tooltip=" "];
  Node39 -> Node32 [color="midnightblue",fontsize="10",style="solid",fontname="Helvetica"];
  Node39 -> Node40 [color="midnightblue",fontsize="10",style="solid",fontname="Helvetica"];
  Node40 [label="arrays.h",height=0.2,width=0.4,color="red", fillcolor="white", style="filled",URL="$arrays_8h.html",tooltip=" "];
  Node2 -> Node47 [color="midnightblue",fontsize="10",style="solid",fontname="Helvetica"];
  Node47 [label="methodmanager.h",height=0.2,width=0.4,color="red", fillcolor="white", style="filled",URL="$methodmanager_8h.html",tooltip=" "];
  Node47 -> Node40 [color="midnightblue",fontsize="10",style="solid",fontname="Helvetica"];
  Node1 -> Node39 [color="midnightblue",fontsize="10",style="solid",fontname="Helvetica"];
  Node1 -> Node48 [color="midnightblue",fontsize="10",style="solid",fontname="Helvetica"];
  Node48 [label="ASDelegatingMethod.h",height=0.2,width=0.4,color="black", fillcolor="white", style="filled",URL="$ASDelegatingMethod_8h.html",tooltip=" "];
  Node48 -> Node49 [color="midnightblue",fontsize="10",style="solid",fontname="Helvetica"];
  Node49 [label="LogIt.h",height=0.2,width=0.4,color="red", fillcolor="white", style="filled",URL="$LogIt_8h.html",tooltip=" "];
  Node1 -> Node63 [color="midnightblue",fontsize="10",style="solid",fontname="Helvetica"];
  Node63 [label="Configuration.hxx",height=0.2,width=0.4,color="red", fillcolor="white", style="filled",URL="$Configuration_8hxx.html",tooltip=" "];
  Node63 -> Node64 [color="midnightblue",fontsize="10",style="solid",fontname="Helvetica"];
  Node64 [label="xsd/cxx/config.hxx",height=0.2,width=0.4,color="grey75", fillcolor="white", style="filled",tooltip=" "];
  Node63 -> Node65 [color="midnightblue",fontsize="10",style="solid",fontname="Helvetica"];
  Node65 [label="xsd/cxx/pre.hxx",height=0.2,width=0.4,color="grey75", fillcolor="white", style="filled",tooltip=" "];
  Node63 -> Node66 [color="midnightblue",fontsize="10",style="solid",fontname="Helvetica"];
  Node66 [label="xsd/cxx/xml/char-utf8.hxx",height=0.2,width=0.4,color="grey75", fillcolor="white", style="filled",tooltip=" "];
  Node63 -> Node67 [color="midnightblue",fontsize="10",style="solid",fontname="Helvetica"];
  Node67 [label="xsd/cxx/tree/exceptions.hxx",height=0.2,width=0.4,color="grey75", fillcolor="white", style="filled",tooltip=" "];
  Node63 -> Node68 [color="midnightblue",fontsize="10",style="solid",fontname="Helvetica"];
  Node68 [label="xsd/cxx/tree/elements.hxx",height=0.2,width=0.4,color="grey75", fillcolor="white", style="filled",tooltip=" "];
  Node63 -> Node69 [color="midnightblue",fontsize="10",style="solid",fontname="Helvetica"];
  Node69 [label="xsd/cxx/tree/types.hxx",height=0.2,width=0.4,color="grey75", fillcolor="white", style="filled",tooltip=" "];
  Node63 -> Node70 [color="midnightblue",fontsize="10",style="solid",fontname="Helvetica"];
  Node70 [label="xsd/cxx/xml/error-handler.hxx",height=0.2,width=0.4,color="grey75", fillcolor="white", style="filled",tooltip=" "];
  Node63 -> Node71 [color="midnightblue",fontsize="10",style="solid",fontname="Helvetica"];
  Node71 [label="xsd/cxx/xml/dom/auto\l-ptr.hxx",height=0.2,width=0.4,color="grey75", fillcolor="white", style="filled",tooltip=" "];
  Node63 -> Node72 [color="midnightblue",fontsize="10",style="solid",fontname="Helvetica"];
  Node72 [label="xsd/cxx/tree/parsing.hxx",height=0.2,width=0.4,color="grey75", fillcolor="white", style="filled",tooltip=" "];
  Node63 -> Node73 [color="midnightblue",fontsize="10",style="solid",fontname="Helvetica"];
  Node73 [label="xsd/cxx/tree/parsing\l/byte.hxx",height=0.2,width=0.4,color="grey75", fillcolor="white", style="filled",tooltip=" "];
  Node63 -> Node74 [color="midnightblue",fontsize="10",style="solid",fontname="Helvetica"];
  Node74 [label="xsd/cxx/tree/parsing\l/unsigned-byte.hxx",height=0.2,width=0.4,color="grey75", fillcolor="white", style="filled",tooltip=" "];
  Node63 -> Node75 [color="midnightblue",fontsize="10",style="solid",fontname="Helvetica"];
  Node75 [label="xsd/cxx/tree/parsing\l/short.hxx",height=0.2,width=0.4,color="grey75", fillcolor="white", style="filled",tooltip=" "];
  Node63 -> Node76 [color="midnightblue",fontsize="10",style="solid",fontname="Helvetica"];
  Node76 [label="xsd/cxx/tree/parsing\l/unsigned-short.hxx",height=0.2,width=0.4,color="grey75", fillcolor="white", style="filled",tooltip=" "];
  Node63 -> Node77 [color="midnightblue",fontsize="10",style="solid",fontname="Helvetica"];
  Node77 [label="xsd/cxx/tree/parsing\l/int.hxx",height=0.2,width=0.4,color="grey75", fillcolor="white", style="filled",tooltip=" "];
  Node63 -> Node78 [color="midnightblue",fontsize="10",style="solid",fontname="Helvetica"];
  Node78 [label="xsd/cxx/tree/parsing\l/unsigned-int.hxx",height=0.2,width=0.4,color="grey75", fillcolor="white", style="filled",tooltip=" "];
  Node63 -> Node79 [color="midnightblue",fontsize="10",style="solid",fontname="Helvetica"];
  Node79 [label="xsd/cxx/tree/parsing\l/long.hxx",height=0.2,width=0.4,color="grey75", fillcolor="white", style="filled",tooltip=" "];
  Node63 -> Node80 [color="midnightblue",fontsize="10",style="solid",fontname="Helvetica"];
  Node80 [label="xsd/cxx/tree/parsing\l/unsigned-long.hxx",height=0.2,width=0.4,color="grey75", fillcolor="white", style="filled",tooltip=" "];
  Node63 -> Node81 [color="midnightblue",fontsize="10",style="solid",fontname="Helvetica"];
  Node81 [label="xsd/cxx/tree/parsing\l/boolean.hxx",height=0.2,width=0.4,color="grey75", fillcolor="white", style="filled",tooltip=" "];
  Node63 -> Node82 [color="midnightblue",fontsize="10",style="solid",fontname="Helvetica"];
  Node82 [label="xsd/cxx/tree/parsing\l/float.hxx",height=0.2,width=0.4,color="grey75", fillcolor="white", style="filled",tooltip=" "];
  Node63 -> Node83 [color="midnightblue",fontsize="10",style="solid",fontname="Helvetica"];
  Node83 [label="xsd/cxx/tree/parsing\l/double.hxx",height=0.2,width=0.4,color="grey75", fillcolor="white", style="filled",tooltip=" "];
  Node63 -> Node84 [color="midnightblue",fontsize="10",style="solid",fontname="Helvetica"];
  Node84 [label="xsd/cxx/tree/parsing\l/decimal.hxx",height=0.2,width=0.4,color="grey75", fillcolor="white", style="filled",tooltip=" "];
  Node63 -> Node85 [color="midnightblue",fontsize="10",style="solid",fontname="Helvetica"];
  Node85 [label="xsd/cxx/xml/dom/serialization\l-header.hxx",height=0.2,width=0.4,color="grey75", fillcolor="white", style="filled",tooltip=" "];
  Node63 -> Node86 [color="midnightblue",fontsize="10",style="solid",fontname="Helvetica"];
  Node86 [label="xsd/cxx/tree/serialization.hxx",height=0.2,width=0.4,color="grey75", fillcolor="white", style="filled",tooltip=" "];
  Node63 -> Node87 [color="midnightblue",fontsize="10",style="solid",fontname="Helvetica"];
  Node87 [label="xsd/cxx/tree/serialization\l/byte.hxx",height=0.2,width=0.4,color="grey75", fillcolor="white", style="filled",tooltip=" "];
  Node63 -> Node88 [color="midnightblue",fontsize="10",style="solid",fontname="Helvetica"];
  Node88 [label="xsd/cxx/tree/serialization\l/unsigned-byte.hxx",height=0.2,width=0.4,color="grey75", fillcolor="white", style="filled",tooltip=" "];
  Node63 -> Node89 [color="midnightblue",fontsize="10",style="solid",fontname="Helvetica"];
  Node89 [label="xsd/cxx/tree/serialization\l/short.hxx",height=0.2,width=0.4,color="grey75", fillcolor="white", style="filled",tooltip=" "];
  Node63 -> Node90 [color="midnightblue",fontsize="10",style="solid",fontname="Helvetica"];
  Node90 [label="xsd/cxx/tree/serialization\l/unsigned-short.hxx",height=0.2,width=0.4,color="grey75", fillcolor="white", style="filled",tooltip=" "];
  Node63 -> Node91 [color="midnightblue",fontsize="10",style="solid",fontname="Helvetica"];
  Node91 [label="xsd/cxx/tree/serialization\l/int.hxx",height=0.2,width=0.4,color="grey75", fillcolor="white", style="filled",tooltip=" "];
  Node63 -> Node92 [color="midnightblue",fontsize="10",style="solid",fontname="Helvetica"];
  Node92 [label="xsd/cxx/tree/serialization\l/unsigned-int.hxx",height=0.2,width=0.4,color="grey75", fillcolor="white", style="filled",tooltip=" "];
  Node63 -> Node93 [color="midnightblue",fontsize="10",style="solid",fontname="Helvetica"];
  Node93 [label="xsd/cxx/tree/serialization\l/long.hxx",height=0.2,width=0.4,color="grey75", fillcolor="white", style="filled",tooltip=" "];
  Node63 -> Node94 [color="midnightblue",fontsize="10",style="solid",fontname="Helvetica"];
  Node94 [label="xsd/cxx/tree/serialization\l/unsigned-long.hxx",height=0.2,width=0.4,color="grey75", fillcolor="white", style="filled",tooltip=" "];
  Node63 -> Node95 [color="midnightblue",fontsize="10",style="solid",fontname="Helvetica"];
  Node95 [label="xsd/cxx/tree/serialization\l/boolean.hxx",height=0.2,width=0.4,color="grey75", fillcolor="white", style="filled",tooltip=" "];
  Node63 -> Node96 [color="midnightblue",fontsize="10",style="solid",fontname="Helvetica"];
  Node96 [label="xsd/cxx/tree/serialization\l/float.hxx",height=0.2,width=0.4,color="grey75", fillcolor="white", style="filled",tooltip=" "];
  Node63 -> Node97 [color="midnightblue",fontsize="10",style="solid",fontname="Helvetica"];
  Node97 [label="xsd/cxx/tree/serialization\l/double.hxx",height=0.2,width=0.4,color="grey75", fillcolor="white", style="filled",tooltip=" "];
  Node63 -> Node98 [color="midnightblue",fontsize="10",style="solid",fontname="Helvetica"];
  Node98 [label="xsd/cxx/tree/serialization\l/decimal.hxx",height=0.2,width=0.4,color="grey75", fillcolor="white", style="filled",tooltip=" "];
  Node1 -> Node112 [color="midnightblue",fontsize="10",style="solid",fontname="Helvetica"];
  Node112 [label="ASNodeManager.h",height=0.2,width=0.4,color="red", fillcolor="white", style="filled",URL="$ASNodeManager_8h.html",tooltip=" "];
  Node112 -> Node33 [color="midnightblue",fontsize="10",style="solid",fontname="Helvetica"];
  Node1 -> Node115 [color="midnightblue",fontsize="10",style="solid",fontname="Helvetica"];
  Node115 [label="ASDelegatingVariable.h",height=0.2,width=0.4,color="red", fillcolor="white", style="filled",URL="$ASDelegatingVariable_8h.html",tooltip=" "];
  Node1 -> Node120 [color="midnightblue",fontsize="10",style="solid",fontname="Helvetica"];
  Node120 [label="ASSourceVariable.h",height=0.2,width=0.4,color="red", fillcolor="white", style="filled",URL="$ASSourceVariable_8h.html",tooltip=" "];
}
