digraph "/home/mludwig/cernLocal/projects/opcua-lxi-master/generatedSources/ASInformationModel.h"
{
 // LATEX_PDF_SIZE
  edge [fontname="Helvetica",fontsize="10",labelfontname="Helvetica",labelfontsize="10"];
  node [fontname="Helvetica",fontsize="10",shape=record];
  Node1 [label="/home/mludwig/cernLocal\l/projects/opcua-lxi-master\l/generatedSources/ASInformationModel.h",height=0.2,width=0.4,color="black", fillcolor="grey75", style="filled", fontcolor="black",tooltip=" "];
  Node1 -> Node2 [dir="back",color="midnightblue",fontsize="10",style="solid",fontname="Helvetica"];
  Node2 [label="/home/mludwig/cernLocal\l/projects/opcua-lxi-master\l/AddressSpace/src/ASNodeManager.cpp",height=0.2,width=0.4,color="black", fillcolor="white", style="filled",URL="$ASNodeManager_8cpp.html",tooltip=" "];
  Node1 -> Node3 [dir="back",color="midnightblue",fontsize="10",style="solid",fontname="Helvetica"];
  Node3 [label="/home/mludwig/cernLocal\l/projects/opcua-lxi-master\l/generatedSources/ASInformationModel.cpp",height=0.2,width=0.4,color="black", fillcolor="white", style="filled",URL="$ASInformationModel_8cpp.html",tooltip=" "];
  Node1 -> Node4 [dir="back",color="midnightblue",fontsize="10",style="solid",fontname="Helvetica"];
  Node4 [label="/home/mludwig/cernLocal\l/projects/opcua-lxi-master\l/generatedSources/Configurator.cpp",height=0.2,width=0.4,color="black", fillcolor="white", style="filled",URL="$Configurator_8cpp.html",tooltip=" "];
  Node1 -> Node5 [dir="back",color="midnightblue",fontsize="10",style="solid",fontname="Helvetica"];
  Node5 [label="/home/mludwig/cernLocal\l/projects/opcua-lxi-master\l/generatedSources/ConfigValidator.cpp",height=0.2,width=0.4,color="black", fillcolor="white", style="filled",URL="$ConfigValidator_8cpp.html",tooltip=" "];
  Node1 -> Node6 [dir="back",color="midnightblue",fontsize="10",style="solid",fontname="Helvetica"];
  Node6 [label="/home/mludwig/cernLocal\l/projects/opcua-lxi-master\l/generatedSources/MetaAmalgamate.cpp",height=0.2,width=0.4,color="black", fillcolor="white", style="filled",URL="$MetaAmalgamate_8cpp.html",tooltip=" "];
  Node1 -> Node7 [dir="back",color="midnightblue",fontsize="10",style="solid",fontname="Helvetica"];
  Node7 [label="/home/mludwig/cernLocal\l/projects/opcua-lxi-master\l/Meta/src/meta.cpp",height=0.2,width=0.4,color="black", fillcolor="white", style="filled",URL="$meta_8cpp.html",tooltip=" "];
}
