digraph "/home/mludwig/cernLocal/projects/opcua-lxi-master/Meta/src/ASSourceVariableThreadPool.cpp"
{
 // LATEX_PDF_SIZE
  edge [fontname="Helvetica",fontsize="10",labelfontname="Helvetica",labelfontsize="10"];
  node [fontname="Helvetica",fontsize="10",shape=record];
  Node1 [label="/home/mludwig/cernLocal\l/projects/opcua-lxi-master\l/Meta/src/ASSourceVariableThread\lPool.cpp",height=0.2,width=0.4,color="black", fillcolor="grey75", style="filled", fontcolor="black",tooltip=" "];
  Node1 -> Node2 [color="midnightblue",fontsize="10",style="solid",fontname="Helvetica"];
  Node2 [label="iostream",height=0.2,width=0.4,color="grey75", fillcolor="white", style="filled",tooltip=" "];
  Node1 -> Node3 [color="midnightblue",fontsize="10",style="solid",fontname="Helvetica"];
  Node3 [label="ASSourceVariableThreadPool.h",height=0.2,width=0.4,color="black", fillcolor="white", style="filled",URL="$ASSourceVariableThreadPool_8h.html",tooltip=" "];
  Node3 -> Node4 [color="midnightblue",fontsize="10",style="solid",fontname="Helvetica"];
  Node4 [label="opcua_baseobjecttype.h",height=0.2,width=0.4,color="black", fillcolor="white", style="filled",URL="$opcua__baseobjecttype_8h.html",tooltip=" "];
  Node4 -> Node5 [color="midnightblue",fontsize="10",style="solid",fontname="Helvetica"];
  Node5 [label="uanode.h",height=0.2,width=0.4,color="red", fillcolor="white", style="filled",URL="$uanode_8h.html",tooltip=" "];
  Node5 -> Node6 [color="midnightblue",fontsize="10",style="solid",fontname="Helvetica"];
  Node6 [label="uanodeid.h",height=0.2,width=0.4,color="red", fillcolor="white", style="filled",URL="$uanodeid_8h.html",tooltip=" "];
  Node4 -> Node34 [color="midnightblue",fontsize="10",style="solid",fontname="Helvetica"];
  Node34 [label="uabasenodes.h",height=0.2,width=0.4,color="black", fillcolor="white", style="filled",URL="$uabasenodes_8h.html",tooltip=" "];
  Node34 -> Node5 [color="midnightblue",fontsize="10",style="solid",fontname="Helvetica"];
  Node4 -> Node35 [color="midnightblue",fontsize="10",style="solid",fontname="Helvetica"];
  Node35 [label="nodemanagerbase.h",height=0.2,width=0.4,color="red", fillcolor="white", style="filled",URL="$nodemanagerbase_8h.html",tooltip=" "];
  Node35 -> Node36 [color="midnightblue",fontsize="10",style="solid",fontname="Helvetica"];
  Node36 [label="statuscode.h",height=0.2,width=0.4,color="red", fillcolor="white", style="filled",URL="$statuscode_8h.html",tooltip=" "];
  Node36 -> Node37 [color="midnightblue",fontsize="10",style="solid",fontname="Helvetica"];
  Node37 [label="vector",height=0.2,width=0.4,color="grey75", fillcolor="white", style="filled",tooltip=" "];
  Node35 -> Node5 [color="midnightblue",fontsize="10",style="solid",fontname="Helvetica"];
  Node4 -> Node38 [color="midnightblue",fontsize="10",style="solid",fontname="Helvetica"];
  Node38 [label="uadatavariablecache.h",height=0.2,width=0.4,color="red", fillcolor="white", style="filled",URL="$uadatavariablecache_8h.html",tooltip=" "];
  Node38 -> Node5 [color="midnightblue",fontsize="10",style="solid",fontname="Helvetica"];
  Node38 -> Node36 [color="midnightblue",fontsize="10",style="solid",fontname="Helvetica"];
  Node38 -> Node34 [color="midnightblue",fontsize="10",style="solid",fontname="Helvetica"];
  Node4 -> Node41 [color="midnightblue",fontsize="10",style="solid",fontname="Helvetica"];
  Node41 [label="methodhandleuanode.h",height=0.2,width=0.4,color="red", fillcolor="white", style="filled",URL="$methodhandleuanode_8h.html",tooltip=" "];
  Node41 -> Node34 [color="midnightblue",fontsize="10",style="solid",fontname="Helvetica"];
  Node4 -> Node49 [color="midnightblue",fontsize="10",style="solid",fontname="Helvetica"];
  Node49 [label="methodmanager.h",height=0.2,width=0.4,color="red", fillcolor="white", style="filled",URL="$methodmanager_8h.html",tooltip=" "];
  Node3 -> Node50 [color="midnightblue",fontsize="10",style="solid",fontname="Helvetica"];
  Node50 [label="opcua_basedatavariabletype.h",height=0.2,width=0.4,color="black", fillcolor="white", style="filled",URL="$opcua__basedatavariabletype_8h.html",tooltip=" "];
  Node50 -> Node6 [color="midnightblue",fontsize="10",style="solid",fontname="Helvetica"];
  Node50 -> Node5 [color="midnightblue",fontsize="10",style="solid",fontname="Helvetica"];
  Node50 -> Node45 [color="midnightblue",fontsize="10",style="solid",fontname="Helvetica"];
  Node45 [label="uadatavalue.h",height=0.2,width=0.4,color="red", fillcolor="white", style="filled",URL="$uadatavalue_8h.html",tooltip=" "];
  Node50 -> Node35 [color="midnightblue",fontsize="10",style="solid",fontname="Helvetica"];
  Node50 -> Node51 [color="midnightblue",fontsize="10",style="solid",fontname="Helvetica"];
  Node51 [label="open62541_compat.h",height=0.2,width=0.4,color="red", fillcolor="white", style="filled",URL="$open62541__compat_8h.html",tooltip=" "];
  Node51 -> Node37 [color="midnightblue",fontsize="10",style="solid",fontname="Helvetica"];
  Node51 -> Node47 [color="midnightblue",fontsize="10",style="solid",fontname="Helvetica"];
  Node47 [label="uadatetime.h",height=0.2,width=0.4,color="red", fillcolor="white", style="filled",URL="$uadatetime_8h.html",tooltip=" "];
  Node51 -> Node36 [color="midnightblue",fontsize="10",style="solid",fontname="Helvetica"];
  Node51 -> Node65 [color="midnightblue",fontsize="10",style="solid",fontname="Helvetica"];
  Node65 [label="session.h",height=0.2,width=0.4,color="black", fillcolor="white", style="filled",URL="$session_8h.html",tooltip=" "];
  Node51 -> Node6 [color="midnightblue",fontsize="10",style="solid",fontname="Helvetica"];
  Node51 -> Node5 [color="midnightblue",fontsize="10",style="solid",fontname="Helvetica"];
  Node51 -> Node35 [color="midnightblue",fontsize="10",style="solid",fontname="Helvetica"];
  Node51 -> Node4 [color="midnightblue",fontsize="10",style="solid",fontname="Helvetica"];
  Node51 -> Node50 [color="midnightblue",fontsize="10",style="solid",fontname="Helvetica"];
  Node50 -> Node36 [color="midnightblue",fontsize="10",style="solid",fontname="Helvetica"];
  Node3 -> Node66 [color="midnightblue",fontsize="10",style="solid",fontname="Helvetica"];
  Node66 [label="Configuration.hxx",height=0.2,width=0.4,color="red", fillcolor="white", style="filled",URL="$Configuration_8hxx.html",tooltip=" "];
  Node66 -> Node67 [color="midnightblue",fontsize="10",style="solid",fontname="Helvetica"];
  Node67 [label="xsd/cxx/config.hxx",height=0.2,width=0.4,color="grey75", fillcolor="white", style="filled",tooltip=" "];
  Node66 -> Node68 [color="midnightblue",fontsize="10",style="solid",fontname="Helvetica"];
  Node68 [label="xsd/cxx/pre.hxx",height=0.2,width=0.4,color="grey75", fillcolor="white", style="filled",tooltip=" "];
  Node66 -> Node69 [color="midnightblue",fontsize="10",style="solid",fontname="Helvetica"];
  Node69 [label="xsd/cxx/xml/char-utf8.hxx",height=0.2,width=0.4,color="grey75", fillcolor="white", style="filled",tooltip=" "];
  Node66 -> Node70 [color="midnightblue",fontsize="10",style="solid",fontname="Helvetica"];
  Node70 [label="xsd/cxx/tree/exceptions.hxx",height=0.2,width=0.4,color="grey75", fillcolor="white", style="filled",tooltip=" "];
  Node66 -> Node71 [color="midnightblue",fontsize="10",style="solid",fontname="Helvetica"];
  Node71 [label="xsd/cxx/tree/elements.hxx",height=0.2,width=0.4,color="grey75", fillcolor="white", style="filled",tooltip=" "];
  Node66 -> Node72 [color="midnightblue",fontsize="10",style="solid",fontname="Helvetica"];
  Node72 [label="xsd/cxx/tree/types.hxx",height=0.2,width=0.4,color="grey75", fillcolor="white", style="filled",tooltip=" "];
  Node66 -> Node73 [color="midnightblue",fontsize="10",style="solid",fontname="Helvetica"];
  Node73 [label="xsd/cxx/xml/error-handler.hxx",height=0.2,width=0.4,color="grey75", fillcolor="white", style="filled",tooltip=" "];
  Node66 -> Node74 [color="midnightblue",fontsize="10",style="solid",fontname="Helvetica"];
  Node74 [label="xsd/cxx/xml/dom/auto\l-ptr.hxx",height=0.2,width=0.4,color="grey75", fillcolor="white", style="filled",tooltip=" "];
  Node66 -> Node75 [color="midnightblue",fontsize="10",style="solid",fontname="Helvetica"];
  Node75 [label="xsd/cxx/tree/parsing.hxx",height=0.2,width=0.4,color="grey75", fillcolor="white", style="filled",tooltip=" "];
  Node66 -> Node76 [color="midnightblue",fontsize="10",style="solid",fontname="Helvetica"];
  Node76 [label="xsd/cxx/tree/parsing\l/byte.hxx",height=0.2,width=0.4,color="grey75", fillcolor="white", style="filled",tooltip=" "];
  Node66 -> Node77 [color="midnightblue",fontsize="10",style="solid",fontname="Helvetica"];
  Node77 [label="xsd/cxx/tree/parsing\l/unsigned-byte.hxx",height=0.2,width=0.4,color="grey75", fillcolor="white", style="filled",tooltip=" "];
  Node66 -> Node78 [color="midnightblue",fontsize="10",style="solid",fontname="Helvetica"];
  Node78 [label="xsd/cxx/tree/parsing\l/short.hxx",height=0.2,width=0.4,color="grey75", fillcolor="white", style="filled",tooltip=" "];
  Node66 -> Node79 [color="midnightblue",fontsize="10",style="solid",fontname="Helvetica"];
  Node79 [label="xsd/cxx/tree/parsing\l/unsigned-short.hxx",height=0.2,width=0.4,color="grey75", fillcolor="white", style="filled",tooltip=" "];
  Node66 -> Node80 [color="midnightblue",fontsize="10",style="solid",fontname="Helvetica"];
  Node80 [label="xsd/cxx/tree/parsing\l/int.hxx",height=0.2,width=0.4,color="grey75", fillcolor="white", style="filled",tooltip=" "];
  Node66 -> Node81 [color="midnightblue",fontsize="10",style="solid",fontname="Helvetica"];
  Node81 [label="xsd/cxx/tree/parsing\l/unsigned-int.hxx",height=0.2,width=0.4,color="grey75", fillcolor="white", style="filled",tooltip=" "];
  Node66 -> Node82 [color="midnightblue",fontsize="10",style="solid",fontname="Helvetica"];
  Node82 [label="xsd/cxx/tree/parsing\l/long.hxx",height=0.2,width=0.4,color="grey75", fillcolor="white", style="filled",tooltip=" "];
  Node66 -> Node83 [color="midnightblue",fontsize="10",style="solid",fontname="Helvetica"];
  Node83 [label="xsd/cxx/tree/parsing\l/unsigned-long.hxx",height=0.2,width=0.4,color="grey75", fillcolor="white", style="filled",tooltip=" "];
  Node66 -> Node84 [color="midnightblue",fontsize="10",style="solid",fontname="Helvetica"];
  Node84 [label="xsd/cxx/tree/parsing\l/boolean.hxx",height=0.2,width=0.4,color="grey75", fillcolor="white", style="filled",tooltip=" "];
  Node66 -> Node85 [color="midnightblue",fontsize="10",style="solid",fontname="Helvetica"];
  Node85 [label="xsd/cxx/tree/parsing\l/float.hxx",height=0.2,width=0.4,color="grey75", fillcolor="white", style="filled",tooltip=" "];
  Node66 -> Node86 [color="midnightblue",fontsize="10",style="solid",fontname="Helvetica"];
  Node86 [label="xsd/cxx/tree/parsing\l/double.hxx",height=0.2,width=0.4,color="grey75", fillcolor="white", style="filled",tooltip=" "];
  Node66 -> Node87 [color="midnightblue",fontsize="10",style="solid",fontname="Helvetica"];
  Node87 [label="xsd/cxx/tree/parsing\l/decimal.hxx",height=0.2,width=0.4,color="grey75", fillcolor="white", style="filled",tooltip=" "];
  Node66 -> Node88 [color="midnightblue",fontsize="10",style="solid",fontname="Helvetica"];
  Node88 [label="xsd/cxx/xml/dom/serialization\l-header.hxx",height=0.2,width=0.4,color="grey75", fillcolor="white", style="filled",tooltip=" "];
  Node66 -> Node89 [color="midnightblue",fontsize="10",style="solid",fontname="Helvetica"];
  Node89 [label="xsd/cxx/tree/serialization.hxx",height=0.2,width=0.4,color="grey75", fillcolor="white", style="filled",tooltip=" "];
  Node66 -> Node90 [color="midnightblue",fontsize="10",style="solid",fontname="Helvetica"];
  Node90 [label="xsd/cxx/tree/serialization\l/byte.hxx",height=0.2,width=0.4,color="grey75", fillcolor="white", style="filled",tooltip=" "];
  Node66 -> Node91 [color="midnightblue",fontsize="10",style="solid",fontname="Helvetica"];
  Node91 [label="xsd/cxx/tree/serialization\l/unsigned-byte.hxx",height=0.2,width=0.4,color="grey75", fillcolor="white", style="filled",tooltip=" "];
  Node66 -> Node37 [color="midnightblue",fontsize="10",style="solid",fontname="Helvetica"];
  Node3 -> Node115 [color="midnightblue",fontsize="10",style="solid",fontname="Helvetica"];
  Node115 [label="ASNodeManager.h",height=0.2,width=0.4,color="red", fillcolor="white", style="filled",URL="$ASNodeManager_8h.html",tooltip=" "];
  Node115 -> Node35 [color="midnightblue",fontsize="10",style="solid",fontname="Helvetica"];
  Node3 -> Node118 [color="midnightblue",fontsize="10",style="solid",fontname="Helvetica"];
  Node118 [label="ASDelegatingVariable.h",height=0.2,width=0.4,color="red", fillcolor="white", style="filled",URL="$ASDelegatingVariable_8h.html",tooltip=" "];
  Node3 -> Node120 [color="midnightblue",fontsize="10",style="solid",fontname="Helvetica"];
  Node120 [label="ASSourceVariable.h",height=0.2,width=0.4,color="red", fillcolor="white", style="filled",URL="$ASSourceVariable_8h.html",tooltip=" "];
  Node120 -> Node50 [color="midnightblue",fontsize="10",style="solid",fontname="Helvetica"];
  Node1 -> Node129 [color="midnightblue",fontsize="10",style="solid",fontname="Helvetica"];
  Node129 [label="DSourceVariableThreadPool.h",height=0.2,width=0.4,color="black", fillcolor="white", style="filled",URL="$DSourceVariableThreadPool_8h.html",tooltip=" "];
  Node129 -> Node37 [color="midnightblue",fontsize="10",style="solid",fontname="Helvetica"];
  Node129 -> Node36 [color="midnightblue",fontsize="10",style="solid",fontname="Helvetica"];
  Node129 -> Node47 [color="midnightblue",fontsize="10",style="solid",fontname="Helvetica"];
  Node129 -> Node65 [color="midnightblue",fontsize="10",style="solid",fontname="Helvetica"];
  Node129 -> Node130 [color="midnightblue",fontsize="10",style="solid",fontname="Helvetica"];
  Node130 [label="DRoot.h",height=0.2,width=0.4,color="red", fillcolor="white", style="filled",URL="$DRoot_8h.html",tooltip=" "];
  Node130 -> Node37 [color="midnightblue",fontsize="10",style="solid",fontname="Helvetica"];
  Node129 -> Node66 [color="midnightblue",fontsize="10",style="solid",fontname="Helvetica"];
  Node129 -> Node131 [color="midnightblue",fontsize="10",style="solid",fontname="Helvetica"];
  Node131 [label="Base_DSourceVariableThread\lPool.h",height=0.2,width=0.4,color="red", fillcolor="white", style="filled",URL="$Base__DSourceVariableThreadPool_8h.html",tooltip=" "];
  Node131 -> Node37 [color="midnightblue",fontsize="10",style="solid",fontname="Helvetica"];
  Node131 -> Node36 [color="midnightblue",fontsize="10",style="solid",fontname="Helvetica"];
  Node131 -> Node47 [color="midnightblue",fontsize="10",style="solid",fontname="Helvetica"];
  Node131 -> Node65 [color="midnightblue",fontsize="10",style="solid",fontname="Helvetica"];
  Node131 -> Node130 [color="midnightblue",fontsize="10",style="solid",fontname="Helvetica"];
  Node131 -> Node66 [color="midnightblue",fontsize="10",style="solid",fontname="Helvetica"];
  Node131 -> Node131 [color="midnightblue",fontsize="10",style="solid",fontname="Helvetica"];
}
