digraph "/home/mludwig/cernLocal/projects/opcua-lxi-master/Meta/include/ASSourceVariableThreadPool.h"
{
 // LATEX_PDF_SIZE
  edge [fontname="Helvetica",fontsize="10",labelfontname="Helvetica",labelfontsize="10"];
  node [fontname="Helvetica",fontsize="10",shape=record];
  Node1 [label="/home/mludwig/cernLocal\l/projects/opcua-lxi-master\l/Meta/include/ASSourceVariableThread\lPool.h",height=0.2,width=0.4,color="black", fillcolor="grey75", style="filled", fontcolor="black",tooltip=" "];
  Node1 -> Node2 [dir="back",color="midnightblue",fontsize="10",style="solid",fontname="Helvetica"];
  Node2 [label="/home/mludwig/cernLocal\l/projects/opcua-lxi-master\l/generatedSources/MetaAmalgamate.cpp",height=0.2,width=0.4,color="black", fillcolor="white", style="filled",URL="$MetaAmalgamate_8cpp.html",tooltip=" "];
  Node1 -> Node3 [dir="back",color="midnightblue",fontsize="10",style="solid",fontname="Helvetica"];
  Node3 [label="/home/mludwig/cernLocal\l/projects/opcua-lxi-master\l/Meta/src/ASSourceVariableThread\lPool.cpp",height=0.2,width=0.4,color="black", fillcolor="white", style="filled",URL="$ASSourceVariableThreadPool_8cpp.html",tooltip=" "];
  Node1 -> Node4 [dir="back",color="midnightblue",fontsize="10",style="solid",fontname="Helvetica"];
  Node4 [label="/home/mludwig/cernLocal\l/projects/opcua-lxi-master\l/Meta/src/Base_DSourceVariableThread\lPool.cpp",height=0.2,width=0.4,color="black", fillcolor="white", style="filled",URL="$Base__DSourceVariableThreadPool_8cpp.html",tooltip=" "];
  Node1 -> Node5 [dir="back",color="midnightblue",fontsize="10",style="solid",fontname="Helvetica"];
  Node5 [label="/home/mludwig/cernLocal\l/projects/opcua-lxi-master\l/Meta/src/DSourceVariableThreadPool.cpp",height=0.2,width=0.4,color="black", fillcolor="white", style="filled",URL="$DSourceVariableThreadPool_8cpp.html",tooltip=" "];
  Node1 -> Node6 [dir="back",color="midnightblue",fontsize="10",style="solid",fontname="Helvetica"];
  Node6 [label="/home/mludwig/cernLocal\l/projects/opcua-lxi-master\l/Meta/src/meta.cpp",height=0.2,width=0.4,color="black", fillcolor="white", style="filled",URL="$meta_8cpp.html",tooltip=" "];
}
