digraph "/home/mludwig/cernLocal/projects/opcua-lxi-master/CalculatedVariables/src/CalculatedVariablesEngine.cpp"
{
 // LATEX_PDF_SIZE
  edge [fontname="Helvetica",fontsize="10",labelfontname="Helvetica",labelfontsize="10"];
  node [fontname="Helvetica",fontsize="10",shape=record];
  Node1 [label="/home/mludwig/cernLocal\l/projects/opcua-lxi-master\l/CalculatedVariables/src\l/CalculatedVariablesEngine.cpp",height=0.2,width=0.4,color="black", fillcolor="grey75", style="filled", fontcolor="black",tooltip=" "];
  Node1 -> Node2 [color="midnightblue",fontsize="10",style="solid",fontname="Helvetica"];
  Node2 [label="ASNodeManager.h",height=0.2,width=0.4,color="black", fillcolor="white", style="filled",URL="$ASNodeManager_8h.html",tooltip=" "];
  Node2 -> Node3 [color="midnightblue",fontsize="10",style="solid",fontname="Helvetica"];
  Node3 [label="functional",height=0.2,width=0.4,color="grey75", fillcolor="white", style="filled",tooltip=" "];
  Node2 -> Node4 [color="midnightblue",fontsize="10",style="solid",fontname="Helvetica"];
  Node4 [label="nodemanagerbase.h",height=0.2,width=0.4,color="black", fillcolor="white", style="filled",URL="$nodemanagerbase_8h.html",tooltip=" "];
  Node4 -> Node5 [color="midnightblue",fontsize="10",style="solid",fontname="Helvetica"];
  Node5 [label="statuscode.h",height=0.2,width=0.4,color="red", fillcolor="white", style="filled",URL="$statuscode_8h.html",tooltip=" "];
  Node5 -> Node27 [color="midnightblue",fontsize="10",style="solid",fontname="Helvetica"];
  Node27 [label="uastring.h",height=0.2,width=0.4,color="red", fillcolor="white", style="filled",URL="$uastring_8h.html",tooltip=" "];
  Node27 -> Node28 [color="midnightblue",fontsize="10",style="solid",fontname="Helvetica"];
  Node28 [label="string",height=0.2,width=0.4,color="grey75", fillcolor="white", style="filled",tooltip=" "];
  Node5 -> Node31 [color="midnightblue",fontsize="10",style="solid",fontname="Helvetica"];
  Node31 [label="vector",height=0.2,width=0.4,color="grey75", fillcolor="white", style="filled",tooltip=" "];
  Node4 -> Node32 [color="midnightblue",fontsize="10",style="solid",fontname="Helvetica"];
  Node32 [label="uanode.h",height=0.2,width=0.4,color="black", fillcolor="white", style="filled",URL="$uanode_8h.html",tooltip=" "];
  Node32 -> Node33 [color="midnightblue",fontsize="10",style="solid",fontname="Helvetica"];
  Node33 [label="uanodeid.h",height=0.2,width=0.4,color="red", fillcolor="white", style="filled",URL="$uanodeid_8h.html",tooltip=" "];
  Node33 -> Node27 [color="midnightblue",fontsize="10",style="solid",fontname="Helvetica"];
  Node32 -> Node34 [color="midnightblue",fontsize="10",style="solid",fontname="Helvetica"];
  Node34 [label="other.h",height=0.2,width=0.4,color="red", fillcolor="white", style="filled",URL="$other_8h.html",tooltip=" "];
  Node34 -> Node27 [color="midnightblue",fontsize="10",style="solid",fontname="Helvetica"];
  Node32 -> Node35 [color="midnightblue",fontsize="10",style="solid",fontname="Helvetica"];
  Node35 [label="list",height=0.2,width=0.4,color="grey75", fillcolor="white", style="filled",tooltip=" "];
  Node4 -> Node34 [color="midnightblue",fontsize="10",style="solid",fontname="Helvetica"];
  Node2 -> Node36 [color="midnightblue",fontsize="10",style="solid",fontname="Helvetica"];
  Node36 [label="ASUtils.h",height=0.2,width=0.4,color="black", fillcolor="white", style="filled",URL="$ASUtils_8h.html",tooltip=" "];
  Node36 -> Node18 [color="midnightblue",fontsize="10",style="solid",fontname="Helvetica"];
  Node18 [label="stdlib.h",height=0.2,width=0.4,color="grey75", fillcolor="white", style="filled",tooltip=" "];
  Node36 -> Node37 [color="midnightblue",fontsize="10",style="solid",fontname="Helvetica"];
  Node37 [label="iostream",height=0.2,width=0.4,color="grey75", fillcolor="white", style="filled",tooltip=" "];
  Node36 -> Node28 [color="midnightblue",fontsize="10",style="solid",fontname="Helvetica"];
  Node1 -> Node38 [color="midnightblue",fontsize="10",style="solid",fontname="Helvetica"];
  Node38 [label="LogIt.h",height=0.2,width=0.4,color="black", fillcolor="white", style="filled",URL="$LogIt_8h.html",tooltip=" "];
  Node38 -> Node20 [color="midnightblue",fontsize="10",style="solid",fontname="Helvetica"];
  Node20 [label="stdint.h",height=0.2,width=0.4,color="grey75", fillcolor="white", style="filled",tooltip=" "];
  Node38 -> Node37 [color="midnightblue",fontsize="10",style="solid",fontname="Helvetica"];
  Node38 -> Node35 [color="midnightblue",fontsize="10",style="solid",fontname="Helvetica"];
  Node38 -> Node39 [color="midnightblue",fontsize="10",style="solid",fontname="Helvetica"];
  Node39 [label="LogItStaticDefinitions.h",height=0.2,width=0.4,color="black", fillcolor="white", style="filled",URL="$LogItStaticDefinitions_8h.html",tooltip=" "];
  Node38 -> Node40 [color="midnightblue",fontsize="10",style="solid",fontname="Helvetica"];
  Node40 [label="LogRecord.h",height=0.2,width=0.4,color="black", fillcolor="white", style="filled",URL="$LogRecord_8h.html",tooltip=" "];
  Node40 -> Node20 [color="midnightblue",fontsize="10",style="solid",fontname="Helvetica"];
  Node40 -> Node41 [color="midnightblue",fontsize="10",style="solid",fontname="Helvetica"];
  Node41 [label="sstream",height=0.2,width=0.4,color="grey75", fillcolor="white", style="filled",tooltip=" "];
  Node40 -> Node42 [color="midnightblue",fontsize="10",style="solid",fontname="Helvetica"];
  Node42 [label="LogLevels.h",height=0.2,width=0.4,color="black", fillcolor="white", style="filled",URL="$LogLevels_8h.html",tooltip=" "];
  Node42 -> Node28 [color="midnightblue",fontsize="10",style="solid",fontname="Helvetica"];
  Node40 -> Node39 [color="midnightblue",fontsize="10",style="solid",fontname="Helvetica"];
  Node38 -> Node42 [color="midnightblue",fontsize="10",style="solid",fontname="Helvetica"];
  Node38 -> Node43 [color="midnightblue",fontsize="10",style="solid",fontname="Helvetica"];
  Node43 [label="LogItInstance.h",height=0.2,width=0.4,color="black", fillcolor="white", style="filled",URL="$LogItInstance_8h.html",tooltip=" "];
  Node43 -> Node31 [color="midnightblue",fontsize="10",style="solid",fontname="Helvetica"];
  Node43 -> Node44 [color="midnightblue",fontsize="10",style="solid",fontname="Helvetica"];
  Node44 [label="map",height=0.2,width=0.4,color="grey75", fillcolor="white", style="filled",tooltip=" "];
  Node43 -> Node45 [color="midnightblue",fontsize="10",style="solid",fontname="Helvetica"];
  Node45 [label="memory",height=0.2,width=0.4,color="grey75", fillcolor="white", style="filled",tooltip=" "];
  Node43 -> Node46 [color="midnightblue",fontsize="10",style="solid",fontname="Helvetica"];
  Node46 [label="unordered_map",height=0.2,width=0.4,color="grey75", fillcolor="white", style="filled",tooltip=" "];
  Node43 -> Node47 [color="midnightblue",fontsize="10",style="solid",fontname="Helvetica"];
  Node47 [label="mutex",height=0.2,width=0.4,color="grey75", fillcolor="white", style="filled",tooltip=" "];
  Node43 -> Node39 [color="midnightblue",fontsize="10",style="solid",fontname="Helvetica"];
  Node43 -> Node42 [color="midnightblue",fontsize="10",style="solid",fontname="Helvetica"];
  Node43 -> Node48 [color="midnightblue",fontsize="10",style="solid",fontname="Helvetica"];
  Node48 [label="ComponentAttributes.h",height=0.2,width=0.4,color="black", fillcolor="white", style="filled",URL="$ComponentAttributes_8h.html",tooltip=" "];
  Node48 -> Node28 [color="midnightblue",fontsize="10",style="solid",fontname="Helvetica"];
  Node48 -> Node20 [color="midnightblue",fontsize="10",style="solid",fontname="Helvetica"];
  Node48 -> Node42 [color="midnightblue",fontsize="10",style="solid",fontname="Helvetica"];
  Node48 -> Node39 [color="midnightblue",fontsize="10",style="solid",fontname="Helvetica"];
  Node43 -> Node49 [color="midnightblue",fontsize="10",style="solid",fontname="Helvetica"];
  Node49 [label="LogSinks.h",height=0.2,width=0.4,color="red", fillcolor="white", style="filled",URL="$LogSinks_8h.html",tooltip=" "];
  Node49 -> Node28 [color="midnightblue",fontsize="10",style="solid",fontname="Helvetica"];
  Node49 -> Node31 [color="midnightblue",fontsize="10",style="solid",fontname="Helvetica"];
  Node1 -> Node51 [color="midnightblue",fontsize="10",style="solid",fontname="Helvetica"];
  Node51 [label="CalculatedVariable.h",height=0.2,width=0.4,color="black", fillcolor="white", style="filled",URL="$CalculatedVariable_8h.html",tooltip=" "];
  Node51 -> Node52 [color="midnightblue",fontsize="10",style="solid",fontname="Helvetica"];
  Node52 [label="ChangeNotifyingVariable.h",height=0.2,width=0.4,color="black", fillcolor="white", style="filled",URL="$ChangeNotifyingVariable_8h.html",tooltip=" "];
  Node52 -> Node53 [color="midnightblue",fontsize="10",style="solid",fontname="Helvetica"];
  Node53 [label="opcua_basedatavariabletype.h",height=0.2,width=0.4,color="red", fillcolor="white", style="filled",URL="$opcua__basedatavariabletype_8h.html",tooltip=" "];
  Node53 -> Node33 [color="midnightblue",fontsize="10",style="solid",fontname="Helvetica"];
  Node53 -> Node32 [color="midnightblue",fontsize="10",style="solid",fontname="Helvetica"];
  Node53 -> Node4 [color="midnightblue",fontsize="10",style="solid",fontname="Helvetica"];
  Node53 -> Node5 [color="midnightblue",fontsize="10",style="solid",fontname="Helvetica"];
  Node52 -> Node3 [color="midnightblue",fontsize="10",style="solid",fontname="Helvetica"];
  Node52 -> Node35 [color="midnightblue",fontsize="10",style="solid",fontname="Helvetica"];
  Node51 -> Node70 [color="midnightblue",fontsize="10",style="solid",fontname="Helvetica"];
  Node70 [label="muParser.h",height=0.2,width=0.4,color="black", fillcolor="white", style="filled",URL="$muParser_8h.html",tooltip="This file contains compatibility fixes for some platforms."];
  Node70 -> Node31 [color="midnightblue",fontsize="10",style="solid",fontname="Helvetica"];
  Node70 -> Node71 [color="midnightblue",fontsize="10",style="solid",fontname="Helvetica"];
  Node71 [label="cmath",height=0.2,width=0.4,color="grey75", fillcolor="white", style="filled",tooltip=" "];
  Node70 -> Node28 [color="midnightblue",fontsize="10",style="solid",fontname="Helvetica"];
  Node70 -> Node37 [color="midnightblue",fontsize="10",style="solid",fontname="Helvetica"];
  Node70 -> Node44 [color="midnightblue",fontsize="10",style="solid",fontname="Helvetica"];
  Node70 -> Node45 [color="midnightblue",fontsize="10",style="solid",fontname="Helvetica"];
  Node70 -> Node72 [color="midnightblue",fontsize="10",style="solid",fontname="Helvetica"];
  Node72 [label="locale",height=0.2,width=0.4,color="grey75", fillcolor="white", style="filled",tooltip=" "];
  Node70 -> Node73 [color="midnightblue",fontsize="10",style="solid",fontname="Helvetica"];
  Node73 [label="limits.h",height=0.2,width=0.4,color="grey75", fillcolor="white", style="filled",tooltip=" "];
  Node70 -> Node41 [color="midnightblue",fontsize="10",style="solid",fontname="Helvetica"];
  Node70 -> Node74 [color="midnightblue",fontsize="10",style="solid",fontname="Helvetica"];
  Node74 [label="cassert",height=0.2,width=0.4,color="grey75", fillcolor="white", style="filled",tooltip=" "];
  Node70 -> Node75 [color="midnightblue",fontsize="10",style="solid",fontname="Helvetica"];
  Node75 [label="stack",height=0.2,width=0.4,color="grey75", fillcolor="white", style="filled",tooltip=" "];
  Node70 -> Node76 [color="midnightblue",fontsize="10",style="solid",fontname="Helvetica"];
  Node76 [label="stdexcept",height=0.2,width=0.4,color="grey75", fillcolor="white", style="filled",tooltip=" "];
  Node70 -> Node77 [color="midnightblue",fontsize="10",style="solid",fontname="Helvetica"];
  Node77 [label="cstdio",height=0.2,width=0.4,color="grey75", fillcolor="white", style="filled",tooltip=" "];
  Node70 -> Node78 [color="midnightblue",fontsize="10",style="solid",fontname="Helvetica"];
  Node78 [label="cstring",height=0.2,width=0.4,color="grey75", fillcolor="white", style="filled",tooltip=" "];
  Node70 -> Node35 [color="midnightblue",fontsize="10",style="solid",fontname="Helvetica"];
  Node70 -> Node79 [color="midnightblue",fontsize="10",style="solid",fontname="Helvetica"];
  Node79 [label="cstdlib",height=0.2,width=0.4,color="grey75", fillcolor="white", style="filled",tooltip=" "];
  Node70 -> Node80 [color="midnightblue",fontsize="10",style="solid",fontname="Helvetica"];
  Node80 [label="numeric",height=0.2,width=0.4,color="grey75", fillcolor="white", style="filled",tooltip=" "];
  Node51 -> Node81 [color="midnightblue",fontsize="10",style="solid",fontname="Helvetica"];
  Node81 [label="ParserVariableRequestUser\lData.h",height=0.2,width=0.4,color="black", fillcolor="white", style="filled",URL="$ParserVariableRequestUserData_8h.html",tooltip=" "];
  Node1 -> Node82 [color="midnightblue",fontsize="10",style="solid",fontname="Helvetica"];
  Node82 [label="CalculatedVariablesLogComponentId.h",height=0.2,width=0.4,color="black", fillcolor="white", style="filled",URL="$CalculatedVariablesLogComponentId_8h.html",tooltip=" "];
  Node82 -> Node39 [color="midnightblue",fontsize="10",style="solid",fontname="Helvetica"];
  Node1 -> Node83 [color="midnightblue",fontsize="10",style="solid",fontname="Helvetica"];
  Node83 [label="CalculatedVariablesChange\lListener.h",height=0.2,width=0.4,color="black", fillcolor="white", style="filled",URL="$CalculatedVariablesChangeListener_8h.html",tooltip=" "];
  Node1 -> Node84 [color="midnightblue",fontsize="10",style="solid",fontname="Helvetica"];
  Node84 [label="CalculatedVariablesEngine.h",height=0.2,width=0.4,color="black", fillcolor="white", style="filled",URL="$CalculatedVariablesEngine_8h.html",tooltip=" "];
  Node84 -> Node35 [color="midnightblue",fontsize="10",style="solid",fontname="Helvetica"];
  Node84 -> Node33 [color="midnightblue",fontsize="10",style="solid",fontname="Helvetica"];
  Node84 -> Node85 [color="midnightblue",fontsize="10",style="solid",fontname="Helvetica"];
  Node85 [label="Configuration.hxx",height=0.2,width=0.4,color="red", fillcolor="white", style="filled",URL="$Configuration_8hxx.html",tooltip=" "];
  Node85 -> Node45 [color="midnightblue",fontsize="10",style="solid",fontname="Helvetica"];
  Node85 -> Node31 [color="midnightblue",fontsize="10",style="solid",fontname="Helvetica"];
  Node84 -> Node134 [color="midnightblue",fontsize="10",style="solid",fontname="Helvetica"];
  Node134 [label="ParserVariable.h",height=0.2,width=0.4,color="red", fillcolor="white", style="filled",URL="$ParserVariable_8h.html",tooltip=" "];
  Node134 -> Node28 [color="midnightblue",fontsize="10",style="solid",fontname="Helvetica"];
  Node134 -> Node35 [color="midnightblue",fontsize="10",style="solid",fontname="Helvetica"];
  Node1 -> Node81 [color="midnightblue",fontsize="10",style="solid",fontname="Helvetica"];
  Node1 -> Node136 [color="midnightblue",fontsize="10",style="solid",fontname="Helvetica"];
  Node136 [label="Utils.h",height=0.2,width=0.4,color="black", fillcolor="white", style="filled",URL="$Utils_8h.html",tooltip=" "];
  Node136 -> Node41 [color="midnightblue",fontsize="10",style="solid",fontname="Helvetica"];
  Node136 -> Node76 [color="midnightblue",fontsize="10",style="solid",fontname="Helvetica"];
  Node1 -> Node137 [color="midnightblue",fontsize="10",style="solid",fontname="Helvetica"];
  Node137 [label="boost/xpressive/xpressive.hpp",height=0.2,width=0.4,color="grey75", fillcolor="white", style="filled",tooltip=" "];
}
