digraph "/home/mludwig/cernLocal/projects/opcua-lxi-master/CalculatedVariables/include/CalculatedVariable.h"
{
 // LATEX_PDF_SIZE
  edge [fontname="Helvetica",fontsize="10",labelfontname="Helvetica",labelfontsize="10"];
  node [fontname="Helvetica",fontsize="10",shape=record];
  Node1 [label="/home/mludwig/cernLocal\l/projects/opcua-lxi-master\l/CalculatedVariables/include\l/CalculatedVariable.h",height=0.2,width=0.4,color="black", fillcolor="grey75", style="filled", fontcolor="black",tooltip=" "];
  Node1 -> Node2 [dir="back",color="midnightblue",fontsize="10",style="solid",fontname="Helvetica"];
  Node2 [label="/home/mludwig/cernLocal\l/projects/opcua-lxi-master\l/CalculatedVariables/src\l/CalculatedVariable.cpp",height=0.2,width=0.4,color="black", fillcolor="white", style="filled",URL="$CalculatedVariable_8cpp.html",tooltip=" "];
  Node1 -> Node3 [dir="back",color="midnightblue",fontsize="10",style="solid",fontname="Helvetica"];
  Node3 [label="/home/mludwig/cernLocal\l/projects/opcua-lxi-master\l/CalculatedVariables/src\l/CalculatedVariablesEngine.cpp",height=0.2,width=0.4,color="black", fillcolor="white", style="filled",URL="$CalculatedVariablesEngine_8cpp.html",tooltip=" "];
  Node1 -> Node4 [dir="back",color="midnightblue",fontsize="10",style="solid",fontname="Helvetica"];
  Node4 [label="/home/mludwig/cernLocal\l/projects/opcua-lxi-master\l/CalculatedVariables/src\l/ParserVariable.cpp",height=0.2,width=0.4,color="black", fillcolor="white", style="filled",URL="$ParserVariable_8cpp.html",tooltip=" "];
}
