digraph "UaClientSdk::UaSession::read"
{
 // LATEX_PDF_SIZE
  edge [fontname="Helvetica",fontsize="10",labelfontname="Helvetica",labelfontsize="10"];
  node [fontname="Helvetica",fontsize="10",shape=record];
  rankdir="LR";
  Node1 [label="UaClientSdk::UaSession\l::read",height=0.2,width=0.4,color="black", fillcolor="grey75", style="filled", fontcolor="black",tooltip=" "];
  Node1 -> Node2 [color="midnightblue",fontsize="10",style="solid",fontname="Helvetica"];
  Node2 [label="UaCompatArray::size",height=0.2,width=0.4,color="black", fillcolor="white", style="filled",URL="$classUaCompatArray.html#a4acfd16c4794f14da16293d1158e790e",tooltip=" "];
}
