digraph "Device::Base_DPowerSupply::unlinkAllChildren"
{
 // LATEX_PDF_SIZE
  edge [fontname="Helvetica",fontsize="10",labelfontname="Helvetica",labelfontsize="10"];
  node [fontname="Helvetica",fontsize="10",shape=record];
  rankdir="LR";
  Node1 [label="Device::Base_DPowerSupply\l::unlinkAllChildren",height=0.2,width=0.4,color="black", fillcolor="grey75", style="filled", fontcolor="black",tooltip=" "];
  Node1 -> Node2 [color="midnightblue",fontsize="10",style="solid",fontname="Helvetica"];
  Node2 [label="Device::Base_DPowerSupply\l::channels",height=0.2,width=0.4,color="black", fillcolor="white", style="filled",URL="$classDevice_1_1Base__DPowerSupply.html#a59c95c33d17e96642e128896f9a6f70c",tooltip=" "];
  Node1 -> Node3 [color="midnightblue",fontsize="10",style="solid",fontname="Helvetica"];
  Node3 [label="Device::Base_DPowerSupply\l::statuspss",height=0.2,width=0.4,color="black", fillcolor="white", style="filled",URL="$classDevice_1_1Base__DPowerSupply.html#ac04e0017fd8b0efb40fc2f7eda739b83",tooltip=" "];
}
