digraph "DesignInspector.DesignInspector.objectify_root"
{
 // LATEX_PDF_SIZE
  edge [fontname="Helvetica",fontsize="10",labelfontname="Helvetica",labelfontsize="10"];
  node [fontname="Helvetica",fontsize="10",shape=record];
  rankdir="LR";
  Node1 [label="DesignInspector.DesignInspector.objectify_root",height=0.2,width=0.4,color="black", fillcolor="grey75", style="filled", fontcolor="black",tooltip=" "];
  Node1 -> Node2 [color="midnightblue",fontsize="10",style="solid",fontname="Helvetica"];
  Node2 [label="DesignInspector.DesignInspector.xpath",height=0.2,width=0.4,color="black", fillcolor="white", style="filled",URL="$classDesignInspector_1_1DesignInspector.html#a098588efc6344e5f91561565f8da3e51",tooltip=" "];
}
