digraph "AddressSpace::ChangeNotifyingVariable::setValue"
{
 // LATEX_PDF_SIZE
  edge [fontname="Helvetica",fontsize="10",labelfontname="Helvetica",labelfontsize="10"];
  node [fontname="Helvetica",fontsize="10",shape=record];
  rankdir="LR";
  Node1 [label="AddressSpace::ChangeNotifying\lVariable::setValue",height=0.2,width=0.4,color="black", fillcolor="grey75", style="filled", fontcolor="black",tooltip=" "];
  Node1 -> Node2 [color="midnightblue",fontsize="10",style="solid",fontname="Helvetica"];
  Node2 [label="OpcUa::BaseDataVariableType\l::setValue",height=0.2,width=0.4,color="black", fillcolor="white", style="filled",URL="$classOpcUa_1_1BaseDataVariableType.html#a3f6e23aef1123c8a6c0e4459fa68ddc6",tooltip=" "];
}
