digraph "UaVariant::operator=="
{
 // LATEX_PDF_SIZE
  edge [fontname="Helvetica",fontsize="10",labelfontname="Helvetica",labelfontsize="10"];
  node [fontname="Helvetica",fontsize="10",shape=record];
  rankdir="LR";
  Node1 [label="UaVariant::operator==",height=0.2,width=0.4,color="black", fillcolor="grey75", style="filled", fontcolor="black",tooltip=" "];
  Node1 -> Node2 [color="midnightblue",fontsize="10",style="solid",fontname="Helvetica"];
  Node2 [label="UaVariant::type",height=0.2,width=0.4,color="black", fillcolor="white", style="filled",URL="$classUaVariant.html#a850601f87900b6ac86c392d45b0bcf47",tooltip=" "];
}
