digraph "UaByteString::operator="
{
 // LATEX_PDF_SIZE
  edge [fontname="Helvetica",fontsize="10",labelfontname="Helvetica",labelfontsize="10"];
  node [fontname="Helvetica",fontsize="10",shape=record];
  rankdir="LR";
  Node1 [label="UaByteString::operator=",height=0.2,width=0.4,color="black", fillcolor="grey75", style="filled", fontcolor="black",tooltip=" "];
  Node1 -> Node2 [color="midnightblue",fontsize="10",style="solid",fontname="Helvetica"];
  Node2 [label="UaByteString::copyTo",height=0.2,width=0.4,color="black", fillcolor="white", style="filled",URL="$classUaByteString.html#aa93ff98a85972cb4cd890b5e519c528a",tooltip=" "];
  Node2 -> Node3 [color="midnightblue",fontsize="10",style="solid",fontname="Helvetica"];
  Node3 [label="UaByteString::release",height=0.2,width=0.4,color="black", fillcolor="white", style="filled",URL="$classUaByteString.html#aee7be43fce3bdb4a7de42acb3332f20c",tooltip=" "];
  Node1 -> Node3 [color="midnightblue",fontsize="10",style="solid",fontname="Helvetica"];
}
