digraph "UaVariant::setInt16Array"
{
 // LATEX_PDF_SIZE
  edge [fontname="Helvetica",fontsize="10",labelfontname="Helvetica",labelfontsize="10"];
  node [fontname="Helvetica",fontsize="10",shape=record];
  rankdir="LR";
  Node1 [label="UaVariant::setInt16Array",height=0.2,width=0.4,color="black", fillcolor="grey75", style="filled", fontcolor="black",tooltip=" "];
  Node1 -> Node2 [color="midnightblue",fontsize="10",style="solid",fontname="Helvetica"];
  Node2 [label="UaVariant::set1DArray",height=0.2,width=0.4,color="black", fillcolor="white", style="filled",URL="$classUaVariant.html#a1d71a07ef56aeab1fd0af7d8eef0d086",tooltip=" "];
}
