digraph "LogRecord::initializeStream"
{
 // LATEX_PDF_SIZE
  edge [fontname="Helvetica",fontsize="10",labelfontname="Helvetica",labelfontsize="10"];
  node [fontname="Helvetica",fontsize="10",shape=record];
  rankdir="LR";
  Node1 [label="LogRecord::initializeStream",height=0.2,width=0.4,color="black", fillcolor="grey75", style="filled", fontcolor="black",tooltip=" "];
  Node1 -> Node2 [color="midnightblue",fontsize="10",style="solid",fontname="Helvetica"];
  Node2 [label="file",height=0.2,width=0.4,color="black", fillcolor="white", style="filled",URL="$Meta_2CMakeLists_8txt.html#ab9e848a4d23a1c5bf808c4f03ed3c4b5",tooltip=" "];
  Node1 -> Node3 [color="midnightblue",fontsize="10",style="solid",fontname="Helvetica"];
  Node3 [label="Log::logLevelToString",height=0.2,width=0.4,color="black", fillcolor="white", style="filled",URL="$namespaceLog.html#a0514d35b067113169a3ed7e73b819716",tooltip=" "];
  Node1 -> Node4 [color="midnightblue",fontsize="10",style="solid",fontname="Helvetica"];
  Node4 [label="LogRecord::stripDirectory",height=0.2,width=0.4,color="black", fillcolor="white", style="filled",URL="$classLogRecord.html#a9fdf616ab2697acbec0c83218ee04937",tooltip=" "];
  Node4 -> Node2 [color="midnightblue",fontsize="10",style="solid",fontname="Helvetica"];
}
