digraph "UaServer::runThread"
{
 // LATEX_PDF_SIZE
  edge [fontname="Helvetica",fontsize="10",labelfontname="Helvetica",labelfontsize="10"];
  node [fontname="Helvetica",fontsize="10",shape=record];
  rankdir="LR";
  Node1 [label="UaServer::runThread",height=0.2,width=0.4,color="black", fillcolor="grey75", style="filled", fontcolor="black",tooltip=" "];
  Node1 -> Node2 [color="midnightblue",fontsize="10",style="solid",fontname="Helvetica"];
  Node2 [label="UaStatus::toString",height=0.2,width=0.4,color="black", fillcolor="white", style="filled",URL="$classUaStatus.html#a77f2d164dce7d56550e95424fd73a051",tooltip=" "];
  Node2 -> Node3 [color="midnightblue",fontsize="10",style="solid",fontname="Helvetica"];
  Node3 [label="UaStatus::isBad",height=0.2,width=0.4,color="black", fillcolor="white", style="filled",URL="$classUaStatus.html#a657b0c5a3cb687ab9121686f8dc391a1",tooltip=" "];
  Node2 -> Node4 [color="midnightblue",fontsize="10",style="solid",fontname="Helvetica"];
  Node4 [label="UaStatus::isUncertain",height=0.2,width=0.4,color="black", fillcolor="white", style="filled",URL="$classUaStatus.html#a12388d8e15e9dd5349fbf6069b854a4a",tooltip=" "];
  Node2 -> Node5 [color="midnightblue",fontsize="10",style="solid",fontname="Helvetica"];
  Node5 [label="it",height=0.2,width=0.4,color="black", fillcolor="white", style="filled",URL="$run_2readme_8txt.html#a00c941c0b3a058943426f27355541739",tooltip=" "];
  Node2 -> Node6 [color="midnightblue",fontsize="10",style="solid",fontname="Helvetica"];
  Node6 [label="UA_StatusCode_name",height=0.2,width=0.4,color="black", fillcolor="white", style="filled",URL="$generatedSources_2open62541_8h.html#a7ae7ef876a16570919d9318e6836b973",tooltip=" "];
  Node1 -> Node7 [color="midnightblue",fontsize="10",style="solid",fontname="Helvetica"];
  Node7 [label="UaString::toUtf8",height=0.2,width=0.4,color="black", fillcolor="white", style="filled",URL="$classUaString.html#a0815fbf72b91c5cb6df3fd398434a395",tooltip=" "];
  Node1 -> Node8 [color="midnightblue",fontsize="10",style="solid",fontname="Helvetica"];
  Node8 [label="UA_Server_run_iterate",height=0.2,width=0.4,color="black", fillcolor="white", style="filled",URL="$generatedSources_2open62541_8h.html#a15467aaf9dde1156abf1ce8fd4339e9b",tooltip=" "];
  Node1 -> Node9 [color="midnightblue",fontsize="10",style="solid",fontname="Helvetica"];
  Node9 [label="UA_Server_run_shutdown",height=0.2,width=0.4,color="black", fillcolor="white", style="filled",URL="$generatedSources_2open62541_8h.html#a46b13beed9591c1d2cdb6ce751cb9f3b",tooltip=" "];
}
