digraph "ServerConfigXml::loadConfiguration"
{
 // LATEX_PDF_SIZE
  edge [fontname="Helvetica",fontsize="10",labelfontname="Helvetica",labelfontsize="10"];
  node [fontname="Helvetica",fontsize="10",shape=record];
  rankdir="LR";
  Node1 [label="ServerConfigXml::loadConfiguration",height=0.2,width=0.4,color="black", fillcolor="grey75", style="filled", fontcolor="black",tooltip=" "];
  Node1 -> Node2 [color="midnightblue",fontsize="10",style="solid",fontname="Helvetica"];
  Node2 [label="UaString::copyTo",height=0.2,width=0.4,color="black", fillcolor="white", style="filled",URL="$classUaString.html#acb278bb3fa3be432d44ed8582e2bb453",tooltip=" "];
  Node1 -> Node3 [color="midnightblue",fontsize="10",style="solid",fontname="Helvetica"];
  Node3 [label="UaCompatArray::create",height=0.2,width=0.4,color="black", fillcolor="white", style="filled",URL="$classUaCompatArray.html#aac39b403138e592e212c8eec6b1bba30",tooltip=" "];
  Node1 -> Node4 [color="midnightblue",fontsize="10",style="solid",fontname="Helvetica"];
  Node4 [label="UaStatus::isGood",height=0.2,width=0.4,color="black", fillcolor="white", style="filled",URL="$classUaStatus.html#ac371e8952fc3e77837778cb3cb0695aa",tooltip=" "];
  Node1 -> Node5 [color="midnightblue",fontsize="10",style="solid",fontname="Helvetica"];
  Node5 [label="it",height=0.2,width=0.4,color="black", fillcolor="white", style="filled",URL="$run_2readme_8txt.html#a00c941c0b3a058943426f27355541739",tooltip=" "];
  Node1 -> Node6 [color="midnightblue",fontsize="10",style="solid",fontname="Helvetica"];
  Node6 [label="UaCompatArray::length",height=0.2,width=0.4,color="black", fillcolor="white", style="filled",URL="$classUaCompatArray.html#a7e2f6b88bddca8bb9e498e17570e79f6",tooltip=" "];
  Node1 -> Node7 [color="midnightblue",fontsize="10",style="solid",fontname="Helvetica"];
  Node7 [label="UaVariant::setString",height=0.2,width=0.4,color="black", fillcolor="white", style="filled",URL="$classUaVariant.html#a893ee5e8e74451d7fc66b2e4c72e28da",tooltip=" "];
  Node1 -> Node8 [color="midnightblue",fontsize="10",style="solid",fontname="Helvetica"];
  Node8 [label="UaEndpointXml::setXmlConfig",height=0.2,width=0.4,color="black", fillcolor="white", style="filled",URL="$classUaEndpointXml.html#ac2d1102176a7b7dc18909a273670ff6c",tooltip=" "];
  Node8 -> Node9 [color="midnightblue",fontsize="10",style="solid",fontname="Helvetica"];
  Node9 [label="UaByteArray::data",height=0.2,width=0.4,color="black", fillcolor="white", style="filled",URL="$classUaByteArray.html#a691e967cce3ede6724663cbda890457e",tooltip=" "];
  Node9 -> Node10 [color="midnightblue",fontsize="10",style="solid",fontname="Helvetica"];
  Node10 [label="UaCompatArray\< OpcUa\l_Byte \>::size",height=0.2,width=0.4,color="black", fillcolor="white", style="filled",URL="$classUaCompatArray.html#a4acfd16c4794f14da16293d1158e790e",tooltip=" "];
  Node8 -> Node11 [color="midnightblue",fontsize="10",style="solid",fontname="Helvetica"];
  Node11 [label="UaStatus::isNotGood",height=0.2,width=0.4,color="black", fillcolor="white", style="filled",URL="$classUaStatus.html#a00835bbe5b98fd4bc2125b8fafdb34c3",tooltip=" "];
  Node11 -> Node4 [color="midnightblue",fontsize="10",style="solid",fontname="Helvetica"];
  Node8 -> Node5 [color="midnightblue",fontsize="10",style="solid",fontname="Helvetica"];
  Node8 -> Node12 [color="midnightblue",fontsize="10",style="solid",fontname="Helvetica"];
  Node12 [label="UaString::length",height=0.2,width=0.4,color="black", fillcolor="white", style="filled",URL="$classUaString.html#a8ed640dcb20b34e528f5514c83eb548c",tooltip=" "];
  Node8 -> Node13 [color="midnightblue",fontsize="10",style="solid",fontname="Helvetica"];
  Node13 [label="UaByteString::setByteString",height=0.2,width=0.4,color="black", fillcolor="white", style="filled",URL="$classUaByteString.html#a3c60e4c889e55cec777460872d2a4e85",tooltip=" "];
  Node13 -> Node14 [color="midnightblue",fontsize="10",style="solid",fontname="Helvetica"];
  Node14 [label="UaByteString::data",height=0.2,width=0.4,color="black", fillcolor="white", style="filled",URL="$classUaByteString.html#a5a53bc2d524c69a73514263864f1094d",tooltip=" "];
  Node13 -> Node15 [color="midnightblue",fontsize="10",style="solid",fontname="Helvetica"];
  Node15 [label="UaByteString::release",height=0.2,width=0.4,color="black", fillcolor="white", style="filled",URL="$classUaByteString.html#aee7be43fce3bdb4a7de42acb3332f20c",tooltip=" "];
  Node8 -> Node7 [color="midnightblue",fontsize="10",style="solid",fontname="Helvetica"];
  Node8 -> Node10 [color="midnightblue",fontsize="10",style="solid",fontname="Helvetica"];
  Node8 -> Node16 [color="midnightblue",fontsize="10",style="solid",fontname="Helvetica"];
  Node16 [label="UaStatus::statusCode",height=0.2,width=0.4,color="black", fillcolor="white", style="filled",URL="$classUaStatus.html#a4f37fba5e95a5dc43e3b8225856815e9",tooltip=" "];
  Node8 -> Node17 [color="midnightblue",fontsize="10",style="solid",fontname="Helvetica"];
  Node17 [label="UaVariant::toInt32",height=0.2,width=0.4,color="black", fillcolor="white", style="filled",URL="$classUaVariant.html#aaec3b02225ec1cd6f9fc0f04eec27a2f",tooltip=" "];
  Node17 -> Node18 [color="midnightblue",fontsize="10",style="solid",fontname="Helvetica"];
  Node18 [label="UaVariant::toSimpleType",height=0.2,width=0.4,color="black", fillcolor="white", style="filled",URL="$classUaVariant.html#a9bfdc2f68a1266fc9e6c84a129bdb85e",tooltip="Will convert stored value to a simple type, if possible."];
  Node18 -> Node19 [color="midnightblue",fontsize="10",style="solid",fontname="Helvetica"];
  Node19 [label="UaVariant::convertNumericType",height=0.2,width=0.4,color="black", fillcolor="white", style="filled",URL="$classUaVariant.html#ad616147abf70426e9c2bf23b2ec78262",tooltip=" "];
  Node18 -> Node20 [color="midnightblue",fontsize="10",style="solid",fontname="Helvetica"];
  Node20 [label="UaVariant::isNumericType",height=0.2,width=0.4,color="black", fillcolor="white", style="filled",URL="$classUaVariant.html#a2007cb3f123fba847708e5538fa6ead6",tooltip=" "];
  Node8 -> Node21 [color="midnightblue",fontsize="10",style="solid",fontname="Helvetica"];
  Node21 [label="UaString::toUtf8",height=0.2,width=0.4,color="black", fillcolor="white", style="filled",URL="$classUaString.html#a0815fbf72b91c5cb6df3fd398434a395",tooltip=" "];
  Node1 -> Node22 [color="midnightblue",fontsize="10",style="solid",fontname="Helvetica"];
  Node22 [label="UaVariant::toDouble",height=0.2,width=0.4,color="black", fillcolor="white", style="filled",URL="$classUaVariant.html#a11cabe193b430bb5fc582b60aaad4abe",tooltip=" "];
  Node22 -> Node18 [color="midnightblue",fontsize="10",style="solid",fontname="Helvetica"];
  Node1 -> Node17 [color="midnightblue",fontsize="10",style="solid",fontname="Helvetica"];
  Node1 -> Node23 [color="midnightblue",fontsize="10",style="solid",fontname="Helvetica"];
  Node23 [label="UaVariant::toUInt32",height=0.2,width=0.4,color="black", fillcolor="white", style="filled",URL="$classUaVariant.html#a66934a0912ce1d26a0aae2d3a9b39205",tooltip=" "];
  Node23 -> Node18 [color="midnightblue",fontsize="10",style="solid",fontname="Helvetica"];
  Node1 -> Node21 [color="midnightblue",fontsize="10",style="solid",fontname="Helvetica"];
}
