digraph "mu::ParserBase::DefineInfixOprt"
{
 // LATEX_PDF_SIZE
  edge [fontname="Helvetica",fontsize="10",labelfontname="Helvetica",labelfontsize="10"];
  node [fontname="Helvetica",fontsize="10",shape=record];
  rankdir="LR";
  Node1 [label="mu::ParserBase::DefineInfixOprt",height=0.2,width=0.4,color="black", fillcolor="grey75", style="filled", fontcolor="black",tooltip="Add a user defined operator."];
  Node1 -> Node2 [color="midnightblue",fontsize="10",style="solid",fontname="Helvetica"];
  Node2 [label="mu::ParserBase::AddCallback",height=0.2,width=0.4,color="black", fillcolor="white", style="filled",URL="$classmu_1_1ParserBase.html#a2a06b19df214b249c64dad6a5a5705be",tooltip="Add a function or operator callback to the parser."];
  Node2 -> Node3 [color="midnightblue",fontsize="10",style="solid",fontname="Helvetica"];
  Node3 [label="mu::ParserBase::CheckOprt",height=0.2,width=0.4,color="black", fillcolor="white", style="filled",URL="$classmu_1_1ParserBase.html#a133b3a0e476be0b53001ce5d8568e99b",tooltip="Check if a name contains invalid characters."];
  Node3 -> Node4 [color="midnightblue",fontsize="10",style="solid",fontname="Helvetica"];
  Node4 [label="mu::ParserBase::Error",height=0.2,width=0.4,color="black", fillcolor="white", style="filled",URL="$classmu_1_1ParserBase.html#a408fec52d58680b74beee84ed9ca7c9c",tooltip="Create an error containing the parse error position."];
  Node3 -> Node5 [color="midnightblue",fontsize="10",style="solid",fontname="Helvetica"];
  Node5 [label="mu::ParserCallback\l::GetCode",height=0.2,width=0.4,color="black", fillcolor="white", style="filled",URL="$classmu_1_1ParserCallback.html#aca4285a09eac65372691af3cb6f31fae",tooltip="Return the callback code."];
  Node2 -> Node4 [color="midnightblue",fontsize="10",style="solid",fontname="Helvetica"];
  Node2 -> Node6 [color="midnightblue",fontsize="10",style="solid",fontname="Helvetica"];
  Node6 [label="mu::ParserCallback\l::GetAddr",height=0.2,width=0.4,color="black", fillcolor="white", style="filled",URL="$classmu_1_1ParserCallback.html#abea23b8f31fb65086013b8382ca0674b",tooltip="Get the callback address for the parser function."];
  Node2 -> Node7 [color="midnightblue",fontsize="10",style="solid",fontname="Helvetica"];
  Node7 [label="mu::ParserBase::ReInit",height=0.2,width=0.4,color="black", fillcolor="white", style="filled",URL="$classmu_1_1ParserBase.html#ae25a9288c72526494035ce7f23b2b588",tooltip="Reset parser to string parsing mode and clear internal buffers."];
  Node7 -> Node8 [color="midnightblue",fontsize="10",style="solid",fontname="Helvetica"];
  Node8 [label="mu::ParserByteCode\l::clear",height=0.2,width=0.4,color="black", fillcolor="white", style="filled",URL="$classmu_1_1ParserByteCode.html#a9cec7c19c5ebbc1eac31d3b93edae1e4",tooltip="Delete the bytecode."];
  Node7 -> Node9 [color="midnightblue",fontsize="10",style="solid",fontname="Helvetica"];
  Node9 [label="mu::ParserBase::ParseString",height=0.2,width=0.4,color="black", fillcolor="white", style="filled",URL="$classmu_1_1ParserBase.html#a18994b737dfe6f2996792fa7320673b0",tooltip="One of the two main parse functions."];
  Node9 -> Node10 [color="midnightblue",fontsize="10",style="solid",fontname="Helvetica"];
  Node10 [label="mu::ParserError::SetFormula",height=0.2,width=0.4,color="black", fillcolor="white", style="filled",URL="$classmu_1_1ParserError.html#a1b7b4b511525f13f728c9c2942983b19",tooltip="Set the expression related to this error."];
  Node1 -> Node11 [color="midnightblue",fontsize="10",style="solid",fontname="Helvetica"];
  Node11 [label="mu::ParserBase::ValidInfix\lOprtChars",height=0.2,width=0.4,color="black", fillcolor="white", style="filled",URL="$classmu_1_1ParserBase.html#a07d5ceb535e963f4fda5e3890759373d",tooltip="Virtual function that defines the characters allowed in infix operator definitions."];
}
