digraph "Device::Base_DLxiCommand"
{
 // LATEX_PDF_SIZE
  edge [fontname="Helvetica",fontsize="10",labelfontname="Helvetica",labelfontsize="10"];
  node [fontname="Helvetica",fontsize="10",shape=record];
  rankdir="LR";
  Node1 [label="Device::Base_DLxiCommand",height=0.2,width=0.4,color="black", fillcolor="grey75", style="filled", fontcolor="black",tooltip=" "];
  Node2 -> Node1 [dir="back",color="darkorchid3",fontsize="10",style="dashed",label=" m_addressSpaceLink" ,fontname="Helvetica"];
  Node2 [label="AddressSpace::ASLxiCommand",height=0.2,width=0.4,color="black", fillcolor="white", style="filled",URL="$classAddressSpace_1_1ASLxiCommand.html",tooltip="Fully auto-generated class to represent LxiCommand in the OPC UA AddressSpace."];
  Node3 -> Node2 [dir="back",color="midnightblue",fontsize="10",style="solid",fontname="Helvetica"];
  Node3 [label="OpcUa::BaseObjectType",height=0.2,width=0.4,color="black", fillcolor="white", style="filled",URL="$classOpcUa_1_1BaseObjectType.html",tooltip=" "];
  Node4 -> Node3 [dir="back",color="midnightblue",fontsize="10",style="solid",fontname="Helvetica"];
  Node4 [label="UaObject",height=0.2,width=0.4,color="black", fillcolor="white", style="filled",URL="$classUaObject.html",tooltip=" "];
  Node5 -> Node4 [dir="back",color="midnightblue",fontsize="10",style="solid",fontname="Helvetica"];
  Node5 [label="UaNode",height=0.2,width=0.4,color="black", fillcolor="white", style="filled",URL="$classUaNode.html",tooltip=" "];
  Node6 -> Node3 [dir="back",color="firebrick4",fontsize="10",style="solid",fontname="Helvetica"];
  Node6 [label="MethodManager",height=0.2,width=0.4,color="black", fillcolor="white", style="filled",URL="$classMethodManager.html",tooltip=" "];
  Node7 -> Node3 [dir="back",color="darkorchid3",fontsize="10",style="dashed",label=" m_browseName" ,fontname="Helvetica"];
  Node7 [label="UaQualifiedName",height=0.2,width=0.4,color="black", fillcolor="white", style="filled",URL="$classUaQualifiedName.html",tooltip=" "];
  Node8 -> Node7 [dir="back",color="darkorchid3",fontsize="10",style="dashed",label=" m_unqualifiedName" ,fontname="Helvetica"];
  Node8 [label="UaString",height=0.2,width=0.4,color="black", fillcolor="white", style="filled",URL="$classUaString.html",tooltip=" "];
  Node9 -> Node8 [dir="back",color="darkorchid3",fontsize="10",style="dashed",label=" m_impl" ,fontname="Helvetica"];
  Node9 [label="UA_String",height=0.2,width=0.4,color="black", fillcolor="white", style="filled",URL="$structUA__String.html",tooltip=" "];
  Node10 -> Node7 [dir="back",color="darkorchid3",fontsize="10",style="dashed",label=" m_impl" ,fontname="Helvetica"];
  Node10 [label="UA_QualifiedName",height=0.2,width=0.4,color="black", fillcolor="white", style="filled",URL="$structUA__QualifiedName.html",tooltip=" "];
  Node9 -> Node10 [dir="back",color="darkorchid3",fontsize="10",style="dashed",label=" name" ,fontname="Helvetica"];
  Node11 -> Node3 [dir="back",color="darkorchid3",fontsize="10",style="dashed",label=" m_nodeId" ,fontname="Helvetica"];
  Node11 [label="UaNodeId",height=0.2,width=0.4,color="black", fillcolor="white", style="filled",URL="$classUaNodeId.html",tooltip=" "];
  Node12 -> Node11 [dir="back",color="darkorchid3",fontsize="10",style="dashed",label=" m_impl" ,fontname="Helvetica"];
  Node12 [label="UA_NodeId",height=0.2,width=0.4,color="black", fillcolor="white", style="filled",URL="$structUA__NodeId.html",tooltip=" "];
  Node13 -> Node12 [dir="back",color="darkorchid3",fontsize="10",style="dashed",label=" identifierType" ,fontname="Helvetica"];
  Node13 [label="enum",height=0.2,width=0.4,color="grey75", fillcolor="white", style="filled",tooltip=" "];
  Node9 -> Node12 [dir="back",color="darkorchid3",fontsize="10",style="dashed",label=" string\nbyteString" ,fontname="Helvetica"];
  Node14 -> Node12 [dir="back",color="darkorchid3",fontsize="10",style="dashed",label=" guid" ,fontname="Helvetica"];
  Node14 [label="UA_Guid",height=0.2,width=0.4,color="black", fillcolor="white", style="filled",URL="$structUA__Guid.html",tooltip=" "];
  Node15 -> Node2 [dir="back",color="darkorchid3",fontsize="10",style="dashed",label=" m_LxiCommand" ,fontname="Helvetica"];
  Node15 [label="AddressSpace::ChangeNotifying\lVariable",height=0.2,width=0.4,color="black", fillcolor="white", style="filled",URL="$classAddressSpace_1_1ChangeNotifyingVariable.html",tooltip=" "];
  Node16 -> Node15 [dir="back",color="midnightblue",fontsize="10",style="solid",fontname="Helvetica"];
  Node16 [label="OpcUa::BaseDataVariableType",height=0.2,width=0.4,color="black", fillcolor="white", style="filled",URL="$classOpcUa_1_1BaseDataVariableType.html",tooltip=" "];
  Node5 -> Node16 [dir="back",color="midnightblue",fontsize="10",style="solid",fontname="Helvetica"];
  Node17 -> Node16 [dir="back",color="darkorchid3",fontsize="10",style="dashed",label=" m_arrayDimensions" ,fontname="Helvetica"];
  Node17 [label="UaCompatArray\< OpcUa\l_UInt32 \>",height=0.2,width=0.4,color="black", fillcolor="white", style="filled",URL="$classUaCompatArray.html",tooltip=" "];
  Node18 -> Node16 [dir="back",color="darkorchid3",fontsize="10",style="dashed",label=" m_currentValue" ,fontname="Helvetica"];
  Node18 [label="UaDataValue",height=0.2,width=0.4,color="black", fillcolor="white", style="filled",URL="$classUaDataValue.html",tooltip=" "];
  Node19 -> Node18 [dir="back",color="darkorchid3",fontsize="10",style="dashed",label=" m_impl" ,fontname="Helvetica"];
  Node19 [label="UA_DataValue",height=0.2,width=0.4,color="black", fillcolor="white", style="filled",URL="$structUA__DataValue.html",tooltip=" "];
  Node20 -> Node19 [dir="back",color="darkorchid3",fontsize="10",style="dashed",label=" value" ,fontname="Helvetica"];
  Node20 [label="UA_Variant",height=0.2,width=0.4,color="black", fillcolor="white", style="filled",URL="$structUA__Variant.html",tooltip=" "];
  Node21 -> Node20 [dir="back",color="darkorchid3",fontsize="10",style="dashed",label=" type" ,fontname="Helvetica"];
  Node21 [label="UA_DataType",height=0.2,width=0.4,color="black", fillcolor="white", style="filled",URL="$structUA__DataType.html",tooltip=" "];
  Node12 -> Node21 [dir="back",color="darkorchid3",fontsize="10",style="dashed",label=" typeId" ,fontname="Helvetica"];
  Node22 -> Node21 [dir="back",color="darkorchid3",fontsize="10",style="dashed",label=" members" ,fontname="Helvetica"];
  Node22 [label="UA_DataTypeMember",height=0.2,width=0.4,color="black", fillcolor="white", style="filled",URL="$structUA__DataTypeMember.html",tooltip=" "];
  Node7 -> Node16 [dir="back",color="darkorchid3",fontsize="10",style="dashed",label=" m_browseName" ,fontname="Helvetica"];
  Node11 -> Node16 [dir="back",color="darkorchid3",fontsize="10",style="dashed",label=" m_nodeId\nm_typeDefinitionId" ,fontname="Helvetica"];
  Node11 -> Node2 [dir="back",color="darkorchid3",fontsize="10",style="dashed",label=" m_effectiveParentNodeIdFor\lChildren\nm_typeNodeId" ,fontname="Helvetica"];
  Node23 -> Node2 [dir="back",color="darkorchid3",fontsize="10",style="dashed",label=" m_deviceLink" ,fontname="Helvetica"];
  Node23 [label="Device::DLxiCommand",height=0.2,width=0.4,color="black", fillcolor="white", style="filled",URL="$classDevice_1_1DLxiCommand.html",tooltip=" "];
  Node1 -> Node23 [dir="back",color="midnightblue",fontsize="10",style="solid",fontname="Helvetica"];
  Node24 -> Node23 [dir="back",color="darkorchid3",fontsize="10",style="dashed",label=" m_lxiCommand" ,fontname="Helvetica"];
  Node24 [label="string",height=0.2,width=0.4,color="grey75", fillcolor="white", style="filled",tooltip=" "];
  Node24 -> Node1 [dir="back",color="darkorchid3",fontsize="10",style="dashed",label=" m_stringAddress" ,fontname="Helvetica"];
  Node25 -> Node1 [dir="back",color="darkorchid3",fontsize="10",style="dashed",label=" m_parent" ,fontname="Helvetica"];
  Node25 [label="Device::DLxiAbstraction",height=0.2,width=0.4,color="black", fillcolor="white", style="filled",URL="$classDevice_1_1DLxiAbstraction.html",tooltip=" "];
  Node26 -> Node25 [dir="back",color="midnightblue",fontsize="10",style="solid",fontname="Helvetica"];
  Node26 [label="Device::Base_DLxiAbstraction",height=0.2,width=0.4,color="black", fillcolor="white", style="filled",URL="$classDevice_1_1Base__DLxiAbstraction.html",tooltip=" "];
  Node27 -> Node26 [dir="back",color="darkorchid3",fontsize="10",style="dashed",label=" m_addressSpaceLink" ,fontname="Helvetica"];
  Node27 [label="AddressSpace::ASLxiAbstraction",height=0.2,width=0.4,color="black", fillcolor="white", style="filled",URL="$classAddressSpace_1_1ASLxiAbstraction.html",tooltip="Fully auto-generated class to represent LxiAbstraction in the OPC UA AddressSpace."];
  Node3 -> Node27 [dir="back",color="midnightblue",fontsize="10",style="solid",fontname="Helvetica"];
  Node11 -> Node27 [dir="back",color="darkorchid3",fontsize="10",style="dashed",label=" m_effectiveParentNodeIdFor\lChildren\nm_typeNodeId" ,fontname="Helvetica"];
  Node25 -> Node27 [dir="back",color="darkorchid3",fontsize="10",style="dashed",label=" m_deviceLink" ,fontname="Helvetica"];
  Node28 -> Node26 [dir="back",color="darkorchid3",fontsize="10",style="dashed",label=" m_parent" ,fontname="Helvetica"];
  Node28 [label="Device::DRoot",height=0.2,width=0.4,color="black", fillcolor="white", style="filled",URL="$classDevice_1_1DRoot.html",tooltip=" "];
  Node28 -> Node28 [dir="back",color="darkorchid3",fontsize="10",style="dashed",label=" m_instance" ,fontname="Helvetica"];
  Node24 -> Node26 [dir="back",color="darkorchid3",fontsize="10",style="dashed",label=" m_stringAddress" ,fontname="Helvetica"];
}
