digraph "BaseQuasarServer"
{
 // LATEX_PDF_SIZE
  edge [fontname="Helvetica",fontsize="10",labelfontname="Helvetica",labelfontsize="10"];
  node [fontname="Helvetica",fontsize="10",shape=record];
  rankdir="LR";
  Node1 [label="BaseQuasarServer",height=0.2,width=0.4,color="black", fillcolor="grey75", style="filled", fontcolor="black",tooltip=" "];
  Node2 -> Node1 [dir="back",color="darkorchid3",fontsize="10",style="dashed",label=" m_deviceRoot" ,fontname="Helvetica"];
  Node2 [label="Device::DRoot",height=0.2,width=0.4,color="black", fillcolor="white", style="filled",URL="$classDevice_1_1DRoot.html",tooltip=" "];
  Node2 -> Node2 [dir="back",color="darkorchid3",fontsize="10",style="dashed",label=" m_instance" ,fontname="Helvetica"];
  Node3 -> Node1 [dir="back",color="darkorchid3",fontsize="10",style="dashed",label=" m_nodeManager" ,fontname="Helvetica"];
  Node3 [label="AddressSpace::ASNodeManager",height=0.2,width=0.4,color="black", fillcolor="white", style="filled",URL="$classAddressSpace_1_1ASNodeManager.html",tooltip=" "];
  Node4 -> Node3 [dir="back",color="midnightblue",fontsize="10",style="solid",fontname="Helvetica"];
  Node4 [label="NodeManagerBase",height=0.2,width=0.4,color="black", fillcolor="white", style="filled",URL="$classNodeManagerBase.html",tooltip=" "];
  Node5 -> Node4 [dir="back",color="midnightblue",fontsize="10",style="solid",fontname="Helvetica"];
  Node5 [label="NodeManagerConfig",height=0.2,width=0.4,color="black", fillcolor="white", style="filled",URL="$classNodeManagerConfig.html",tooltip=" "];
  Node6 -> Node4 [dir="back",color="darkorchid3",fontsize="10",style="dashed",label=" m_serverRootNode" ,fontname="Helvetica"];
  Node6 [label="NodeManagerBase::ServerRootNode",height=0.2,width=0.4,color="black", fillcolor="white", style="filled",URL="$classNodeManagerBase_1_1ServerRootNode.html",tooltip=" "];
  Node7 -> Node6 [dir="back",color="midnightblue",fontsize="10",style="solid",fontname="Helvetica"];
  Node7 [label="UaNode",height=0.2,width=0.4,color="black", fillcolor="white", style="filled",URL="$classUaNode.html",tooltip=" "];
  Node8 -> Node4 [dir="back",color="darkorchid3",fontsize="10",style="dashed",label=" m_server" ,fontname="Helvetica"];
  Node8 [label="UA_Server",height=0.2,width=0.4,color="black", fillcolor="white", style="filled",URL="$structUA__Server.html",tooltip=" "];
  Node9 -> Node8 [dir="back",color="darkorchid3",fontsize="10",style="dashed",label=" timer" ,fontname="Helvetica"];
  Node9 [label="UA_Timer",height=0.2,width=0.4,color="black", fillcolor="white", style="filled",URL="$structUA__Timer.html",tooltip=" "];
  Node10 -> Node8 [dir="back",color="darkorchid3",fontsize="10",style="dashed",label=" adminSession" ,fontname="Helvetica"];
  Node10 [label="UA_Session",height=0.2,width=0.4,color="black", fillcolor="white", style="filled",URL="$structUA__Session.html",tooltip=" "];
  Node11 -> Node10 [dir="back",color="darkorchid3",fontsize="10",style="dashed",label=" sessionId" ,fontname="Helvetica"];
  Node11 [label="UA_NodeId",height=0.2,width=0.4,color="black", fillcolor="white", style="filled",URL="$structUA__NodeId.html",tooltip=" "];
  Node12 -> Node11 [dir="back",color="darkorchid3",fontsize="10",style="dashed",label=" identifierType" ,fontname="Helvetica"];
  Node12 [label="enum",height=0.2,width=0.4,color="grey75", fillcolor="white", style="filled",tooltip=" "];
  Node13 -> Node11 [dir="back",color="darkorchid3",fontsize="10",style="dashed",label=" string\nbyteString" ,fontname="Helvetica"];
  Node13 [label="UA_String",height=0.2,width=0.4,color="black", fillcolor="white", style="filled",URL="$structUA__String.html",tooltip=" "];
  Node14 -> Node11 [dir="back",color="darkorchid3",fontsize="10",style="dashed",label=" guid" ,fontname="Helvetica"];
  Node14 [label="UA_Guid",height=0.2,width=0.4,color="black", fillcolor="white", style="filled",URL="$structUA__Guid.html",tooltip=" "];
  Node13 -> Node10 [dir="back",color="darkorchid3",fontsize="10",style="dashed",label=" serverNonce\nsessionName" ,fontname="Helvetica"];
  Node15 -> Node10 [dir="back",color="darkorchid3",fontsize="10",style="dashed",label=" clientDescription" ,fontname="Helvetica"];
  Node15 [label="UA_ApplicationDescription",height=0.2,width=0.4,color="black", fillcolor="white", style="filled",URL="$structUA__ApplicationDescription.html",tooltip=" "];
  Node13 -> Node15 [dir="back",color="darkorchid3",fontsize="10",style="dashed",label=" productUri\napplicationUri\ndiscoveryProfileUri\ndiscoveryUrls\ngatewayServerUri" ,fontname="Helvetica"];
  Node16 -> Node15 [dir="back",color="darkorchid3",fontsize="10",style="dashed",label=" applicationName" ,fontname="Helvetica"];
  Node16 [label="UA_LocalizedText",height=0.2,width=0.4,color="black", fillcolor="white", style="filled",URL="$structUA__LocalizedText.html",tooltip=" "];
  Node13 -> Node16 [dir="back",color="darkorchid3",fontsize="10",style="dashed",label=" locale\ntext" ,fontname="Helvetica"];
  Node17 -> Node10 [dir="back",color="darkorchid3",fontsize="10",style="dashed",label=" continuationPoints" ,fontname="Helvetica"];
  Node17 [label="ContinuationPoint",height=0.2,width=0.4,color="black", fillcolor="white", style="filled",URL="$structContinuationPoint.html",tooltip=" "];
  Node11 -> Node17 [dir="back",color="darkorchid3",fontsize="10",style="dashed",label=" relevantReferences" ,fontname="Helvetica"];
  Node13 -> Node17 [dir="back",color="darkorchid3",fontsize="10",style="dashed",label=" identifier" ,fontname="Helvetica"];
  Node17 -> Node17 [dir="back",color="darkorchid3",fontsize="10",style="dashed",label=" next" ,fontname="Helvetica"];
  Node18 -> Node17 [dir="back",color="darkorchid3",fontsize="10",style="dashed",label=" browseDescription" ,fontname="Helvetica"];
  Node18 [label="UA_BrowseDescription",height=0.2,width=0.4,color="black", fillcolor="white", style="filled",URL="$structUA__BrowseDescription.html",tooltip=" "];
  Node11 -> Node18 [dir="back",color="darkorchid3",fontsize="10",style="dashed",label=" referenceTypeId\nnodeId" ,fontname="Helvetica"];
  Node19 -> Node10 [dir="back",color="darkorchid3",fontsize="10",style="dashed",label=" header" ,fontname="Helvetica"];
  Node19 [label="UA_SessionHeader",height=0.2,width=0.4,color="black", fillcolor="white", style="filled",URL="$structUA__SessionHeader.html",tooltip=" "];
  Node20 -> Node8 [dir="back",color="darkorchid3",fontsize="10",style="dashed",label=" secureChannelManager" ,fontname="Helvetica"];
  Node20 [label="UA_SecureChannelManager",height=0.2,width=0.4,color="black", fillcolor="white", style="filled",URL="$structUA__SecureChannelManager.html",tooltip=" "];
  Node13 -> Node8 [dir="back",color="darkorchid3",fontsize="10",style="dashed",label=" namespaces" ,fontname="Helvetica"];
  Node21 -> Node8 [dir="back",color="darkorchid3",fontsize="10",style="dashed",label=" sessionManager" ,fontname="Helvetica"];
  Node21 [label="UA_SessionManager",height=0.2,width=0.4,color="black", fillcolor="white", style="filled",URL="$structUA__SessionManager.html",tooltip=" "];
  Node22 -> Node8 [dir="back",color="darkorchid3",fontsize="10",style="dashed",label=" config" ,fontname="Helvetica"];
  Node22 [label="UA_ServerConfig",height=0.2,width=0.4,color="black", fillcolor="white", style="filled",URL="$structUA__ServerConfig.html",tooltip=" "];
  Node23 -> Node22 [dir="back",color="darkorchid3",fontsize="10",style="dashed",label=" certificateVerification" ,fontname="Helvetica"];
  Node23 [label="UA_CertificateVerification",height=0.2,width=0.4,color="black", fillcolor="white", style="filled",URL="$structUA__CertificateVerification.html",tooltip=" "];
  Node24 -> Node22 [dir="back",color="darkorchid3",fontsize="10",style="dashed",label=" discovery" ,fontname="Helvetica"];
  Node24 [label="UA_ServerConfig_Discovery",height=0.2,width=0.4,color="black", fillcolor="white", style="filled",URL="$structUA__ServerConfig__Discovery.html",tooltip=" "];
  Node25 -> Node22 [dir="back",color="darkorchid3",fontsize="10",style="dashed",label=" networkLayers" ,fontname="Helvetica"];
  Node25 [label="UA_ServerNetworkLayer",height=0.2,width=0.4,color="black", fillcolor="white", style="filled",URL="$structUA__ServerNetworkLayer.html",tooltip=" "];
  Node13 -> Node25 [dir="back",color="darkorchid3",fontsize="10",style="dashed",label=" discoveryUrl" ,fontname="Helvetica"];
  Node26 -> Node25 [dir="back",color="darkorchid3",fontsize="10",style="dashed",label=" localConnectionConfig" ,fontname="Helvetica"];
  Node26 [label="UA_ConnectionConfig",height=0.2,width=0.4,color="black", fillcolor="white", style="filled",URL="$structUA__ConnectionConfig.html",tooltip=" "];
  Node27 -> Node22 [dir="back",color="darkorchid3",fontsize="10",style="dashed",label=" endpoints" ,fontname="Helvetica"];
  Node27 [label="UA_EndpointDescription",height=0.2,width=0.4,color="black", fillcolor="white", style="filled",URL="$structUA__EndpointDescription.html",tooltip=" "];
  Node13 -> Node27 [dir="back",color="darkorchid3",fontsize="10",style="dashed",label=" transportProfileUri\nsecurityPolicyUri\nendpointUrl\nserverCertificate" ,fontname="Helvetica"];
  Node15 -> Node27 [dir="back",color="darkorchid3",fontsize="10",style="dashed",label=" server" ,fontname="Helvetica"];
  Node28 -> Node27 [dir="back",color="darkorchid3",fontsize="10",style="dashed",label=" userIdentityTokens" ,fontname="Helvetica"];
  Node28 [label="UA_UserTokenPolicy",height=0.2,width=0.4,color="black", fillcolor="white", style="filled",URL="$structUA__UserTokenPolicy.html",tooltip=" "];
  Node13 -> Node28 [dir="back",color="darkorchid3",fontsize="10",style="dashed",label=" issuedTokenType\nsecurityPolicyUri\nissuerEndpointUrl\npolicyId" ,fontname="Helvetica"];
  Node13 -> Node22 [dir="back",color="darkorchid3",fontsize="10",style="dashed",label=" customHostname\nserverCertificate" ,fontname="Helvetica"];
  Node15 -> Node22 [dir="back",color="darkorchid3",fontsize="10",style="dashed",label=" applicationDescription" ,fontname="Helvetica"];
  Node29 -> Node22 [dir="back",color="darkorchid3",fontsize="10",style="dashed",label=" buildInfo" ,fontname="Helvetica"];
  Node29 [label="UA_BuildInfo",height=0.2,width=0.4,color="black", fillcolor="white", style="filled",URL="$structUA__BuildInfo.html",tooltip=" "];
  Node13 -> Node29 [dir="back",color="darkorchid3",fontsize="10",style="dashed",label=" productUri\nproductName\nbuildNumber\nsoftwareVersion\nmanufacturerName" ,fontname="Helvetica"];
  Node30 -> Node22 [dir="back",color="darkorchid3",fontsize="10",style="dashed",label=" securityPolicies" ,fontname="Helvetica"];
  Node30 [label="UA_SecurityPolicy",height=0.2,width=0.4,color="black", fillcolor="white", style="filled",URL="$structUA__SecurityPolicy.html",tooltip=" "];
  Node23 -> Node30 [dir="back",color="darkorchid3",fontsize="10",style="dashed",label=" certificateVerification" ,fontname="Helvetica"];
  Node13 -> Node30 [dir="back",color="darkorchid3",fontsize="10",style="dashed",label=" localCertificate\npolicyUri" ,fontname="Helvetica"];
  Node31 -> Node30 [dir="back",color="darkorchid3",fontsize="10",style="dashed",label=" asymmetricModule" ,fontname="Helvetica"];
  Node31 [label="UA_SecurityPolicyAsymmetric\lModule",height=0.2,width=0.4,color="black", fillcolor="white", style="filled",URL="$structUA__SecurityPolicyAsymmetricModule.html",tooltip=" "];
  Node32 -> Node31 [dir="back",color="darkorchid3",fontsize="10",style="dashed",label=" cryptoModule" ,fontname="Helvetica"];
  Node32 [label="UA_SecurityPolicyCryptoModule",height=0.2,width=0.4,color="black", fillcolor="white", style="filled",URL="$structUA__SecurityPolicyCryptoModule.html",tooltip=" "];
  Node33 -> Node32 [dir="back",color="darkorchid3",fontsize="10",style="dashed",label=" encryptionAlgorithm" ,fontname="Helvetica"];
  Node33 [label="UA_SecurityPolicyEncryption\lAlgorithm",height=0.2,width=0.4,color="black", fillcolor="white", style="filled",URL="$structUA__SecurityPolicyEncryptionAlgorithm.html",tooltip=" "];
  Node13 -> Node33 [dir="back",color="darkorchid3",fontsize="10",style="dashed",label=" uri" ,fontname="Helvetica"];
  Node34 -> Node32 [dir="back",color="darkorchid3",fontsize="10",style="dashed",label=" signatureAlgorithm" ,fontname="Helvetica"];
  Node34 [label="UA_SecurityPolicySignature\lAlgorithm",height=0.2,width=0.4,color="black", fillcolor="white", style="filled",URL="$structUA__SecurityPolicySignatureAlgorithm.html",tooltip=" "];
  Node13 -> Node34 [dir="back",color="darkorchid3",fontsize="10",style="dashed",label=" uri" ,fontname="Helvetica"];
  Node35 -> Node30 [dir="back",color="darkorchid3",fontsize="10",style="dashed",label=" channelModule" ,fontname="Helvetica"];
  Node35 [label="UA_SecurityPolicyChannel\lModule",height=0.2,width=0.4,color="black", fillcolor="white", style="filled",URL="$structUA__SecurityPolicyChannelModule.html",tooltip=" "];
  Node36 -> Node30 [dir="back",color="darkorchid3",fontsize="10",style="dashed",label=" symmetricModule" ,fontname="Helvetica"];
  Node36 [label="UA_SecurityPolicySymmetric\lModule",height=0.2,width=0.4,color="black", fillcolor="white", style="filled",URL="$structUA__SecurityPolicySymmetricModule.html",tooltip=" "];
  Node32 -> Node36 [dir="back",color="darkorchid3",fontsize="10",style="dashed",label=" cryptoModule" ,fontname="Helvetica"];
  Node37 -> Node30 [dir="back",color="darkorchid3",fontsize="10",style="dashed",label=" logger" ,fontname="Helvetica"];
  Node37 [label="UA_Logger",height=0.2,width=0.4,color="black", fillcolor="white", style="filled",URL="$structUA__Logger.html",tooltip=" "];
  Node34 -> Node30 [dir="back",color="darkorchid3",fontsize="10",style="dashed",label=" certificateSigningAlgorithm" ,fontname="Helvetica"];
  Node37 -> Node22 [dir="back",color="darkorchid3",fontsize="10",style="dashed",label=" logger" ,fontname="Helvetica"];
  Node38 -> Node22 [dir="back",color="darkorchid3",fontsize="10",style="dashed",label=" samplingIntervalLimits\npublishingIntervalLimits" ,fontname="Helvetica"];
  Node38 [label="UA_DurationRange",height=0.2,width=0.4,color="black", fillcolor="white", style="filled",URL="$structUA__DurationRange.html",tooltip=" "];
  Node39 -> Node22 [dir="back",color="darkorchid3",fontsize="10",style="dashed",label=" nodeLifecycle" ,fontname="Helvetica"];
  Node39 [label="UA_GlobalNodeLifecycle",height=0.2,width=0.4,color="black", fillcolor="white", style="filled",URL="$structUA__GlobalNodeLifecycle.html",tooltip=" "];
  Node40 -> Node22 [dir="back",color="darkorchid3",fontsize="10",style="dashed",label=" accessControl" ,fontname="Helvetica"];
  Node40 [label="UA_AccessControl",height=0.2,width=0.4,color="black", fillcolor="white", style="filled",URL="$structUA__AccessControl.html",tooltip=" "];
  Node28 -> Node40 [dir="back",color="darkorchid3",fontsize="10",style="dashed",label=" userTokenPolicies" ,fontname="Helvetica"];
  Node41 -> Node22 [dir="back",color="darkorchid3",fontsize="10",style="dashed",label=" keepAliveCountLimits\nqueueSizeLimits\nlifeTimeCountLimits" ,fontname="Helvetica"];
  Node41 [label="UA_UInt32Range",height=0.2,width=0.4,color="black", fillcolor="white", style="filled",URL="$structUA__UInt32Range.html",tooltip=" "];
  Node42 -> Node22 [dir="back",color="darkorchid3",fontsize="10",style="dashed",label=" customDataTypes" ,fontname="Helvetica"];
  Node42 [label="UA_DataTypeArray",height=0.2,width=0.4,color="black", fillcolor="white", style="filled",URL="$structUA__DataTypeArray.html",tooltip=" "];
  Node43 -> Node42 [dir="back",color="darkorchid3",fontsize="10",style="dashed",label=" types" ,fontname="Helvetica"];
  Node43 [label="UA_DataType",height=0.2,width=0.4,color="black", fillcolor="white", style="filled",URL="$structUA__DataType.html",tooltip=" "];
  Node11 -> Node43 [dir="back",color="darkorchid3",fontsize="10",style="dashed",label=" typeId" ,fontname="Helvetica"];
  Node44 -> Node43 [dir="back",color="darkorchid3",fontsize="10",style="dashed",label=" members" ,fontname="Helvetica"];
  Node44 [label="UA_DataTypeMember",height=0.2,width=0.4,color="black", fillcolor="white", style="filled",URL="$structUA__DataTypeMember.html",tooltip=" "];
  Node42 -> Node42 [dir="back",color="darkorchid3",fontsize="10",style="dashed",label=" next" ,fontname="Helvetica"];
  Node45 -> Node8 [dir="back",color="darkorchid3",fontsize="10",style="dashed",label=" workQueue" ,fontname="Helvetica"];
  Node45 [label="UA_WorkQueue",height=0.2,width=0.4,color="black", fillcolor="white", style="filled",URL="$structUA__WorkQueue.html",tooltip=" "];
  Node46 -> Node4 [dir="back",color="darkorchid3",fontsize="10",style="dashed",label=" m_nameSpaceUri" ,fontname="Helvetica"];
  Node46 [label="string",height=0.2,width=0.4,color="grey75", fillcolor="white", style="filled",tooltip=" "];
}
