digraph "Device::Base_DLxiAbstraction::add"
{
 // LATEX_PDF_SIZE
  edge [fontname="Helvetica",fontsize="10",labelfontname="Helvetica",labelfontsize="10"];
  node [fontname="Helvetica",fontsize="10",shape=record];
  rankdir="LR";
  Node1 [label="Device::Base_DLxiAbstraction::add",height=0.2,width=0.4,color="black", fillcolor="grey75", style="filled", fontcolor="black",tooltip=" "];
  Node1 -> Node2 [color="midnightblue",fontsize="10",style="solid",fontname="Helvetica"];
  Node2 [label="device",height=0.2,width=0.4,color="black", fillcolor="white", style="filled",URL="$specNotes_8txt.html#ab915a4ad7fd6544d864c831a0a862863",tooltip=" "];
}
