digraph "UaDateTime::toString"
{
 // LATEX_PDF_SIZE
  edge [fontname="Helvetica",fontsize="10",labelfontname="Helvetica",labelfontsize="10"];
  node [fontname="Helvetica",fontsize="10",shape=record];
  rankdir="LR";
  Node1 [label="UaDateTime::toString",height=0.2,width=0.4,color="black", fillcolor="grey75", style="filled", fontcolor="black",tooltip=" "];
  Node1 -> Node2 [color="midnightblue",fontsize="10",style="solid",fontname="Helvetica"];
  Node2 [label="UA_DateTime_toStruct",height=0.2,width=0.4,color="black", fillcolor="white", style="filled",URL="$generatedSources_2open62541_8h.html#a4da4e2e05328a3faab29f055aed4f726",tooltip=" "];
}
