digraph "Device::DQuasar"
{
 // LATEX_PDF_SIZE
  edge [fontname="Helvetica",fontsize="10",labelfontname="Helvetica",labelfontsize="10"];
  node [fontname="Helvetica",fontsize="10",shape=record];
  rankdir="LR";
  Node1 [label="Device::DQuasar",height=0.2,width=0.4,color="black", fillcolor="grey75", style="filled", fontcolor="black",tooltip=" "];
  Node2 -> Node1 [dir="back",color="midnightblue",fontsize="10",style="solid",fontname="Helvetica"];
  Node2 [label="Device::Base_DQuasar",height=0.2,width=0.4,color="black", fillcolor="white", style="filled",URL="$classDevice_1_1Base__DQuasar.html",tooltip=" "];
  Node3 -> Node2 [dir="back",color="darkorchid3",fontsize="10",style="dashed",label=" m_addressSpaceLink" ,fontname="Helvetica"];
  Node3 [label="AddressSpace::ASQuasar",height=0.2,width=0.4,color="black", fillcolor="white", style="filled",URL="$classAddressSpace_1_1ASQuasar.html",tooltip="Fully auto-generated class to represent Quasar in the OPC UA AddressSpace."];
  Node4 -> Node3 [dir="back",color="midnightblue",fontsize="10",style="solid",fontname="Helvetica"];
  Node4 [label="OpcUa::BaseObjectType",height=0.2,width=0.4,color="black", fillcolor="white", style="filled",URL="$classOpcUa_1_1BaseObjectType.html",tooltip=" "];
  Node5 -> Node4 [dir="back",color="midnightblue",fontsize="10",style="solid",fontname="Helvetica"];
  Node5 [label="UaObject",height=0.2,width=0.4,color="black", fillcolor="white", style="filled",URL="$classUaObject.html",tooltip=" "];
  Node6 -> Node5 [dir="back",color="midnightblue",fontsize="10",style="solid",fontname="Helvetica"];
  Node6 [label="UaNode",height=0.2,width=0.4,color="black", fillcolor="white", style="filled",URL="$classUaNode.html",tooltip=" "];
  Node7 -> Node4 [dir="back",color="firebrick4",fontsize="10",style="solid",fontname="Helvetica"];
  Node7 [label="MethodManager",height=0.2,width=0.4,color="black", fillcolor="white", style="filled",URL="$classMethodManager.html",tooltip=" "];
  Node8 -> Node4 [dir="back",color="darkorchid3",fontsize="10",style="dashed",label=" m_browseName" ,fontname="Helvetica"];
  Node8 [label="UaQualifiedName",height=0.2,width=0.4,color="black", fillcolor="white", style="filled",URL="$classUaQualifiedName.html",tooltip=" "];
  Node9 -> Node8 [dir="back",color="darkorchid3",fontsize="10",style="dashed",label=" m_unqualifiedName" ,fontname="Helvetica"];
  Node9 [label="UaString",height=0.2,width=0.4,color="black", fillcolor="white", style="filled",URL="$classUaString.html",tooltip=" "];
  Node10 -> Node9 [dir="back",color="darkorchid3",fontsize="10",style="dashed",label=" m_impl" ,fontname="Helvetica"];
  Node10 [label="UA_String",height=0.2,width=0.4,color="black", fillcolor="white", style="filled",URL="$structUA__String.html",tooltip=" "];
  Node11 -> Node8 [dir="back",color="darkorchid3",fontsize="10",style="dashed",label=" m_impl" ,fontname="Helvetica"];
  Node11 [label="UA_QualifiedName",height=0.2,width=0.4,color="black", fillcolor="white", style="filled",URL="$structUA__QualifiedName.html",tooltip=" "];
  Node10 -> Node11 [dir="back",color="darkorchid3",fontsize="10",style="dashed",label=" name" ,fontname="Helvetica"];
  Node12 -> Node4 [dir="back",color="darkorchid3",fontsize="10",style="dashed",label=" m_nodeId" ,fontname="Helvetica"];
  Node12 [label="UaNodeId",height=0.2,width=0.4,color="black", fillcolor="white", style="filled",URL="$classUaNodeId.html",tooltip=" "];
  Node13 -> Node12 [dir="back",color="darkorchid3",fontsize="10",style="dashed",label=" m_impl" ,fontname="Helvetica"];
  Node13 [label="UA_NodeId",height=0.2,width=0.4,color="black", fillcolor="white", style="filled",URL="$structUA__NodeId.html",tooltip=" "];
  Node14 -> Node13 [dir="back",color="darkorchid3",fontsize="10",style="dashed",label=" identifierType" ,fontname="Helvetica"];
  Node14 [label="enum",height=0.2,width=0.4,color="grey75", fillcolor="white", style="filled",tooltip=" "];
  Node10 -> Node13 [dir="back",color="darkorchid3",fontsize="10",style="dashed",label=" string\nbyteString" ,fontname="Helvetica"];
  Node15 -> Node13 [dir="back",color="darkorchid3",fontsize="10",style="dashed",label=" guid" ,fontname="Helvetica"];
  Node15 [label="UA_Guid",height=0.2,width=0.4,color="black", fillcolor="white", style="filled",URL="$structUA__Guid.html",tooltip=" "];
  Node1 -> Node3 [dir="back",color="darkorchid3",fontsize="10",style="dashed",label=" m_deviceLink" ,fontname="Helvetica"];
  Node12 -> Node3 [dir="back",color="darkorchid3",fontsize="10",style="dashed",label=" m_typeNodeId" ,fontname="Helvetica"];
  Node16 -> Node3 [dir="back",color="darkorchid3",fontsize="10",style="dashed",label=" m_version" ,fontname="Helvetica"];
  Node16 [label="OpcUa::BaseDataVariableType",height=0.2,width=0.4,color="black", fillcolor="white", style="filled",URL="$classOpcUa_1_1BaseDataVariableType.html",tooltip=" "];
  Node6 -> Node16 [dir="back",color="midnightblue",fontsize="10",style="solid",fontname="Helvetica"];
  Node17 -> Node16 [dir="back",color="darkorchid3",fontsize="10",style="dashed",label=" m_arrayDimensions" ,fontname="Helvetica"];
  Node17 [label="UaCompatArray\< OpcUa\l_UInt32 \>",height=0.2,width=0.4,color="black", fillcolor="white", style="filled",URL="$classUaCompatArray.html",tooltip=" "];
  Node18 -> Node16 [dir="back",color="darkorchid3",fontsize="10",style="dashed",label=" m_currentValue" ,fontname="Helvetica"];
  Node18 [label="UaDataValue",height=0.2,width=0.4,color="black", fillcolor="white", style="filled",URL="$classUaDataValue.html",tooltip=" "];
  Node19 -> Node18 [dir="back",color="darkorchid3",fontsize="10",style="dashed",label=" m_impl" ,fontname="Helvetica"];
  Node19 [label="UA_DataValue",height=0.2,width=0.4,color="black", fillcolor="white", style="filled",URL="$structUA__DataValue.html",tooltip=" "];
  Node20 -> Node19 [dir="back",color="darkorchid3",fontsize="10",style="dashed",label=" value" ,fontname="Helvetica"];
  Node20 [label="UA_Variant",height=0.2,width=0.4,color="black", fillcolor="white", style="filled",URL="$structUA__Variant.html",tooltip=" "];
  Node21 -> Node20 [dir="back",color="darkorchid3",fontsize="10",style="dashed",label=" type" ,fontname="Helvetica"];
  Node21 [label="UA_DataType",height=0.2,width=0.4,color="black", fillcolor="white", style="filled",URL="$structUA__DataType.html",tooltip=" "];
  Node13 -> Node21 [dir="back",color="darkorchid3",fontsize="10",style="dashed",label=" typeId" ,fontname="Helvetica"];
  Node22 -> Node21 [dir="back",color="darkorchid3",fontsize="10",style="dashed",label=" members" ,fontname="Helvetica"];
  Node22 [label="UA_DataTypeMember",height=0.2,width=0.4,color="black", fillcolor="white", style="filled",URL="$structUA__DataTypeMember.html",tooltip=" "];
  Node8 -> Node16 [dir="back",color="darkorchid3",fontsize="10",style="dashed",label=" m_browseName" ,fontname="Helvetica"];
  Node12 -> Node16 [dir="back",color="darkorchid3",fontsize="10",style="dashed",label=" m_nodeId\nm_typeDefinitionId" ,fontname="Helvetica"];
  Node23 -> Node2 [dir="back",color="darkorchid3",fontsize="10",style="dashed",label=" m_parent" ,fontname="Helvetica"];
  Node23 [label="Device::DRoot",height=0.2,width=0.4,color="black", fillcolor="white", style="filled",URL="$classDevice_1_1DRoot.html",tooltip=" "];
  Node23 -> Node23 [dir="back",color="darkorchid3",fontsize="10",style="dashed",label=" m_instance" ,fontname="Helvetica"];
}
