digraph "manage_files.Directory.make_text"
{
 // LATEX_PDF_SIZE
  edge [fontname="Helvetica",fontsize="10",labelfontname="Helvetica",labelfontsize="10"];
  node [fontname="Helvetica",fontsize="10",shape=record];
  rankdir="LR";
  Node1 [label="manage_files.Directory.make_text",height=0.2,width=0.4,color="black", fillcolor="grey75", style="filled", fontcolor="black",tooltip=" "];
  Node1 -> Node2 [color="midnightblue",fontsize="10",style="solid",fontname="Helvetica"];
  Node2 [label="manage_files.export\l_key_value_pairs",height=0.2,width=0.4,color="black", fillcolor="white", style="filled",URL="$namespacemanage__files.html#a9409487eac978c503221a7cf1f058b59",tooltip=" "];
}
