digraph "CalculatedVariables::CalculatedVariable::CalculatedVariable"
{
 // LATEX_PDF_SIZE
  edge [fontname="Helvetica",fontsize="10",labelfontname="Helvetica",labelfontsize="10"];
  node [fontname="Helvetica",fontsize="10",shape=record];
  rankdir="LR";
  Node1 [label="CalculatedVariables\l::CalculatedVariable\l::CalculatedVariable",height=0.2,width=0.4,color="black", fillcolor="grey75", style="filled", fontcolor="black",tooltip=" "];
  Node1 -> Node2 [color="midnightblue",fontsize="10",style="solid",fontname="Helvetica"];
  Node2 [label="CalculatedVariables\l::CalculatedVariable\l::initializeParser",height=0.2,width=0.4,color="black", fillcolor="white", style="filled",URL="$classCalculatedVariables_1_1CalculatedVariable.html#a9867ae523f7af85f2a13087a1fabee73",tooltip="Initializes parser, handles potential muParser-relevant exceptions throwing std except in exchange."];
  Node2 -> Node3 [color="midnightblue",fontsize="10",style="solid",fontname="Helvetica"];
  Node3 [label="mu::ParserError::GetExpr",height=0.2,width=0.4,color="black", fillcolor="white", style="filled",URL="$classmu_1_1ParserError.html#ab3a95893756a928d7577a4d440a04e78",tooltip="gets the expression related tp this error."];
  Node2 -> Node4 [color="midnightblue",fontsize="10",style="solid",fontname="Helvetica"];
  Node4 [label="mu::ParserError::GetMsg",height=0.2,width=0.4,color="black", fillcolor="white", style="filled",URL="$classmu_1_1ParserError.html#a7c8e9065dd397a897e3e3b64fe103c38",tooltip="Returns the message string for this error."];
  Node2 -> Node5 [color="midnightblue",fontsize="10",style="solid",fontname="Helvetica"];
  Node5 [label="OpcUa::BaseDataVariableType\l::nodeId",height=0.2,width=0.4,color="black", fillcolor="white", style="filled",URL="$classOpcUa_1_1BaseDataVariableType.html#abc6f01396eee788191682eb145dc1ce9",tooltip=" "];
  Node2 -> Node6 [color="midnightblue",fontsize="10",style="solid",fontname="Helvetica"];
  Node6 [label="CalculatedVariables\l::Engine::parserVariableRequest\lHandler",height=0.2,width=0.4,color="black", fillcolor="white", style="filled",URL="$classCalculatedVariables_1_1Engine.html#a049e30c913ebeccda767dd3a8502713d",tooltip="userData should be the 'this' of a CalculatedVariable this is being requested"];
  Node6 -> Node7 [color="midnightblue",fontsize="10",style="solid",fontname="Helvetica"];
  Node7 [label="CalculatedVariables\l::CalculatedVariable\l::addDependentVariableForStatus",height=0.2,width=0.4,color="black", fillcolor="white", style="filled",URL="$classCalculatedVariables_1_1CalculatedVariable.html#a74f662c44351858ab3f201abd154b272",tooltip=" "];
  Node6 -> Node8 [color="midnightblue",fontsize="10",style="solid",fontname="Helvetica"];
  Node8 [label="CalculatedVariables\l::CalculatedVariable\l::addDependentVariableForValue",height=0.2,width=0.4,color="black", fillcolor="white", style="filled",URL="$classCalculatedVariables_1_1CalculatedVariable.html#a10881758867853ef1205e635d5c233f6",tooltip=" "];
  Node6 -> Node9 [color="midnightblue",fontsize="10",style="solid",fontname="Helvetica"];
  Node9 [label="it",height=0.2,width=0.4,color="black", fillcolor="white", style="filled",URL="$run_2readme_8txt.html#a00c941c0b3a058943426f27355541739",tooltip=" "];
  Node6 -> Node10 [color="midnightblue",fontsize="10",style="solid",fontname="Helvetica"];
  Node10 [label="CalculatedVariables\l::ParserVariable::name",height=0.2,width=0.4,color="black", fillcolor="white", style="filled",URL="$classCalculatedVariables_1_1ParserVariable.html#a565d97408e572eddb993acba354bb152",tooltip="Will match our address space counterpart address."];
  Node10 -> Node5 [color="midnightblue",fontsize="10",style="solid",fontname="Helvetica"];
  Node10 -> Node11 [color="midnightblue",fontsize="10",style="solid",fontname="Helvetica"];
  Node11 [label="UaNodeId::toString",height=0.2,width=0.4,color="black", fillcolor="white", style="filled",URL="$classUaNodeId.html#a9760acc4fafbbbc58da7d3c4edc6afad",tooltip=" "];
  Node11 -> Node12 [color="midnightblue",fontsize="10",style="solid",fontname="Helvetica"];
  Node12 [label="UaNodeId::identifierNumeric",height=0.2,width=0.4,color="black", fillcolor="white", style="filled",URL="$classUaNodeId.html#afbb0d13400ae275cd11c31778e1ad2d7",tooltip=" "];
  Node11 -> Node13 [color="midnightblue",fontsize="10",style="solid",fontname="Helvetica"];
  Node13 [label="UaNodeId::identifierString",height=0.2,width=0.4,color="black", fillcolor="white", style="filled",URL="$classUaNodeId.html#a3a3dfdfed1c39cdd8e72af7eec081853",tooltip=" "];
  Node11 -> Node14 [color="midnightblue",fontsize="10",style="solid",fontname="Helvetica"];
  Node14 [label="UaNodeId::identifierType",height=0.2,width=0.4,color="black", fillcolor="white", style="filled",URL="$classUaNodeId.html#a67b62932ed217a63ce660f18a1ce70da",tooltip=" "];
  Node11 -> Node15 [color="midnightblue",fontsize="10",style="solid",fontname="Helvetica"];
  Node15 [label="UaNodeId::namespaceIndex",height=0.2,width=0.4,color="black", fillcolor="white", style="filled",URL="$classUaNodeId.html#a2da8eb8194e60e6bcc8bd3e8dd323085",tooltip=" "];
  Node10 -> Node16 [color="midnightblue",fontsize="10",style="solid",fontname="Helvetica"];
  Node16 [label="UaString::toUtf8",height=0.2,width=0.4,color="black", fillcolor="white", style="filled",URL="$classUaString.html#a0815fbf72b91c5cb6df3fd398434a395",tooltip=" "];
  Node6 -> Node5 [color="midnightblue",fontsize="10",style="solid",fontname="Helvetica"];
  Node6 -> Node11 [color="midnightblue",fontsize="10",style="solid",fontname="Helvetica"];
  Node6 -> Node16 [color="midnightblue",fontsize="10",style="solid",fontname="Helvetica"];
  Node2 -> Node11 [color="midnightblue",fontsize="10",style="solid",fontname="Helvetica"];
  Node2 -> Node16 [color="midnightblue",fontsize="10",style="solid",fontname="Helvetica"];
  Node1 -> Node17 [color="midnightblue",fontsize="10",style="solid",fontname="Helvetica"];
  Node17 [label="UaDateTime::now",height=0.2,width=0.4,color="black", fillcolor="white", style="filled",URL="$classUaDateTime.html#aeb1126d54f7e87cc7255e0142754ad2d",tooltip=" "];
  Node17 -> Node18 [color="midnightblue",fontsize="10",style="solid",fontname="Helvetica"];
  Node18 [label="UA_DateTime_now",height=0.2,width=0.4,color="black", fillcolor="white", style="filled",URL="$generatedSources_2open62541_8h.html#ac3621608c00f0b270463227893cbac67",tooltip=" "];
  Node17 -> Node19 [color="midnightblue",fontsize="10",style="solid",fontname="Helvetica"];
  Node19 [label="UaDateTime::UaDateTime",height=0.2,width=0.4,color="black", fillcolor="white", style="filled",URL="$classUaDateTime.html#a7eb999cdcc4cfdeb36df7f9b243719ad",tooltip=" "];
  Node1 -> Node20 [color="midnightblue",fontsize="10",style="solid",fontname="Helvetica"];
  Node20 [label="AddressSpace::ChangeNotifying\lVariable::setValue",height=0.2,width=0.4,color="black", fillcolor="white", style="filled",URL="$classAddressSpace_1_1ChangeNotifyingVariable.html#aa436a3e924e19b9194f16a0cac0e8238",tooltip=" "];
  Node20 -> Node21 [color="midnightblue",fontsize="10",style="solid",fontname="Helvetica"];
  Node21 [label="OpcUa::BaseDataVariableType\l::setValue",height=0.2,width=0.4,color="black", fillcolor="white", style="filled",URL="$classOpcUa_1_1BaseDataVariableType.html#a3f6e23aef1123c8a6c0e4459fa68ddc6",tooltip=" "];
}
