digraph "mu::ParserTokenReader::Error"
{
 // LATEX_PDF_SIZE
  edge [fontname="Helvetica",fontsize="10",labelfontname="Helvetica",labelfontsize="10"];
  node [fontname="Helvetica",fontsize="10",shape=record];
  rankdir="LR";
  Node1 [label="mu::ParserTokenReader\l::Error",height=0.2,width=0.4,color="black", fillcolor="grey75", style="filled", fontcolor="black",tooltip="Create an error containing the parse error position."];
  Node1 -> Node2 [color="midnightblue",fontsize="10",style="solid",fontname="Helvetica"];
  Node2 [label="mu::ParserBase::Error",height=0.2,width=0.4,color="black", fillcolor="white", style="filled",URL="$classmu_1_1ParserBase.html#a408fec52d58680b74beee84ed9ca7c9c",tooltip="Create an error containing the parse error position."];
}
