digraph "AddressSpace::ASGeneralLogLevel::getLogLevel"
{
 // LATEX_PDF_SIZE
  edge [fontname="Helvetica",fontsize="10",labelfontname="Helvetica",labelfontsize="10"];
  node [fontname="Helvetica",fontsize="10",shape=record];
  rankdir="LR";
  Node1 [label="AddressSpace::ASGeneralLog\lLevel::getLogLevel",height=0.2,width=0.4,color="black", fillcolor="grey75", style="filled", fontcolor="black",tooltip=" "];
  Node1 -> Node2 [color="midnightblue",fontsize="10",style="solid",fontname="Helvetica"];
  Node2 [label="UaVariant::toString",height=0.2,width=0.4,color="black", fillcolor="white", style="filled",URL="$classUaVariant.html#a2eeec3031e9034f833fe3dad428f118b",tooltip=" "];
}
