digraph "CalculatedVariables::CalculatedVariable"
{
 // LATEX_PDF_SIZE
  edge [fontname="Helvetica",fontsize="10",labelfontname="Helvetica",labelfontsize="10"];
  node [fontname="Helvetica",fontsize="10",shape=record];
  rankdir="LR";
  Node1 [label="CalculatedVariables\l::CalculatedVariable",height=0.2,width=0.4,color="black", fillcolor="grey75", style="filled", fontcolor="black",tooltip=" "];
  Node2 -> Node1 [dir="back",color="midnightblue",fontsize="10",style="solid",fontname="Helvetica"];
  Node2 [label="AddressSpace::ChangeNotifying\lVariable",height=0.2,width=0.4,color="black", fillcolor="white", style="filled",URL="$classAddressSpace_1_1ChangeNotifyingVariable.html",tooltip=" "];
  Node3 -> Node2 [dir="back",color="midnightblue",fontsize="10",style="solid",fontname="Helvetica"];
  Node3 [label="OpcUa::BaseDataVariableType",height=0.2,width=0.4,color="black", fillcolor="white", style="filled",URL="$classOpcUa_1_1BaseDataVariableType.html",tooltip=" "];
  Node4 -> Node3 [dir="back",color="midnightblue",fontsize="10",style="solid",fontname="Helvetica"];
  Node4 [label="UaNode",height=0.2,width=0.4,color="black", fillcolor="white", style="filled",URL="$classUaNode.html",tooltip=" "];
  Node5 -> Node3 [dir="back",color="darkorchid3",fontsize="10",style="dashed",label=" m_arrayDimensions" ,fontname="Helvetica"];
  Node5 [label="UaCompatArray\< OpcUa\l_UInt32 \>",height=0.2,width=0.4,color="black", fillcolor="white", style="filled",URL="$classUaCompatArray.html",tooltip=" "];
  Node6 -> Node3 [dir="back",color="darkorchid3",fontsize="10",style="dashed",label=" m_currentValue" ,fontname="Helvetica"];
  Node6 [label="UaDataValue",height=0.2,width=0.4,color="black", fillcolor="white", style="filled",URL="$classUaDataValue.html",tooltip=" "];
  Node7 -> Node6 [dir="back",color="darkorchid3",fontsize="10",style="dashed",label=" m_impl" ,fontname="Helvetica"];
  Node7 [label="UA_DataValue",height=0.2,width=0.4,color="black", fillcolor="white", style="filled",URL="$structUA__DataValue.html",tooltip=" "];
  Node8 -> Node7 [dir="back",color="darkorchid3",fontsize="10",style="dashed",label=" value" ,fontname="Helvetica"];
  Node8 [label="UA_Variant",height=0.2,width=0.4,color="black", fillcolor="white", style="filled",URL="$structUA__Variant.html",tooltip=" "];
  Node9 -> Node8 [dir="back",color="darkorchid3",fontsize="10",style="dashed",label=" type" ,fontname="Helvetica"];
  Node9 [label="UA_DataType",height=0.2,width=0.4,color="black", fillcolor="white", style="filled",URL="$structUA__DataType.html",tooltip=" "];
  Node10 -> Node9 [dir="back",color="darkorchid3",fontsize="10",style="dashed",label=" typeId" ,fontname="Helvetica"];
  Node10 [label="UA_NodeId",height=0.2,width=0.4,color="black", fillcolor="white", style="filled",URL="$structUA__NodeId.html",tooltip=" "];
  Node11 -> Node10 [dir="back",color="darkorchid3",fontsize="10",style="dashed",label=" identifierType" ,fontname="Helvetica"];
  Node11 [label="enum",height=0.2,width=0.4,color="grey75", fillcolor="white", style="filled",tooltip=" "];
  Node12 -> Node10 [dir="back",color="darkorchid3",fontsize="10",style="dashed",label=" string\nbyteString" ,fontname="Helvetica"];
  Node12 [label="UA_String",height=0.2,width=0.4,color="black", fillcolor="white", style="filled",URL="$structUA__String.html",tooltip=" "];
  Node13 -> Node10 [dir="back",color="darkorchid3",fontsize="10",style="dashed",label=" guid" ,fontname="Helvetica"];
  Node13 [label="UA_Guid",height=0.2,width=0.4,color="black", fillcolor="white", style="filled",URL="$structUA__Guid.html",tooltip=" "];
  Node14 -> Node9 [dir="back",color="darkorchid3",fontsize="10",style="dashed",label=" members" ,fontname="Helvetica"];
  Node14 [label="UA_DataTypeMember",height=0.2,width=0.4,color="black", fillcolor="white", style="filled",URL="$structUA__DataTypeMember.html",tooltip=" "];
  Node15 -> Node3 [dir="back",color="darkorchid3",fontsize="10",style="dashed",label=" m_browseName" ,fontname="Helvetica"];
  Node15 [label="UaQualifiedName",height=0.2,width=0.4,color="black", fillcolor="white", style="filled",URL="$classUaQualifiedName.html",tooltip=" "];
  Node16 -> Node15 [dir="back",color="darkorchid3",fontsize="10",style="dashed",label=" m_unqualifiedName" ,fontname="Helvetica"];
  Node16 [label="UaString",height=0.2,width=0.4,color="black", fillcolor="white", style="filled",URL="$classUaString.html",tooltip=" "];
  Node12 -> Node16 [dir="back",color="darkorchid3",fontsize="10",style="dashed",label=" m_impl" ,fontname="Helvetica"];
  Node17 -> Node15 [dir="back",color="darkorchid3",fontsize="10",style="dashed",label=" m_impl" ,fontname="Helvetica"];
  Node17 [label="UA_QualifiedName",height=0.2,width=0.4,color="black", fillcolor="white", style="filled",URL="$structUA__QualifiedName.html",tooltip=" "];
  Node12 -> Node17 [dir="back",color="darkorchid3",fontsize="10",style="dashed",label=" name" ,fontname="Helvetica"];
  Node18 -> Node3 [dir="back",color="darkorchid3",fontsize="10",style="dashed",label=" m_nodeId\nm_typeDefinitionId" ,fontname="Helvetica"];
  Node18 [label="UaNodeId",height=0.2,width=0.4,color="black", fillcolor="white", style="filled",URL="$classUaNodeId.html",tooltip=" "];
  Node10 -> Node18 [dir="back",color="darkorchid3",fontsize="10",style="dashed",label=" m_impl" ,fontname="Helvetica"];
  Node19 -> Node1 [dir="back",color="darkorchid3",fontsize="10",style="dashed",label=" m_notifiedVariable" ,fontname="Helvetica"];
  Node19 [label="CalculatedVariables\l::ParserVariable",height=0.2,width=0.4,color="black", fillcolor="white", style="filled",URL="$classCalculatedVariables_1_1ParserVariable.html",tooltip=" "];
  Node2 -> Node19 [dir="back",color="darkorchid3",fontsize="10",style="dashed",label=" m_notifyingVariable" ,fontname="Helvetica"];
  Node20 -> Node1 [dir="back",color="darkorchid3",fontsize="10",style="dashed",label=" m_statusParser\nm_valueParser" ,fontname="Helvetica"];
  Node20 [label="mu::Parser",height=0.2,width=0.4,color="black", fillcolor="white", style="filled",URL="$classmu_1_1Parser.html",tooltip="Mathematical expressions parser."];
  Node21 -> Node20 [dir="back",color="midnightblue",fontsize="10",style="solid",fontname="Helvetica"];
  Node21 [label="mu::ParserBase",height=0.2,width=0.4,color="black", fillcolor="white", style="filled",URL="$classmu_1_1ParserBase.html",tooltip="Mathematical expressions parser (base parser engine)."];
  Node22 -> Node21 [dir="back",color="darkorchid3",fontsize="10",style="dashed",label=" m_vRPN" ,fontname="Helvetica"];
  Node22 [label="mu::ParserByteCode",height=0.2,width=0.4,color="black", fillcolor="white", style="filled",URL="$classmu_1_1ParserByteCode.html",tooltip="Bytecode implementation of the Math Parser."];
}
