digraph "mu::ParserTokenReader::IsArgSep"
{
 // LATEX_PDF_SIZE
  edge [fontname="Helvetica",fontsize="10",labelfontname="Helvetica",labelfontsize="10"];
  node [fontname="Helvetica",fontsize="10",shape=record];
  rankdir="LR";
  Node1 [label="mu::ParserTokenReader\l::IsArgSep",height=0.2,width=0.4,color="black", fillcolor="grey75", style="filled", fontcolor="black",tooltip=" "];
  Node1 -> Node2 [color="midnightblue",fontsize="10",style="solid",fontname="Helvetica"];
  Node2 [label="mu::ParserTokenReader\l::Error",height=0.2,width=0.4,color="black", fillcolor="white", style="filled",URL="$classmu_1_1ParserTokenReader.html#a619b988a00572242b5791d0d38e7c0fe",tooltip="Create an error containing the parse error position."];
  Node2 -> Node3 [color="midnightblue",fontsize="10",style="solid",fontname="Helvetica"];
  Node3 [label="mu::ParserBase::Error",height=0.2,width=0.4,color="black", fillcolor="white", style="filled",URL="$classmu_1_1ParserBase.html#a408fec52d58680b74beee84ed9ca7c9c",tooltip="Create an error containing the parse error position."];
  Node1 -> Node4 [color="midnightblue",fontsize="10",style="solid",fontname="Helvetica"];
  Node4 [label="mu::ParserToken::Set",height=0.2,width=0.4,color="black", fillcolor="white", style="filled",URL="$classmu_1_1ParserToken.html#ac4588ba38ccc660686956f7998ba74dc",tooltip="Assign a token type."];
}
