digraph "Configuration::type::type"
{
 // LATEX_PDF_SIZE
  edge [fontname="Helvetica",fontsize="10",labelfontname="Helvetica",labelfontsize="10"];
  node [fontname="Helvetica",fontsize="10",shape=record];
  rankdir="LR";
  Node1 [label="Configuration::type\l::type",height=0.2,width=0.4,color="black", fillcolor="grey75", style="filled", fontcolor="black",tooltip=" "];
  Node1 -> Node2 [color="midnightblue",fontsize="10",style="solid",fontname="Helvetica"];
  Node2 [label="Configuration::type\l::_xsd_type_convert",height=0.2,width=0.4,color="black", fillcolor="white", style="filled",URL="$classConfiguration_1_1type.html#abf605523540eec6ef3af05170941dd2a",tooltip=" "];
}
