digraph "CalculatedVariables::ParserVariable::addNotifiedVariable"
{
 // LATEX_PDF_SIZE
  edge [fontname="Helvetica",fontsize="10",labelfontname="Helvetica",labelfontsize="10"];
  node [fontname="Helvetica",fontsize="10",shape=record];
  rankdir="LR";
  Node1 [label="CalculatedVariables\l::ParserVariable::addNotified\lVariable",height=0.2,width=0.4,color="black", fillcolor="grey75", style="filled", fontcolor="black",tooltip=" "];
  Node1 -> Node2 [color="midnightblue",fontsize="10",style="solid",fontname="Helvetica"];
  Node2 [label="CalculatedVariables\l::ParserVariable::name",height=0.2,width=0.4,color="black", fillcolor="white", style="filled",URL="$classCalculatedVariables_1_1ParserVariable.html#a565d97408e572eddb993acba354bb152",tooltip="Will match our address space counterpart address."];
  Node2 -> Node3 [color="midnightblue",fontsize="10",style="solid",fontname="Helvetica"];
  Node3 [label="OpcUa::BaseDataVariableType\l::nodeId",height=0.2,width=0.4,color="black", fillcolor="white", style="filled",URL="$classOpcUa_1_1BaseDataVariableType.html#abc6f01396eee788191682eb145dc1ce9",tooltip=" "];
  Node2 -> Node4 [color="midnightblue",fontsize="10",style="solid",fontname="Helvetica"];
  Node4 [label="UaNodeId::toString",height=0.2,width=0.4,color="black", fillcolor="white", style="filled",URL="$classUaNodeId.html#a9760acc4fafbbbc58da7d3c4edc6afad",tooltip=" "];
  Node4 -> Node5 [color="midnightblue",fontsize="10",style="solid",fontname="Helvetica"];
  Node5 [label="UaNodeId::identifierNumeric",height=0.2,width=0.4,color="black", fillcolor="white", style="filled",URL="$classUaNodeId.html#afbb0d13400ae275cd11c31778e1ad2d7",tooltip=" "];
  Node4 -> Node6 [color="midnightblue",fontsize="10",style="solid",fontname="Helvetica"];
  Node6 [label="UaNodeId::identifierString",height=0.2,width=0.4,color="black", fillcolor="white", style="filled",URL="$classUaNodeId.html#a3a3dfdfed1c39cdd8e72af7eec081853",tooltip=" "];
  Node4 -> Node7 [color="midnightblue",fontsize="10",style="solid",fontname="Helvetica"];
  Node7 [label="UaNodeId::identifierType",height=0.2,width=0.4,color="black", fillcolor="white", style="filled",URL="$classUaNodeId.html#a67b62932ed217a63ce660f18a1ce70da",tooltip=" "];
  Node4 -> Node8 [color="midnightblue",fontsize="10",style="solid",fontname="Helvetica"];
  Node8 [label="UaNodeId::namespaceIndex",height=0.2,width=0.4,color="black", fillcolor="white", style="filled",URL="$classUaNodeId.html#a2da8eb8194e60e6bcc8bd3e8dd323085",tooltip=" "];
  Node2 -> Node9 [color="midnightblue",fontsize="10",style="solid",fontname="Helvetica"];
  Node9 [label="UaString::toUtf8",height=0.2,width=0.4,color="black", fillcolor="white", style="filled",URL="$classUaString.html#a0815fbf72b91c5cb6df3fd398434a395",tooltip=" "];
  Node1 -> Node3 [color="midnightblue",fontsize="10",style="solid",fontname="Helvetica"];
  Node1 -> Node4 [color="midnightblue",fontsize="10",style="solid",fontname="Helvetica"];
  Node1 -> Node9 [color="midnightblue",fontsize="10",style="solid",fontname="Helvetica"];
}
