digraph "mu::ParserTokenReader"
{
 // LATEX_PDF_SIZE
  edge [fontname="Helvetica",fontsize="10",labelfontname="Helvetica",labelfontsize="10"];
  node [fontname="Helvetica",fontsize="10",shape=record];
  Node1 [label="mu::ParserTokenReader",height=0.2,width=0.4,color="black", fillcolor="grey75", style="filled", fontcolor="black",tooltip="Token reader for the ParserBase class."];
  Node2 -> Node1 [dir="back",color="darkorchid3",fontsize="10",style="dashed",label=" m_pParser" ,fontname="Helvetica"];
  Node2 [label="mu::ParserBase",height=0.2,width=0.4,color="black", fillcolor="white", style="filled",URL="$classmu_1_1ParserBase.html",tooltip="Mathematical expressions parser (base parser engine)."];
  Node3 -> Node2 [dir="back",color="darkorchid3",fontsize="10",style="dashed",label=" m_vRPN" ,fontname="Helvetica"];
  Node3 [label="mu::ParserByteCode",height=0.2,width=0.4,color="black", fillcolor="white", style="filled",URL="$classmu_1_1ParserByteCode.html",tooltip="Bytecode implementation of the Math Parser."];
  Node4 -> Node1 [dir="back",color="darkorchid3",fontsize="10",style="dashed",label=" m_lastTok" ,fontname="Helvetica"];
  Node4 [label="mu::ParserToken\< value\l_type, string_type \>",height=0.2,width=0.4,color="black", fillcolor="white", style="filled",URL="$classmu_1_1ParserToken.html",tooltip=" "];
}
