digraph "manage_files.File.make_md5"
{
 // LATEX_PDF_SIZE
  edge [fontname="Helvetica",fontsize="10",labelfontname="Helvetica",labelfontsize="10"];
  node [fontname="Helvetica",fontsize="10",shape=record];
  rankdir="LR";
  Node1 [label="manage_files.File.make_md5",height=0.2,width=0.4,color="black", fillcolor="grey75", style="filled", fontcolor="black",tooltip=" "];
  Node1 -> Node2 [color="midnightblue",fontsize="10",style="solid",fontname="Helvetica"];
  Node2 [label="manage_files.File.compute_md5",height=0.2,width=0.4,color="black", fillcolor="white", style="filled",URL="$classmanage__files_1_1File.html#a67a38d88a4a64cee04a168a664377db8",tooltip=" "];
  Node1 -> Node3 [color="midnightblue",fontsize="10",style="solid",fontname="Helvetica"];
  Node3 [label="manage_files.File.path",height=0.2,width=0.4,color="black", fillcolor="white", style="filled",URL="$classmanage__files_1_1File.html#a08ea38b2f4de848ca59e9174bae8d268",tooltip=" "];
}
