digraph "LxiComm::setLimitCurrentForChannel"
{
 // LATEX_PDF_SIZE
  edge [fontname="Helvetica",fontsize="10",labelfontname="Helvetica",labelfontsize="10"];
  node [fontname="Helvetica",fontsize="10",shape=record];
  rankdir="LR";
  Node1 [label="LxiComm::setLimitCurrent\lForChannel",height=0.2,width=0.4,color="black", fillcolor="grey75", style="filled", fontcolor="black",tooltip=" "];
  Node1 -> Node2 [color="midnightblue",fontsize="10",style="solid",fontname="Helvetica"];
  Node2 [label="Device::DLxiCommand\l::getCommandForMethod",height=0.2,width=0.4,color="black", fillcolor="white", style="filled",URL="$classDevice_1_1DLxiCommand.html#ae9d2bf54b7ea049b0ac1a57e7003c660",tooltip=" "];
  Node2 -> Node3 [color="midnightblue",fontsize="10",style="solid",fontname="Helvetica"];
  Node3 [label="it",height=0.2,width=0.4,color="black", fillcolor="white", style="filled",URL="$run_2readme_8txt.html#a00c941c0b3a058943426f27355541739",tooltip=" "];
  Node1 -> Node4 [color="midnightblue",fontsize="10",style="solid",fontname="Helvetica"];
  Node4 [label="lxi_send",height=0.2,width=0.4,color="black", fillcolor="white", style="filled",URL="$lxi_8h.html#ac17b501470ff659fe007b9757cbdfc60",tooltip=" "];
}
