digraph "AddressSpace::ASStatusCh::getSTATUS_CH_OVCH"
{
 // LATEX_PDF_SIZE
  edge [fontname="Helvetica",fontsize="10",labelfontname="Helvetica",labelfontsize="10"];
  node [fontname="Helvetica",fontsize="10",shape=record];
  rankdir="LR";
  Node1 [label="AddressSpace::ASStatusCh\l::getSTATUS_CH_OVCH",height=0.2,width=0.4,color="black", fillcolor="grey75", style="filled", fontcolor="black",tooltip="the basic getter, it's always there no matter what."];
  Node1 -> Node2 [color="midnightblue",fontsize="10",style="solid",fontname="Helvetica"];
  Node2 [label="UaVariant::toBool",height=0.2,width=0.4,color="black", fillcolor="white", style="filled",URL="$classUaVariant.html#a2731074723e97dedeb59bf4bb1969a15",tooltip=" "];
  Node2 -> Node3 [color="midnightblue",fontsize="10",style="solid",fontname="Helvetica"];
  Node3 [label="UaVariant::toSimpleType",height=0.2,width=0.4,color="black", fillcolor="white", style="filled",URL="$classUaVariant.html#a9bfdc2f68a1266fc9e6c84a129bdb85e",tooltip="Will convert stored value to a simple type, if possible."];
  Node3 -> Node4 [color="midnightblue",fontsize="10",style="solid",fontname="Helvetica"];
  Node4 [label="UaVariant::convertNumericType",height=0.2,width=0.4,color="black", fillcolor="white", style="filled",URL="$classUaVariant.html#ad616147abf70426e9c2bf23b2ec78262",tooltip=" "];
  Node3 -> Node5 [color="midnightblue",fontsize="10",style="solid",fontname="Helvetica"];
  Node5 [label="UaVariant::isNumericType",height=0.2,width=0.4,color="black", fillcolor="white", style="filled",URL="$classUaVariant.html#a2007cb3f123fba847708e5538fa6ead6",tooltip=" "];
  Node1 -> Node6 [color="midnightblue",fontsize="10",style="solid",fontname="Helvetica"];
  Node6 [label="UaDataValue::value",height=0.2,width=0.4,color="black", fillcolor="white", style="filled",URL="$classUaDataValue.html#a9fe17c906745ee921ebff6e068a1f762",tooltip=" "];
  Node1 -> Node7 [color="midnightblue",fontsize="10",style="solid",fontname="Helvetica"];
  Node7 [label="OpcUa::BaseDataVariableType\l::value",height=0.2,width=0.4,color="black", fillcolor="white", style="filled",URL="$classOpcUa_1_1BaseDataVariableType.html#a4c7588d3142fecc464e8dc3e63d33107",tooltip=" "];
  Node7 -> Node8 [color="midnightblue",fontsize="10",style="solid",fontname="Helvetica"];
  Node8 [label="UaDataValue::clone",height=0.2,width=0.4,color="black", fillcolor="white", style="filled",URL="$classUaDataValue.html#ab14a3b154ca586b51890f1ba84115521",tooltip=" "];
}
