digraph "AddressSpace::ASStatusPs::createCacheVariables"
{
 // LATEX_PDF_SIZE
  edge [fontname="Helvetica",fontsize="10",labelfontname="Helvetica",labelfontsize="10"];
  node [fontname="Helvetica",fontsize="10",shape=record];
  rankdir="LR";
  Node1 [label="AddressSpace::ASStatusPs\l::createCacheVariables",height=0.2,width=0.4,color="black", fillcolor="grey75", style="filled", fontcolor="black",tooltip=" "];
  Node1 -> Node2 [color="midnightblue",fontsize="10",style="solid",fontname="Helvetica"];
  Node2 [label="NodeManagerBase::addNode\lAndReference",height=0.2,width=0.4,color="black", fillcolor="white", style="filled",URL="$classNodeManagerBase.html#a5093a0003854f31ba6f22448fba253e4",tooltip=" "];
  Node2 -> Node3 [color="midnightblue",fontsize="10",style="solid",fontname="Helvetica"];
  Node3 [label="NodeManagerBase::getNode",height=0.2,width=0.4,color="black", fillcolor="white", style="filled",URL="$classNodeManagerBase.html#acbf4cc91dc306070ac54041fe9ddc41d",tooltip=" "];
  Node3 -> Node4 [color="midnightblue",fontsize="10",style="solid",fontname="Helvetica"];
  Node4 [label="NodeManagerBase::ServerRoot\lNode::nodeId",height=0.2,width=0.4,color="black", fillcolor="white", style="filled",URL="$classNodeManagerBase_1_1ServerRootNode.html#a43caf1117f986f9b6a499ed6611216a6",tooltip=" "];
  Node1 -> Node5 [color="midnightblue",fontsize="10",style="solid",fontname="Helvetica"];
  Node5 [label="UaVariant::clear",height=0.2,width=0.4,color="black", fillcolor="white", style="filled",URL="$classUaVariant.html#aed0b1fbd3cc677e33dfe6af52ed2da2b",tooltip=" "];
  Node1 -> Node6 [color="midnightblue",fontsize="10",style="solid",fontname="Helvetica"];
  Node6 [label="AddressSpace::ASStatusPs\l::fixChildNameWhenSingleNodeClass",height=0.2,width=0.4,color="black", fillcolor="white", style="filled",URL="$classAddressSpace_1_1ASStatusPs.html#adfb15f30678aff4917e8ee588e74695a",tooltip=" "];
  Node1 -> Node7 [color="midnightblue",fontsize="10",style="solid",fontname="Helvetica"];
  Node7 [label="NodeManagerBase::getName\lSpaceIndex",height=0.2,width=0.4,color="black", fillcolor="white", style="filled",URL="$classNodeManagerBase.html#a8fc733071743b0baef0f9b2321b4cf47",tooltip=" "];
  Node1 -> Node8 [color="midnightblue",fontsize="10",style="solid",fontname="Helvetica"];
  Node8 [label="AddressSpace::ASNodeManager\l::makeChildNodeId",height=0.2,width=0.4,color="black", fillcolor="white", style="filled",URL="$classAddressSpace_1_1ASNodeManager.html#a23362fa5147da4c12e28b74ee44eddba",tooltip=" "];
  Node8 -> Node7 [color="midnightblue",fontsize="10",style="solid",fontname="Helvetica"];
  Node8 -> Node9 [color="midnightblue",fontsize="10",style="solid",fontname="Helvetica"];
  Node9 [label="UaNodeId::identifierNumeric",height=0.2,width=0.4,color="black", fillcolor="white", style="filled",URL="$classUaNodeId.html#afbb0d13400ae275cd11c31778e1ad2d7",tooltip=" "];
  Node8 -> Node10 [color="midnightblue",fontsize="10",style="solid",fontname="Helvetica"];
  Node10 [label="UaNodeId::identifierString",height=0.2,width=0.4,color="black", fillcolor="white", style="filled",URL="$classUaNodeId.html#a3a3dfdfed1c39cdd8e72af7eec081853",tooltip=" "];
  Node8 -> Node11 [color="midnightblue",fontsize="10",style="solid",fontname="Helvetica"];
  Node11 [label="UaNodeId::identifierType",height=0.2,width=0.4,color="black", fillcolor="white", style="filled",URL="$classUaNodeId.html#a67b62932ed217a63ce660f18a1ce70da",tooltip=" "];
  Node8 -> Node12 [color="midnightblue",fontsize="10",style="solid",fontname="Helvetica"];
  Node12 [label="UaNodeId::namespaceIndex",height=0.2,width=0.4,color="black", fillcolor="white", style="filled",URL="$classUaNodeId.html#a2da8eb8194e60e6bcc8bd3e8dd323085",tooltip=" "];
  Node1 -> Node13 [color="midnightblue",fontsize="10",style="solid",fontname="Helvetica"];
  Node13 [label="Configuration::StatusPs\l::name",height=0.2,width=0.4,color="black", fillcolor="white", style="filled",URL="$classConfiguration_1_1StatusPs.html#ab7fcf9d4db271b1204be879d5777683f",tooltip=" "];
  Node1 -> Node14 [color="midnightblue",fontsize="10",style="solid",fontname="Helvetica"];
  Node14 [label="UaDateTime::now",height=0.2,width=0.4,color="black", fillcolor="white", style="filled",URL="$classUaDateTime.html#aeb1126d54f7e87cc7255e0142754ad2d",tooltip=" "];
  Node14 -> Node15 [color="midnightblue",fontsize="10",style="solid",fontname="Helvetica"];
  Node15 [label="UA_DateTime_now",height=0.2,width=0.4,color="black", fillcolor="white", style="filled",URL="$generatedSources_2open62541_8h.html#ac3621608c00f0b270463227893cbac67",tooltip=" "];
  Node14 -> Node16 [color="midnightblue",fontsize="10",style="solid",fontname="Helvetica"];
  Node16 [label="UaDateTime::UaDateTime",height=0.2,width=0.4,color="black", fillcolor="white", style="filled",URL="$classUaDateTime.html#a7eb999cdcc4cfdeb36df7f9b243719ad",tooltip=" "];
  Node1 -> Node17 [color="midnightblue",fontsize="10",style="solid",fontname="Helvetica"];
  Node17 [label="AddressSpace::ChangeNotifying\lVariable::setValue",height=0.2,width=0.4,color="black", fillcolor="white", style="filled",URL="$classAddressSpace_1_1ChangeNotifyingVariable.html#aa436a3e924e19b9194f16a0cac0e8238",tooltip=" "];
  Node17 -> Node18 [color="midnightblue",fontsize="10",style="solid",fontname="Helvetica"];
  Node18 [label="OpcUa::BaseDataVariableType\l::setValue",height=0.2,width=0.4,color="black", fillcolor="white", style="filled",URL="$classOpcUa_1_1BaseDataVariableType.html#a3f6e23aef1123c8a6c0e4459fa68ddc6",tooltip=" "];
  Node1 -> Node19 [color="midnightblue",fontsize="10",style="solid",fontname="Helvetica"];
  Node19 [label="OpcUa::BaseDataVariableType\l::setValueRank",height=0.2,width=0.4,color="black", fillcolor="white", style="filled",URL="$classOpcUa_1_1BaseDataVariableType.html#aeb82fe4d46de4741acd811d376aa7485",tooltip=" "];
  Node19 -> Node20 [color="midnightblue",fontsize="10",style="solid",fontname="Helvetica"];
  Node20 [label="OpcUa::BaseDataVariableType\l::valueRank",height=0.2,width=0.4,color="black", fillcolor="white", style="filled",URL="$classOpcUa_1_1BaseDataVariableType.html#a5e13e2a9a401245c14cfa4045f2e2038",tooltip=" "];
}
