digraph "mu::ParserBase::ParseCmdCode"
{
 // LATEX_PDF_SIZE
  edge [fontname="Helvetica",fontsize="10",labelfontname="Helvetica",labelfontsize="10"];
  node [fontname="Helvetica",fontsize="10",shape=record];
  rankdir="LR";
  Node1 [label="mu::ParserBase::ParseCmdCode",height=0.2,width=0.4,color="black", fillcolor="grey75", style="filled", fontcolor="black",tooltip="Parse the command code."];
  Node1 -> Node2 [color="midnightblue",fontsize="10",style="solid",fontname="Helvetica"];
  Node2 [label="mu::ParserBase::ParseCmd\lCodeBulk",height=0.2,width=0.4,color="black", fillcolor="white", style="filled",URL="$classmu_1_1ParserBase.html#ab19a6da888d37db81916e0ad2422e020",tooltip="Evaluate the RPN."];
  Node2 -> Node3 [color="midnightblue",fontsize="10",style="solid",fontname="Helvetica"];
  Node3 [label="mu::ParserBase::Error",height=0.2,width=0.4,color="black", fillcolor="white", style="filled",URL="$classmu_1_1ParserBase.html#a408fec52d58680b74beee84ed9ca7c9c",tooltip="Create an error containing the parse error position."];
  Node2 -> Node4 [color="midnightblue",fontsize="10",style="solid",fontname="Helvetica"];
  Node4 [label="mu::ParserByteCode\l::GetBase",height=0.2,width=0.4,color="black", fillcolor="white", style="filled",URL="$classmu_1_1ParserByteCode.html#a5799e2ab40d4f0d83ee9685c232db099",tooltip=" "];
  Node2 -> Node5 [color="midnightblue",fontsize="10",style="solid",fontname="Helvetica"];
  Node5 [label="mu::MathImpl::Pow",height=0.2,width=0.4,color="black", fillcolor="white", style="filled",URL="$structmu_1_1MathImpl.html#a51336cadb47f16536a578eb11d2b015c",tooltip=" "];
}
