digraph "AddressSpace::ASPowerSupply::setVendor"
{
 // LATEX_PDF_SIZE
  edge [fontname="Helvetica",fontsize="10",labelfontname="Helvetica",labelfontsize="10"];
  node [fontname="Helvetica",fontsize="10",shape=record];
  rankdir="LR";
  Node1 [label="AddressSpace::ASPowerSupply\l::setVendor",height=0.2,width=0.4,color="black", fillcolor="grey75", style="filled", fontcolor="black",tooltip=" "];
  Node1 -> Node2 [color="midnightblue",fontsize="10",style="solid",fontname="Helvetica"];
  Node2 [label="UaDateTime::now",height=0.2,width=0.4,color="black", fillcolor="white", style="filled",URL="$classUaDateTime.html#aeb1126d54f7e87cc7255e0142754ad2d",tooltip=" "];
  Node2 -> Node3 [color="midnightblue",fontsize="10",style="solid",fontname="Helvetica"];
  Node3 [label="UA_DateTime_now",height=0.2,width=0.4,color="black", fillcolor="white", style="filled",URL="$generatedSources_2open62541_8h.html#ac3621608c00f0b270463227893cbac67",tooltip=" "];
  Node2 -> Node4 [color="midnightblue",fontsize="10",style="solid",fontname="Helvetica"];
  Node4 [label="UaDateTime::UaDateTime",height=0.2,width=0.4,color="black", fillcolor="white", style="filled",URL="$classUaDateTime.html#a7eb999cdcc4cfdeb36df7f9b243719ad",tooltip=" "];
  Node1 -> Node5 [color="midnightblue",fontsize="10",style="solid",fontname="Helvetica"];
  Node5 [label="UaVariant::setString",height=0.2,width=0.4,color="black", fillcolor="white", style="filled",URL="$classUaVariant.html#a893ee5e8e74451d7fc66b2e4c72e28da",tooltip=" "];
  Node1 -> Node6 [color="midnightblue",fontsize="10",style="solid",fontname="Helvetica"];
  Node6 [label="AddressSpace::ChangeNotifying\lVariable::setValue",height=0.2,width=0.4,color="black", fillcolor="white", style="filled",URL="$classAddressSpace_1_1ChangeNotifyingVariable.html#aa436a3e924e19b9194f16a0cac0e8238",tooltip=" "];
  Node6 -> Node7 [color="midnightblue",fontsize="10",style="solid",fontname="Helvetica"];
  Node7 [label="OpcUa::BaseDataVariableType\l::setValue",height=0.2,width=0.4,color="black", fillcolor="white", style="filled",URL="$classOpcUa_1_1BaseDataVariableType.html#a3f6e23aef1123c8a6c0e4459fa68ddc6",tooltip=" "];
}
