digraph "AddressSpace::ASStatusPs"
{
 // LATEX_PDF_SIZE
  edge [fontname="Helvetica",fontsize="10",labelfontname="Helvetica",labelfontsize="10"];
  node [fontname="Helvetica",fontsize="10",shape=record];
  Node1 [label="AddressSpace::ASStatusPs",height=0.2,width=0.4,color="black", fillcolor="grey75", style="filled", fontcolor="black",tooltip="Fully auto-generated class to represent StatusPs in the OPC UA AddressSpace."];
  Node2 -> Node1 [dir="back",color="midnightblue",fontsize="10",style="solid",fontname="Helvetica"];
  Node2 [label="OpcUa::BaseObjectType",height=0.2,width=0.4,color="black", fillcolor="white", style="filled",URL="$classOpcUa_1_1BaseObjectType.html",tooltip=" "];
  Node3 -> Node2 [dir="back",color="midnightblue",fontsize="10",style="solid",fontname="Helvetica"];
  Node3 [label="UaObject",height=0.2,width=0.4,color="black", fillcolor="white", style="filled",URL="$classUaObject.html",tooltip=" "];
  Node4 -> Node3 [dir="back",color="midnightblue",fontsize="10",style="solid",fontname="Helvetica"];
  Node4 [label="UaNode",height=0.2,width=0.4,color="black", fillcolor="white", style="filled",URL="$classUaNode.html",tooltip=" "];
  Node5 -> Node2 [dir="back",color="firebrick4",fontsize="10",style="solid",fontname="Helvetica"];
  Node5 [label="MethodManager",height=0.2,width=0.4,color="black", fillcolor="white", style="filled",URL="$classMethodManager.html",tooltip=" "];
}
