digraph "Configuration::LxiCommand::LxiCommand"
{
 // LATEX_PDF_SIZE
  edge [fontname="Helvetica",fontsize="10",labelfontname="Helvetica",labelfontsize="10"];
  node [fontname="Helvetica",fontsize="10",shape=record];
  rankdir="LR";
  Node1 [label="Configuration::LxiCommand\l::LxiCommand",height=0.2,width=0.4,color="black", fillcolor="grey75", style="filled", fontcolor="black",tooltip=" "];
  Node1 -> Node2 [color="midnightblue",fontsize="10",style="solid",fontname="Helvetica"];
  Node2 [label="Configuration::LxiCommand\l::parse",height=0.2,width=0.4,color="black", fillcolor="white", style="filled",URL="$classConfiguration_1_1LxiCommand.html#aa67a82523cb716c159db908698dd8cc8",tooltip=" "];
}
