digraph "Configuration::CalculatedVariable::CalculatedVariable"
{
 // LATEX_PDF_SIZE
  edge [fontname="Helvetica",fontsize="10",labelfontname="Helvetica",labelfontsize="10"];
  node [fontname="Helvetica",fontsize="10",shape=record];
  rankdir="LR";
  Node1 [label="Configuration::Calculated\lVariable::CalculatedVariable",height=0.2,width=0.4,color="black", fillcolor="grey75", style="filled", fontcolor="black",tooltip=" "];
  Node1 -> Node2 [color="midnightblue",fontsize="10",style="solid",fontname="Helvetica"];
  Node2 [label="Configuration::Calculated\lVariable::parse",height=0.2,width=0.4,color="black", fillcolor="white", style="filled",URL="$classConfiguration_1_1CalculatedVariable.html#a6d90ce2457159706fe59105e2e36213f",tooltip=" "];
  Node2 -> Node3 [color="midnightblue",fontsize="10",style="solid",fontname="Helvetica"];
  Node3 [label="Configuration::Calculated\lVariable::isBoolean_default_value",height=0.2,width=0.4,color="black", fillcolor="white", style="filled",URL="$classConfiguration_1_1CalculatedVariable.html#afff45b941744f19efba7a0216b78cae5",tooltip=" "];
}
