digraph "mu::Parser"
{
 // LATEX_PDF_SIZE
  edge [fontname="Helvetica",fontsize="10",labelfontname="Helvetica",labelfontsize="10"];
  node [fontname="Helvetica",fontsize="10",shape=record];
  Node1 [label="mu::Parser",height=0.2,width=0.4,color="black", fillcolor="grey75", style="filled", fontcolor="black",tooltip="Mathematical expressions parser."];
  Node2 -> Node1 [dir="back",color="midnightblue",fontsize="10",style="solid",fontname="Helvetica"];
  Node2 [label="mu::ParserBase",height=0.2,width=0.4,color="black", fillcolor="white", style="filled",URL="$classmu_1_1ParserBase.html",tooltip="Mathematical expressions parser (base parser engine)."];
  Node3 -> Node2 [dir="back",color="darkorchid3",fontsize="10",style="dashed",label=" m_vRPN" ,fontname="Helvetica"];
  Node3 [label="mu::ParserByteCode",height=0.2,width=0.4,color="black", fillcolor="white", style="filled",URL="$classmu_1_1ParserByteCode.html",tooltip="Bytecode implementation of the Math Parser."];
}
