digraph "DesignValidator.DesignValidator.assert_mutex_present"
{
 // LATEX_PDF_SIZE
  edge [fontname="Helvetica",fontsize="10",labelfontname="Helvetica",labelfontsize="10"];
  node [fontname="Helvetica",fontsize="10",shape=record];
  rankdir="LR";
  Node1 [label="DesignValidator.DesignValidator.assert\l_mutex_present",height=0.2,width=0.4,color="black", fillcolor="grey75", style="filled", fontcolor="black",tooltip=" "];
  Node1 -> Node2 [color="midnightblue",fontsize="10",style="solid",fontname="Helvetica"];
  Node2 [label="DesignValidator.count\l_children",height=0.2,width=0.4,color="black", fillcolor="white", style="filled",URL="$namespaceDesignValidator.html#a6ddcad67a9f8aae3a27d9796fc38bfe4",tooltip=" "];
  Node1 -> Node3 [color="midnightblue",fontsize="10",style="solid",fontname="Helvetica"];
  Node3 [label="DesignValidator.stringify\l_locator",height=0.2,width=0.4,color="black", fillcolor="white", style="filled",URL="$namespaceDesignValidator.html#a3c474020191a505dcd9670f278785a6a",tooltip=" "];
}
