digraph "mu::ParserBase::ReInit"
{
 // LATEX_PDF_SIZE
  edge [fontname="Helvetica",fontsize="10",labelfontname="Helvetica",labelfontsize="10"];
  node [fontname="Helvetica",fontsize="10",shape=record];
  rankdir="LR";
  Node1 [label="mu::ParserBase::ReInit",height=0.2,width=0.4,color="black", fillcolor="grey75", style="filled", fontcolor="black",tooltip="Reset parser to string parsing mode and clear internal buffers."];
  Node1 -> Node2 [color="midnightblue",fontsize="10",style="solid",fontname="Helvetica"];
  Node2 [label="mu::ParserByteCode\l::clear",height=0.2,width=0.4,color="black", fillcolor="white", style="filled",URL="$classmu_1_1ParserByteCode.html#a9cec7c19c5ebbc1eac31d3b93edae1e4",tooltip="Delete the bytecode."];
  Node1 -> Node3 [color="midnightblue",fontsize="10",style="solid",fontname="Helvetica"];
  Node3 [label="mu::ParserBase::ParseString",height=0.2,width=0.4,color="black", fillcolor="white", style="filled",URL="$classmu_1_1ParserBase.html#a18994b737dfe6f2996792fa7320673b0",tooltip="One of the two main parse functions."];
  Node3 -> Node4 [color="midnightblue",fontsize="10",style="solid",fontname="Helvetica"];
  Node4 [label="mu::ParserError::SetFormula",height=0.2,width=0.4,color="black", fillcolor="white", style="filled",URL="$classmu_1_1ParserError.html#a1b7b4b511525f13f728c9c2942983b19",tooltip="Set the expression related to this error."];
}
