digraph "mu::ParserInt::ParserInt"
{
 // LATEX_PDF_SIZE
  edge [fontname="Helvetica",fontsize="10",labelfontname="Helvetica",labelfontsize="10"];
  node [fontname="Helvetica",fontsize="10",shape=record];
  rankdir="LR";
  Node1 [label="mu::ParserInt::ParserInt",height=0.2,width=0.4,color="black", fillcolor="grey75", style="filled", fontcolor="black",tooltip="Constructor."];
  Node1 -> Node2 [color="midnightblue",fontsize="10",style="solid",fontname="Helvetica"];
  Node2 [label="mu::ParserBase::AddValIdent",height=0.2,width=0.4,color="black", fillcolor="white", style="filled",URL="$classmu_1_1ParserBase.html#a0b49dbe051415f9d2a9d5564c38609e3",tooltip="Add a value parsing function."];
  Node1 -> Node3 [color="midnightblue",fontsize="10",style="solid",fontname="Helvetica"];
  Node3 [label="mu::ParserInt::InitCharSets",height=0.2,width=0.4,color="black", fillcolor="white", style="filled",URL="$classmu_1_1ParserInt.html#aa9589acaa68c3341490ae51bca9b0e78",tooltip=" "];
  Node3 -> Node4 [color="midnightblue",fontsize="10",style="solid",fontname="Helvetica"];
  Node4 [label="mu::ParserBase::DefineInfix\lOprtChars",height=0.2,width=0.4,color="black", fillcolor="white", style="filled",URL="$classmu_1_1ParserBase.html#ac76d0ceb4ee58babc4f1d0a9ca1e4240",tooltip="Define the set of valid characters to be used in names of infix operators."];
  Node3 -> Node5 [color="midnightblue",fontsize="10",style="solid",fontname="Helvetica"];
  Node5 [label="mu::ParserBase::DefineName\lChars",height=0.2,width=0.4,color="black", fillcolor="white", style="filled",URL="$classmu_1_1ParserBase.html#adf259477bbaa85e8dd7cb69ef4aa0a7a",tooltip="Define the set of valid characters to be used in names of functions, variables, constants."];
  Node3 -> Node6 [color="midnightblue",fontsize="10",style="solid",fontname="Helvetica"];
  Node6 [label="mu::ParserBase::DefineOprt\lChars",height=0.2,width=0.4,color="black", fillcolor="white", style="filled",URL="$classmu_1_1ParserBase.html#aafd21c418397d5412a75e5b2c1d6db58",tooltip="Define the set of valid characters to be used in names of binary operators and postfix operators."];
  Node1 -> Node7 [color="midnightblue",fontsize="10",style="solid",fontname="Helvetica"];
  Node7 [label="mu::ParserInt::InitFun",height=0.2,width=0.4,color="black", fillcolor="white", style="filled",URL="$classmu_1_1ParserInt.html#af7aa0bcbee6abf01676a3615206f14de",tooltip="Initialize the default functions."];
  Node7 -> Node8 [color="midnightblue",fontsize="10",style="solid",fontname="Helvetica"];
  Node8 [label="mu::ParserInt::Abs",height=0.2,width=0.4,color="black", fillcolor="white", style="filled",URL="$classmu_1_1ParserInt.html#a0881f500043d05b0def70aad10e721b2",tooltip=" "];
  Node7 -> Node9 [color="midnightblue",fontsize="10",style="solid",fontname="Helvetica"];
  Node9 [label="mu::ParserBase::DefineFun",height=0.2,width=0.4,color="black", fillcolor="white", style="filled",URL="$classmu_1_1ParserBase.html#a19bff73a29e12bb1af90793ceb258059",tooltip="Define a parser function without arguments."];
  Node7 -> Node10 [color="midnightblue",fontsize="10",style="solid",fontname="Helvetica"];
  Node10 [label="mu::ParserInt::Ite",height=0.2,width=0.4,color="black", fillcolor="white", style="filled",URL="$classmu_1_1ParserInt.html#ab6857e05181885f685a2af57cc5d1607",tooltip=" "];
  Node7 -> Node11 [color="midnightblue",fontsize="10",style="solid",fontname="Helvetica"];
  Node11 [label="mu::ParserInt::Max",height=0.2,width=0.4,color="black", fillcolor="white", style="filled",URL="$classmu_1_1ParserInt.html#a6f204a101a738d25c35e9416a06ef353",tooltip=" "];
  Node7 -> Node12 [color="midnightblue",fontsize="10",style="solid",fontname="Helvetica"];
  Node12 [label="mu::ParserInt::Min",height=0.2,width=0.4,color="black", fillcolor="white", style="filled",URL="$classmu_1_1ParserInt.html#ac2fa9e277a69fee8aa45837060aaf910",tooltip=" "];
  Node7 -> Node13 [color="midnightblue",fontsize="10",style="solid",fontname="Helvetica"];
  Node13 [label="mu::ParserInt::Sign",height=0.2,width=0.4,color="black", fillcolor="white", style="filled",URL="$classmu_1_1ParserInt.html#ac6945989ec0902fd6f483a16b2eb5f8b",tooltip=" "];
  Node7 -> Node14 [color="midnightblue",fontsize="10",style="solid",fontname="Helvetica"];
  Node14 [label="mu::ParserInt::Sum",height=0.2,width=0.4,color="black", fillcolor="white", style="filled",URL="$classmu_1_1ParserInt.html#ae3190c8a442e3c4f1064bfb2440b792b",tooltip=" "];
  Node1 -> Node15 [color="midnightblue",fontsize="10",style="solid",fontname="Helvetica"];
  Node15 [label="mu::ParserInt::InitOprt",height=0.2,width=0.4,color="black", fillcolor="white", style="filled",URL="$classmu_1_1ParserInt.html#a9bc5fc5f5be541a2329952138ad933e9",tooltip="Initialize operators."];
  Node15 -> Node16 [color="midnightblue",fontsize="10",style="solid",fontname="Helvetica"];
  Node16 [label="mu::ParserInt::Add",height=0.2,width=0.4,color="black", fillcolor="white", style="filled",URL="$classmu_1_1ParserInt.html#a61f712bd374155cb02707336b0886d5b",tooltip=" "];
  Node15 -> Node17 [color="midnightblue",fontsize="10",style="solid",fontname="Helvetica"];
  Node17 [label="mu::ParserInt::And",height=0.2,width=0.4,color="black", fillcolor="white", style="filled",URL="$classmu_1_1ParserInt.html#a5ab6460aeb22577dab675316132e2461",tooltip=" "];
  Node15 -> Node18 [color="midnightblue",fontsize="10",style="solid",fontname="Helvetica"];
  Node18 [label="mu::ParserBase::DefineInfixOprt",height=0.2,width=0.4,color="black", fillcolor="white", style="filled",URL="$classmu_1_1ParserBase.html#a5e26f06efc7564a85a5f5ab682ba5a23",tooltip="Add a user defined operator."];
  Node18 -> Node19 [color="midnightblue",fontsize="10",style="solid",fontname="Helvetica"];
  Node19 [label="mu::ParserBase::AddCallback",height=0.2,width=0.4,color="black", fillcolor="white", style="filled",URL="$classmu_1_1ParserBase.html#a2a06b19df214b249c64dad6a5a5705be",tooltip="Add a function or operator callback to the parser."];
  Node19 -> Node20 [color="midnightblue",fontsize="10",style="solid",fontname="Helvetica"];
  Node20 [label="mu::ParserBase::CheckOprt",height=0.2,width=0.4,color="black", fillcolor="white", style="filled",URL="$classmu_1_1ParserBase.html#a133b3a0e476be0b53001ce5d8568e99b",tooltip="Check if a name contains invalid characters."];
  Node20 -> Node21 [color="midnightblue",fontsize="10",style="solid",fontname="Helvetica"];
  Node21 [label="mu::ParserBase::Error",height=0.2,width=0.4,color="black", fillcolor="white", style="filled",URL="$classmu_1_1ParserBase.html#a408fec52d58680b74beee84ed9ca7c9c",tooltip="Create an error containing the parse error position."];
  Node20 -> Node22 [color="midnightblue",fontsize="10",style="solid",fontname="Helvetica"];
  Node22 [label="mu::ParserCallback\l::GetCode",height=0.2,width=0.4,color="black", fillcolor="white", style="filled",URL="$classmu_1_1ParserCallback.html#aca4285a09eac65372691af3cb6f31fae",tooltip="Return the callback code."];
  Node19 -> Node21 [color="midnightblue",fontsize="10",style="solid",fontname="Helvetica"];
  Node19 -> Node23 [color="midnightblue",fontsize="10",style="solid",fontname="Helvetica"];
  Node23 [label="mu::ParserCallback\l::GetAddr",height=0.2,width=0.4,color="black", fillcolor="white", style="filled",URL="$classmu_1_1ParserCallback.html#abea23b8f31fb65086013b8382ca0674b",tooltip="Get the callback address for the parser function."];
  Node19 -> Node24 [color="midnightblue",fontsize="10",style="solid",fontname="Helvetica"];
  Node24 [label="mu::ParserBase::ReInit",height=0.2,width=0.4,color="red", fillcolor="white", style="filled",URL="$classmu_1_1ParserBase.html#ae25a9288c72526494035ce7f23b2b588",tooltip="Reset parser to string parsing mode and clear internal buffers."];
  Node24 -> Node25 [color="midnightblue",fontsize="10",style="solid",fontname="Helvetica"];
  Node25 [label="mu::ParserByteCode\l::clear",height=0.2,width=0.4,color="black", fillcolor="white", style="filled",URL="$classmu_1_1ParserByteCode.html#a9cec7c19c5ebbc1eac31d3b93edae1e4",tooltip="Delete the bytecode."];
  Node18 -> Node28 [color="midnightblue",fontsize="10",style="solid",fontname="Helvetica"];
  Node28 [label="mu::ParserBase::ValidInfix\lOprtChars",height=0.2,width=0.4,color="black", fillcolor="white", style="filled",URL="$classmu_1_1ParserBase.html#a07d5ceb535e963f4fda5e3890759373d",tooltip="Virtual function that defines the characters allowed in infix operator definitions."];
  Node15 -> Node29 [color="midnightblue",fontsize="10",style="solid",fontname="Helvetica"];
  Node29 [label="mu::ParserBase::DefineOprt",height=0.2,width=0.4,color="black", fillcolor="white", style="filled",URL="$classmu_1_1ParserBase.html#a70483983b78f13d37e4f28962d86af34",tooltip="Define a binary operator."];
  Node29 -> Node19 [color="midnightblue",fontsize="10",style="solid",fontname="Helvetica"];
  Node29 -> Node21 [color="midnightblue",fontsize="10",style="solid",fontname="Helvetica"];
  Node29 -> Node30 [color="midnightblue",fontsize="10",style="solid",fontname="Helvetica"];
  Node30 [label="mu::ParserBase::ValidOprt\lChars",height=0.2,width=0.4,color="black", fillcolor="white", style="filled",URL="$classmu_1_1ParserBase.html#adc4e5a8fe8f2b290f567007cd4b85914",tooltip="Virtual function that defines the characters allowed in operator definitions."];
  Node15 -> Node31 [color="midnightblue",fontsize="10",style="solid",fontname="Helvetica"];
  Node31 [label="mu::ParserInt::Div",height=0.2,width=0.4,color="black", fillcolor="white", style="filled",URL="$classmu_1_1ParserInt.html#a422b7a80636fe8d0567e17967cf35247",tooltip=" "];
  Node15 -> Node32 [color="midnightblue",fontsize="10",style="solid",fontname="Helvetica"];
  Node32 [label="mu::ParserBase::EnableBuilt\lInOprt",height=0.2,width=0.4,color="black", fillcolor="white", style="filled",URL="$classmu_1_1ParserBase.html#adf5cb2ffd21f51fac2633a4976fe1e2d",tooltip="Enable or disable the built in binary operators."];
  Node15 -> Node33 [color="midnightblue",fontsize="10",style="solid",fontname="Helvetica"];
  Node33 [label="mu::ParserInt::Equal",height=0.2,width=0.4,color="black", fillcolor="white", style="filled",URL="$classmu_1_1ParserInt.html#ac547a63e50b9e1923c92ae5e5ff44208",tooltip=" "];
  Node15 -> Node34 [color="midnightblue",fontsize="10",style="solid",fontname="Helvetica"];
  Node34 [label="mu::ParserInt::Greater",height=0.2,width=0.4,color="black", fillcolor="white", style="filled",URL="$classmu_1_1ParserInt.html#a4d7aaa6f81b3f07680370ef1a6e9be78",tooltip=" "];
  Node15 -> Node35 [color="midnightblue",fontsize="10",style="solid",fontname="Helvetica"];
  Node35 [label="mu::ParserInt::GreaterEq",height=0.2,width=0.4,color="black", fillcolor="white", style="filled",URL="$classmu_1_1ParserInt.html#a2b1aa2159069a034bc38cd3c06fc943a",tooltip=" "];
  Node15 -> Node36 [color="midnightblue",fontsize="10",style="solid",fontname="Helvetica"];
  Node36 [label="mu::ParserInt::Less",height=0.2,width=0.4,color="black", fillcolor="white", style="filled",URL="$classmu_1_1ParserInt.html#aeff2fa3955463e09cecee113a8555702",tooltip=" "];
  Node15 -> Node37 [color="midnightblue",fontsize="10",style="solid",fontname="Helvetica"];
  Node37 [label="mu::ParserInt::LessEq",height=0.2,width=0.4,color="black", fillcolor="white", style="filled",URL="$classmu_1_1ParserInt.html#a231eb50441aa353e4a044b8032b6175a",tooltip=" "];
  Node15 -> Node38 [color="midnightblue",fontsize="10",style="solid",fontname="Helvetica"];
  Node38 [label="mu::ParserInt::LogAnd",height=0.2,width=0.4,color="black", fillcolor="white", style="filled",URL="$classmu_1_1ParserInt.html#af1aee42a2ac2ae9cb40f9fbf0eac8000",tooltip=" "];
  Node15 -> Node39 [color="midnightblue",fontsize="10",style="solid",fontname="Helvetica"];
  Node39 [label="mu::ParserInt::LogOr",height=0.2,width=0.4,color="black", fillcolor="white", style="filled",URL="$classmu_1_1ParserInt.html#ab06accd3f6f2d926ec4ba57b0228277b",tooltip=" "];
  Node15 -> Node40 [color="midnightblue",fontsize="10",style="solid",fontname="Helvetica"];
  Node40 [label="mu::ParserInt::Mod",height=0.2,width=0.4,color="black", fillcolor="white", style="filled",URL="$classmu_1_1ParserInt.html#a6df1f60728198358b49809724f0c53f1",tooltip=" "];
  Node15 -> Node41 [color="midnightblue",fontsize="10",style="solid",fontname="Helvetica"];
  Node41 [label="mu::ParserInt::Mul",height=0.2,width=0.4,color="black", fillcolor="white", style="filled",URL="$classmu_1_1ParserInt.html#a477a0a3a6f3ab6c493b53ee934e94702",tooltip=" "];
  Node15 -> Node42 [color="midnightblue",fontsize="10",style="solid",fontname="Helvetica"];
  Node42 [label="mu::ParserInt::Not",height=0.2,width=0.4,color="black", fillcolor="white", style="filled",URL="$classmu_1_1ParserInt.html#a40b96f177fe15ff3bf64f2ec1d967c4b",tooltip=" "];
  Node15 -> Node43 [color="midnightblue",fontsize="10",style="solid",fontname="Helvetica"];
  Node43 [label="mu::ParserInt::NotEqual",height=0.2,width=0.4,color="black", fillcolor="white", style="filled",URL="$classmu_1_1ParserInt.html#a4c35bb2bfc03daf74992d186a873e34e",tooltip=" "];
  Node15 -> Node44 [color="midnightblue",fontsize="10",style="solid",fontname="Helvetica"];
  Node44 [label="mu::ParserInt::Or",height=0.2,width=0.4,color="black", fillcolor="white", style="filled",URL="$classmu_1_1ParserInt.html#a4cc41682ebacd9aa7bc9f7a13421aece",tooltip=" "];
  Node15 -> Node45 [color="midnightblue",fontsize="10",style="solid",fontname="Helvetica"];
  Node45 [label="mu::ParserInt::Pow",height=0.2,width=0.4,color="black", fillcolor="white", style="filled",URL="$classmu_1_1ParserInt.html#abcedf19436b67bd915dc9487533816d5",tooltip=" "];
  Node15 -> Node46 [color="midnightblue",fontsize="10",style="solid",fontname="Helvetica"];
  Node46 [label="mu::ParserInt::Shl",height=0.2,width=0.4,color="black", fillcolor="white", style="filled",URL="$classmu_1_1ParserInt.html#a33e3f59945fe2c32316708ed363686af",tooltip=" "];
  Node15 -> Node47 [color="midnightblue",fontsize="10",style="solid",fontname="Helvetica"];
  Node47 [label="mu::ParserInt::Shr",height=0.2,width=0.4,color="black", fillcolor="white", style="filled",URL="$classmu_1_1ParserInt.html#a4c5b8072dca1913b90d2ab07d7657eaf",tooltip=" "];
  Node15 -> Node48 [color="midnightblue",fontsize="10",style="solid",fontname="Helvetica"];
  Node48 [label="mu::ParserInt::Sub",height=0.2,width=0.4,color="black", fillcolor="white", style="filled",URL="$classmu_1_1ParserInt.html#aad9b03c1cd08f22c6fbac9a1544b7a92",tooltip=" "];
  Node15 -> Node49 [color="midnightblue",fontsize="10",style="solid",fontname="Helvetica"];
  Node49 [label="mu::ParserInt::UnaryMinus",height=0.2,width=0.4,color="black", fillcolor="white", style="filled",URL="$classmu_1_1ParserInt.html#a4ca14c9ef660605d0454d7ff3f0020d9",tooltip=" "];
  Node1 -> Node50 [color="midnightblue",fontsize="10",style="solid",fontname="Helvetica"];
  Node50 [label="mu::ParserInt::IsBinVal",height=0.2,width=0.4,color="black", fillcolor="white", style="filled",URL="$classmu_1_1ParserInt.html#af3ff3f0aded8ce548c3f509a147a1f1c",tooltip=" "];
  Node1 -> Node51 [color="midnightblue",fontsize="10",style="solid",fontname="Helvetica"];
  Node51 [label="mu::ParserInt::IsHexVal",height=0.2,width=0.4,color="black", fillcolor="white", style="filled",URL="$classmu_1_1ParserInt.html#a034a0966c0dfbdc5c7a7ea5da4a5c635",tooltip="Check a given position in the expression for the presence of a hex value."];
  Node1 -> Node52 [color="midnightblue",fontsize="10",style="solid",fontname="Helvetica"];
  Node52 [label="mu::ParserInt::IsVal",height=0.2,width=0.4,color="black", fillcolor="white", style="filled",URL="$classmu_1_1ParserInt.html#af568520d01245642671b5521ff9ab7a4",tooltip=" "];
}
