digraph "mu::ParserByteCode::ConstantFolding"
{
 // LATEX_PDF_SIZE
  edge [fontname="Helvetica",fontsize="10",labelfontname="Helvetica",labelfontsize="10"];
  node [fontname="Helvetica",fontsize="10",shape=record];
  rankdir="LR";
  Node1 [label="mu::ParserByteCode\l::ConstantFolding",height=0.2,width=0.4,color="black", fillcolor="grey75", style="filled", fontcolor="black",tooltip=" "];
  Node1 -> Node2 [color="midnightblue",fontsize="10",style="solid",fontname="Helvetica"];
  Node2 [label="mu::MathImpl::Pow",height=0.2,width=0.4,color="black", fillcolor="white", style="filled",URL="$structmu_1_1MathImpl.html#a51336cadb47f16536a578eb11d2b015c",tooltip=" "];
}
