digraph "Device::DStatusPs"
{
 // LATEX_PDF_SIZE
  edge [fontname="Helvetica",fontsize="10",labelfontname="Helvetica",labelfontsize="10"];
  node [fontname="Helvetica",fontsize="10",shape=record];
  rankdir="LR";
  Node1 [label="Device::DStatusPs",height=0.2,width=0.4,color="black", fillcolor="grey75", style="filled", fontcolor="black",tooltip=" "];
  Node2 -> Node1 [dir="back",color="midnightblue",fontsize="10",style="solid",fontname="Helvetica"];
  Node2 [label="Device::Base_DStatusPs",height=0.2,width=0.4,color="black", fillcolor="white", style="filled",URL="$classDevice_1_1Base__DStatusPs.html",tooltip=" "];
  Node3 -> Node2 [dir="back",color="darkorchid3",fontsize="10",style="dashed",label=" m_stringAddress" ,fontname="Helvetica"];
  Node3 [label="string",height=0.2,width=0.4,color="grey75", fillcolor="white", style="filled",tooltip=" "];
  Node4 -> Node2 [dir="back",color="darkorchid3",fontsize="10",style="dashed",label=" m_addressSpaceLink" ,fontname="Helvetica"];
  Node4 [label="AddressSpace::ASStatusPs",height=0.2,width=0.4,color="black", fillcolor="white", style="filled",URL="$classAddressSpace_1_1ASStatusPs.html",tooltip="Fully auto-generated class to represent StatusPs in the OPC UA AddressSpace."];
  Node5 -> Node4 [dir="back",color="midnightblue",fontsize="10",style="solid",fontname="Helvetica"];
  Node5 [label="OpcUa::BaseObjectType",height=0.2,width=0.4,color="black", fillcolor="white", style="filled",URL="$classOpcUa_1_1BaseObjectType.html",tooltip=" "];
  Node6 -> Node5 [dir="back",color="midnightblue",fontsize="10",style="solid",fontname="Helvetica"];
  Node6 [label="UaObject",height=0.2,width=0.4,color="black", fillcolor="white", style="filled",URL="$classUaObject.html",tooltip=" "];
  Node7 -> Node6 [dir="back",color="midnightblue",fontsize="10",style="solid",fontname="Helvetica"];
  Node7 [label="UaNode",height=0.2,width=0.4,color="black", fillcolor="white", style="filled",URL="$classUaNode.html",tooltip=" "];
  Node8 -> Node5 [dir="back",color="firebrick4",fontsize="10",style="solid",fontname="Helvetica"];
  Node8 [label="MethodManager",height=0.2,width=0.4,color="black", fillcolor="white", style="filled",URL="$classMethodManager.html",tooltip=" "];
  Node9 -> Node5 [dir="back",color="darkorchid3",fontsize="10",style="dashed",label=" m_browseName" ,fontname="Helvetica"];
  Node9 [label="UaQualifiedName",height=0.2,width=0.4,color="black", fillcolor="white", style="filled",URL="$classUaQualifiedName.html",tooltip=" "];
  Node10 -> Node9 [dir="back",color="darkorchid3",fontsize="10",style="dashed",label=" m_unqualifiedName" ,fontname="Helvetica"];
  Node10 [label="UaString",height=0.2,width=0.4,color="black", fillcolor="white", style="filled",URL="$classUaString.html",tooltip=" "];
  Node11 -> Node10 [dir="back",color="darkorchid3",fontsize="10",style="dashed",label=" m_impl" ,fontname="Helvetica"];
  Node11 [label="UA_String",height=0.2,width=0.4,color="black", fillcolor="white", style="filled",URL="$structUA__String.html",tooltip=" "];
  Node12 -> Node9 [dir="back",color="darkorchid3",fontsize="10",style="dashed",label=" m_impl" ,fontname="Helvetica"];
  Node12 [label="UA_QualifiedName",height=0.2,width=0.4,color="black", fillcolor="white", style="filled",URL="$structUA__QualifiedName.html",tooltip=" "];
  Node11 -> Node12 [dir="back",color="darkorchid3",fontsize="10",style="dashed",label=" name" ,fontname="Helvetica"];
  Node13 -> Node5 [dir="back",color="darkorchid3",fontsize="10",style="dashed",label=" m_nodeId" ,fontname="Helvetica"];
  Node13 [label="UaNodeId",height=0.2,width=0.4,color="black", fillcolor="white", style="filled",URL="$classUaNodeId.html",tooltip=" "];
  Node14 -> Node13 [dir="back",color="darkorchid3",fontsize="10",style="dashed",label=" m_impl" ,fontname="Helvetica"];
  Node14 [label="UA_NodeId",height=0.2,width=0.4,color="black", fillcolor="white", style="filled",URL="$structUA__NodeId.html",tooltip=" "];
  Node15 -> Node14 [dir="back",color="darkorchid3",fontsize="10",style="dashed",label=" identifierType" ,fontname="Helvetica"];
  Node15 [label="enum",height=0.2,width=0.4,color="grey75", fillcolor="white", style="filled",tooltip=" "];
  Node11 -> Node14 [dir="back",color="darkorchid3",fontsize="10",style="dashed",label=" string\nbyteString" ,fontname="Helvetica"];
  Node16 -> Node14 [dir="back",color="darkorchid3",fontsize="10",style="dashed",label=" guid" ,fontname="Helvetica"];
  Node16 [label="UA_Guid",height=0.2,width=0.4,color="black", fillcolor="white", style="filled",URL="$structUA__Guid.html",tooltip=" "];
  Node17 -> Node4 [dir="back",color="darkorchid3",fontsize="10",style="dashed",label=" m_STATUS_PS_TRIP\nm_STATUS_PS_CC\nm_STATUS_PS_NOC\nm_STATUS_PS_OVVS\nm_STATUS_PS_OVCH\nm_STATUS_PS_OVCS\nm_STATUS_PS_RESET\l_ACK\nm_STATUS_PS_TRIPC\nm_STATUS_PS_OVVH\nm_STATUS_PS_TRIPV\n..." ,fontname="Helvetica"];
  Node17 [label="AddressSpace::ChangeNotifying\lVariable",height=0.2,width=0.4,color="black", fillcolor="white", style="filled",URL="$classAddressSpace_1_1ChangeNotifyingVariable.html",tooltip=" "];
  Node18 -> Node17 [dir="back",color="midnightblue",fontsize="10",style="solid",fontname="Helvetica"];
  Node18 [label="OpcUa::BaseDataVariableType",height=0.2,width=0.4,color="black", fillcolor="white", style="filled",URL="$classOpcUa_1_1BaseDataVariableType.html",tooltip=" "];
  Node7 -> Node18 [dir="back",color="midnightblue",fontsize="10",style="solid",fontname="Helvetica"];
  Node19 -> Node18 [dir="back",color="darkorchid3",fontsize="10",style="dashed",label=" m_arrayDimensions" ,fontname="Helvetica"];
  Node19 [label="UaCompatArray\< OpcUa\l_UInt32 \>",height=0.2,width=0.4,color="black", fillcolor="white", style="filled",URL="$classUaCompatArray.html",tooltip=" "];
  Node20 -> Node18 [dir="back",color="darkorchid3",fontsize="10",style="dashed",label=" m_currentValue" ,fontname="Helvetica"];
  Node20 [label="UaDataValue",height=0.2,width=0.4,color="black", fillcolor="white", style="filled",URL="$classUaDataValue.html",tooltip=" "];
  Node21 -> Node20 [dir="back",color="darkorchid3",fontsize="10",style="dashed",label=" m_impl" ,fontname="Helvetica"];
  Node21 [label="UA_DataValue",height=0.2,width=0.4,color="black", fillcolor="white", style="filled",URL="$structUA__DataValue.html",tooltip=" "];
  Node22 -> Node21 [dir="back",color="darkorchid3",fontsize="10",style="dashed",label=" value" ,fontname="Helvetica"];
  Node22 [label="UA_Variant",height=0.2,width=0.4,color="black", fillcolor="white", style="filled",URL="$structUA__Variant.html",tooltip=" "];
  Node23 -> Node22 [dir="back",color="darkorchid3",fontsize="10",style="dashed",label=" type" ,fontname="Helvetica"];
  Node23 [label="UA_DataType",height=0.2,width=0.4,color="black", fillcolor="white", style="filled",URL="$structUA__DataType.html",tooltip=" "];
  Node14 -> Node23 [dir="back",color="darkorchid3",fontsize="10",style="dashed",label=" typeId" ,fontname="Helvetica"];
  Node24 -> Node23 [dir="back",color="darkorchid3",fontsize="10",style="dashed",label=" members" ,fontname="Helvetica"];
  Node24 [label="UA_DataTypeMember",height=0.2,width=0.4,color="black", fillcolor="white", style="filled",URL="$structUA__DataTypeMember.html",tooltip=" "];
  Node9 -> Node18 [dir="back",color="darkorchid3",fontsize="10",style="dashed",label=" m_browseName" ,fontname="Helvetica"];
  Node13 -> Node18 [dir="back",color="darkorchid3",fontsize="10",style="dashed",label=" m_nodeId\nm_typeDefinitionId" ,fontname="Helvetica"];
  Node13 -> Node4 [dir="back",color="darkorchid3",fontsize="10",style="dashed",label=" m_effectiveParentNodeIdFor\lChildren\nm_typeNodeId" ,fontname="Helvetica"];
  Node1 -> Node4 [dir="back",color="darkorchid3",fontsize="10",style="dashed",label=" m_deviceLink" ,fontname="Helvetica"];
  Node25 -> Node2 [dir="back",color="darkorchid3",fontsize="10",style="dashed",label=" m_parent" ,fontname="Helvetica"];
  Node25 [label="Device::DPowerSupply",height=0.2,width=0.4,color="black", fillcolor="white", style="filled",URL="$classDevice_1_1DPowerSupply.html",tooltip=" "];
  Node26 -> Node25 [dir="back",color="midnightblue",fontsize="10",style="solid",fontname="Helvetica"];
  Node26 [label="Device::Base_DPowerSupply",height=0.2,width=0.4,color="black", fillcolor="white", style="filled",URL="$classDevice_1_1Base__DPowerSupply.html",tooltip=" "];
  Node27 -> Node26 [dir="back",color="darkorchid3",fontsize="10",style="dashed",label=" m_addressSpaceLink" ,fontname="Helvetica"];
  Node27 [label="AddressSpace::ASPowerSupply",height=0.2,width=0.4,color="black", fillcolor="white", style="filled",URL="$classAddressSpace_1_1ASPowerSupply.html",tooltip="Fully auto-generated class to represent PowerSupply in the OPC UA AddressSpace."];
  Node5 -> Node27 [dir="back",color="midnightblue",fontsize="10",style="solid",fontname="Helvetica"];
  Node17 -> Node27 [dir="back",color="darkorchid3",fontsize="10",style="dashed",label=" m_SerialNumber\nm_HwImax\nm_HwVmax\nm_FirmwareVersion\nm_PSMessage\nm_IpAddress\nm_Identifier\nm_Counter\nm_Vendor\nm_Type\n..." ,fontname="Helvetica"];
  Node13 -> Node27 [dir="back",color="darkorchid3",fontsize="10",style="dashed",label=" m_effectiveParentNodeIdFor\lChildren\nm_typeNodeId" ,fontname="Helvetica"];
  Node25 -> Node27 [dir="back",color="darkorchid3",fontsize="10",style="dashed",label=" m_deviceLink" ,fontname="Helvetica"];
  Node28 -> Node26 [dir="back",color="darkorchid3",fontsize="10",style="dashed",label=" m_parent" ,fontname="Helvetica"];
  Node28 [label="Device::DRoot",height=0.2,width=0.4,color="black", fillcolor="white", style="filled",URL="$classDevice_1_1DRoot.html",tooltip=" "];
  Node28 -> Node28 [dir="back",color="darkorchid3",fontsize="10",style="dashed",label=" m_instance" ,fontname="Helvetica"];
  Node3 -> Node26 [dir="back",color="darkorchid3",fontsize="10",style="dashed",label=" m_stringAddress" ,fontname="Helvetica"];
  Node29 -> Node25 [dir="back",color="midnightblue",fontsize="10",style="solid",fontname="Helvetica"];
  Node29 [label="LxiComm",height=0.2,width=0.4,color="black", fillcolor="white", style="filled",URL="$classLxiComm.html",tooltip=" "];
  Node3 -> Node29 [dir="back",color="darkorchid3",fontsize="10",style="dashed",label=" _hostname\nm_serialNumber\nm_psType\nm_firmwareVersion\nm_identifier\nm_ip\nm_vendor\nm_family" ,fontname="Helvetica"];
  Node3 -> Node25 [dir="back",color="darkorchid3",fontsize="10",style="dashed",label=" m_ipAddress" ,fontname="Helvetica"];
}
