digraph "Configuration::FreeVariable::FreeVariable"
{
 // LATEX_PDF_SIZE
  edge [fontname="Helvetica",fontsize="10",labelfontname="Helvetica",labelfontsize="10"];
  node [fontname="Helvetica",fontsize="10",shape=record];
  rankdir="LR";
  Node1 [label="Configuration::FreeVariable\l::FreeVariable",height=0.2,width=0.4,color="black", fillcolor="grey75", style="filled", fontcolor="black",tooltip=" "];
  Node1 -> Node2 [color="midnightblue",fontsize="10",style="solid",fontname="Helvetica"];
  Node2 [label="Configuration::FreeVariable\l::parse",height=0.2,width=0.4,color="black", fillcolor="white", style="filled",URL="$classConfiguration_1_1FreeVariable.html#ae13bc85f316e8c7d5450dfc7bc3b0282",tooltip=" "];
}
