digraph "LxiComm::getLimitCurrent"
{
 // LATEX_PDF_SIZE
  edge [fontname="Helvetica",fontsize="10",labelfontname="Helvetica",labelfontsize="10"];
  node [fontname="Helvetica",fontsize="10",shape=record];
  rankdir="LR";
  Node1 [label="LxiComm::getLimitCurrent",height=0.2,width=0.4,color="black", fillcolor="grey75", style="filled", fontcolor="black",tooltip=" "];
  Node1 -> Node2 [color="midnightblue",fontsize="10",style="solid",fontname="Helvetica"];
  Node2 [label="LxiComm::_getChannelsFloats\lNoUnits",height=0.2,width=0.4,color="black", fillcolor="white", style="filled",URL="$classLxiComm.html#a0e46d4afe23289c07fd237561e9e2f3d",tooltip=" "];
  Node2 -> Node3 [color="midnightblue",fontsize="10",style="solid",fontname="Helvetica"];
  Node3 [label="LxiComm::_decode2ndFloat\lNumberWithoutUnit",height=0.2,width=0.4,color="black", fillcolor="white", style="filled",URL="$classLxiComm.html#a18954d4f1f5f386a9cb3376cc2f340ea",tooltip=" "];
  Node2 -> Node4 [color="midnightblue",fontsize="10",style="solid",fontname="Helvetica"];
  Node4 [label="lxi_receive",height=0.2,width=0.4,color="black", fillcolor="white", style="filled",URL="$lxi_8h.html#a789e0a1019af4c64c35a1ed5e15f3ffe",tooltip=" "];
  Node2 -> Node5 [color="midnightblue",fontsize="10",style="solid",fontname="Helvetica"];
  Node5 [label="lxi_send",height=0.2,width=0.4,color="black", fillcolor="white", style="filled",URL="$lxi_8h.html#ac17b501470ff659fe007b9757cbdfc60",tooltip=" "];
  Node1 -> Node6 [color="midnightblue",fontsize="10",style="solid",fontname="Helvetica"];
  Node6 [label="Device::DLxiCommand\l::getCommandForMethod",height=0.2,width=0.4,color="black", fillcolor="white", style="filled",URL="$classDevice_1_1DLxiCommand.html#ae9d2bf54b7ea049b0ac1a57e7003c660",tooltip=" "];
  Node6 -> Node7 [color="midnightblue",fontsize="10",style="solid",fontname="Helvetica"];
  Node7 [label="it",height=0.2,width=0.4,color="black", fillcolor="white", style="filled",URL="$run_2readme_8txt.html#a00c941c0b3a058943426f27355541739",tooltip=" "];
}
