digraph "DesignValidator.DesignValidator.validate_cache_variables"
{
 // LATEX_PDF_SIZE
  edge [fontname="Helvetica",fontsize="10",labelfontname="Helvetica",labelfontsize="10"];
  node [fontname="Helvetica",fontsize="10",shape=record];
  rankdir="LR";
  Node1 [label="DesignValidator.DesignValidator.validate\l_cache_variables",height=0.2,width=0.4,color="black", fillcolor="grey75", style="filled", fontcolor="black",tooltip=" "];
  Node1 -> Node2 [color="midnightblue",fontsize="10",style="solid",fontname="Helvetica"];
  Node2 [label="DesignValidator.assert\l_attribute_absent",height=0.2,width=0.4,color="black", fillcolor="white", style="filled",URL="$namespaceDesignValidator.html#a170d914b5958069105578fb81490b82e",tooltip=" "];
  Node2 -> Node3 [color="midnightblue",fontsize="10",style="solid",fontname="Helvetica"];
  Node3 [label="DesignValidator.stringify\l_locator",height=0.2,width=0.4,color="black", fillcolor="white", style="filled",URL="$namespaceDesignValidator.html#a3c474020191a505dcd9670f278785a6a",tooltip=" "];
  Node1 -> Node4 [color="midnightblue",fontsize="10",style="solid",fontname="Helvetica"];
  Node4 [label="DesignValidator.assert\l_attribute_equal",height=0.2,width=0.4,color="black", fillcolor="white", style="filled",URL="$namespaceDesignValidator.html#a360b05676cde605a473c5d237f13bab1",tooltip=" "];
  Node4 -> Node3 [color="midnightblue",fontsize="10",style="solid",fontname="Helvetica"];
  Node1 -> Node5 [color="midnightblue",fontsize="10",style="solid",fontname="Helvetica"];
  Node5 [label="DesignValidator.assert\l_attribute_present",height=0.2,width=0.4,color="black", fillcolor="white", style="filled",URL="$namespaceDesignValidator.html#a81d709e3bc2a76ce5c9097ea1bb8763a",tooltip=" "];
  Node5 -> Node3 [color="midnightblue",fontsize="10",style="solid",fontname="Helvetica"];
  Node1 -> Node6 [color="midnightblue",fontsize="10",style="solid",fontname="Helvetica"];
  Node6 [label="DesignValidator.count\l_children",height=0.2,width=0.4,color="black", fillcolor="white", style="filled",URL="$namespaceDesignValidator.html#a6ddcad67a9f8aae3a27d9796fc38bfe4",tooltip=" "];
  Node1 -> Node3 [color="midnightblue",fontsize="10",style="solid",fontname="Helvetica"];
  Node1 -> Node7 [color="midnightblue",fontsize="10",style="solid",fontname="Helvetica"];
  Node7 [label="DesignValidator.DesignValidator.validate\l_array",height=0.2,width=0.4,color="black", fillcolor="white", style="filled",URL="$classDesignValidator_1_1DesignValidator.html#aafdc0138a46cbdb5c1575d01ccace772",tooltip=" "];
  Node7 -> Node3 [color="midnightblue",fontsize="10",style="solid",fontname="Helvetica"];
  Node1 -> Node8 [color="midnightblue",fontsize="10",style="solid",fontname="Helvetica"];
  Node8 [label="DesignValidator.DesignValidator.validate\l_initial_value",height=0.2,width=0.4,color="black", fillcolor="white", style="filled",URL="$classDesignValidator_1_1DesignValidator.html#ad8d8b56a8d1f07869a0b9b7d95916a3d",tooltip=" "];
  Node8 -> Node9 [color="midnightblue",fontsize="10",style="solid",fontname="Helvetica"];
  Node9 [label="DesignValidator.assert\l_numeric_literal_valid",height=0.2,width=0.4,color="black", fillcolor="white", style="filled",URL="$namespaceDesignValidator.html#ae87594ba50f5c0dc20ad541bcb2f1e75",tooltip=" "];
  Node9 -> Node3 [color="midnightblue",fontsize="10",style="solid",fontname="Helvetica"];
  Node8 -> Node3 [color="midnightblue",fontsize="10",style="solid",fontname="Helvetica"];
}
