digraph "UaVariant::toUInt32"
{
 // LATEX_PDF_SIZE
  edge [fontname="Helvetica",fontsize="10",labelfontname="Helvetica",labelfontsize="10"];
  node [fontname="Helvetica",fontsize="10",shape=record];
  rankdir="LR";
  Node1 [label="UaVariant::toUInt32",height=0.2,width=0.4,color="black", fillcolor="grey75", style="filled", fontcolor="black",tooltip=" "];
  Node1 -> Node2 [color="midnightblue",fontsize="10",style="solid",fontname="Helvetica"];
  Node2 [label="UaVariant::toSimpleType",height=0.2,width=0.4,color="black", fillcolor="white", style="filled",URL="$classUaVariant.html#a9bfdc2f68a1266fc9e6c84a129bdb85e",tooltip="Will convert stored value to a simple type, if possible."];
  Node2 -> Node3 [color="midnightblue",fontsize="10",style="solid",fontname="Helvetica"];
  Node3 [label="UaVariant::convertNumericType",height=0.2,width=0.4,color="black", fillcolor="white", style="filled",URL="$classUaVariant.html#ad616147abf70426e9c2bf23b2ec78262",tooltip=" "];
  Node2 -> Node4 [color="midnightblue",fontsize="10",style="solid",fontname="Helvetica"];
  Node4 [label="UaVariant::isNumericType",height=0.2,width=0.4,color="black", fillcolor="white", style="filled",URL="$classUaVariant.html#a2007cb3f123fba847708e5538fa6ead6",tooltip=" "];
}
