digraph "NodeManagerBase::addVariableNodeAndReference"
{
 // LATEX_PDF_SIZE
  edge [fontname="Helvetica",fontsize="10",labelfontname="Helvetica",labelfontsize="10"];
  node [fontname="Helvetica",fontsize="10",shape=record];
  rankdir="LR";
  Node1 [label="NodeManagerBase::addVariable\lNodeAndReference",height=0.2,width=0.4,color="black", fillcolor="grey75", style="filled", fontcolor="black",tooltip=" "];
  Node1 -> Node2 [color="midnightblue",fontsize="10",style="solid",fontname="Helvetica"];
  Node2 [label="UaNode::addReferencedTarget",height=0.2,width=0.4,color="black", fillcolor="white", style="filled",URL="$classUaNode.html#abd820a0669b7880d524b682fe4d25713",tooltip=" "];
  Node1 -> Node3 [color="midnightblue",fontsize="10",style="solid",fontname="Helvetica"];
  Node3 [label="UaNode::browseName",height=0.2,width=0.4,color="black", fillcolor="white", style="filled",URL="$classUaNode.html#aed5784a2b7306ab05d6928bad4b6fd75",tooltip=" "];
  Node1 -> Node4 [color="midnightblue",fontsize="10",style="solid",fontname="Helvetica"];
  Node4 [label="UaString::toUtf8",height=0.2,width=0.4,color="black", fillcolor="white", style="filled",URL="$classUaString.html#a0815fbf72b91c5cb6df3fd398434a395",tooltip=" "];
  Node1 -> Node5 [color="midnightblue",fontsize="10",style="solid",fontname="Helvetica"];
  Node5 [label="UaQualifiedName::unqualifiedName",height=0.2,width=0.4,color="black", fillcolor="white", style="filled",URL="$classUaQualifiedName.html#a736e9c6e4e58b8bd24739df9b94fba86",tooltip=" "];
}
