digraph "mu::Parser::InitFun"
{
 // LATEX_PDF_SIZE
  edge [fontname="Helvetica",fontsize="10",labelfontname="Helvetica",labelfontsize="10"];
  node [fontname="Helvetica",fontsize="10",shape=record];
  rankdir="LR";
  Node1 [label="mu::Parser::InitFun",height=0.2,width=0.4,color="black", fillcolor="grey75", style="filled", fontcolor="black",tooltip="Initialize the default functions."];
  Node1 -> Node2 [color="midnightblue",fontsize="10",style="solid",fontname="Helvetica"];
  Node2 [label="mu::Parser::Abs",height=0.2,width=0.4,color="black", fillcolor="white", style="filled",URL="$classmu_1_1Parser.html#ad266fff14e9ef1c885b9d58707f63de3",tooltip=" "];
  Node1 -> Node3 [color="midnightblue",fontsize="10",style="solid",fontname="Helvetica"];
  Node3 [label="mu::Parser::ACos",height=0.2,width=0.4,color="black", fillcolor="white", style="filled",URL="$classmu_1_1Parser.html#ab6e70ade9c1db89dc2777aa988d8a38b",tooltip=" "];
  Node1 -> Node4 [color="midnightblue",fontsize="10",style="solid",fontname="Helvetica"];
  Node4 [label="mu::Parser::ACosh",height=0.2,width=0.4,color="black", fillcolor="white", style="filled",URL="$classmu_1_1Parser.html#a476845b48bec245a7c4defdd6b12e370",tooltip=" "];
  Node1 -> Node5 [color="midnightblue",fontsize="10",style="solid",fontname="Helvetica"];
  Node5 [label="mu::Parser::ASin",height=0.2,width=0.4,color="black", fillcolor="white", style="filled",URL="$classmu_1_1Parser.html#af8a0febff290dee8ace63011e00f9e87",tooltip=" "];
  Node1 -> Node6 [color="midnightblue",fontsize="10",style="solid",fontname="Helvetica"];
  Node6 [label="mu::Parser::ASinh",height=0.2,width=0.4,color="black", fillcolor="white", style="filled",URL="$classmu_1_1Parser.html#a9021e2d4ba8e3a9f5b22a2f6f4732aae",tooltip=" "];
  Node1 -> Node7 [color="midnightblue",fontsize="10",style="solid",fontname="Helvetica"];
  Node7 [label="mu::Parser::ATan",height=0.2,width=0.4,color="black", fillcolor="white", style="filled",URL="$classmu_1_1Parser.html#a5f1f4d3d847fce0f07bb0c1dad15dab8",tooltip=" "];
  Node1 -> Node8 [color="midnightblue",fontsize="10",style="solid",fontname="Helvetica"];
  Node8 [label="mu::Parser::ATan2",height=0.2,width=0.4,color="black", fillcolor="white", style="filled",URL="$classmu_1_1Parser.html#a3d918fadda6d0286960fdb4deb48e8ea",tooltip=" "];
  Node1 -> Node9 [color="midnightblue",fontsize="10",style="solid",fontname="Helvetica"];
  Node9 [label="mu::Parser::ATanh",height=0.2,width=0.4,color="black", fillcolor="white", style="filled",URL="$classmu_1_1Parser.html#a4ce1a58460631732b81598ba3a609a85",tooltip=" "];
  Node1 -> Node10 [color="midnightblue",fontsize="10",style="solid",fontname="Helvetica"];
  Node10 [label="mu::Parser::Avg",height=0.2,width=0.4,color="black", fillcolor="white", style="filled",URL="$classmu_1_1Parser.html#a77643bd7509ba6e1bc67357b89e90b4e",tooltip="Callback for averaging multiple values."];
  Node1 -> Node11 [color="midnightblue",fontsize="10",style="solid",fontname="Helvetica"];
  Node11 [label="mu::Parser::Cos",height=0.2,width=0.4,color="black", fillcolor="white", style="filled",URL="$classmu_1_1Parser.html#a6d34c6c1abb14176ae968b193de0dca0",tooltip=" "];
  Node1 -> Node12 [color="midnightblue",fontsize="10",style="solid",fontname="Helvetica"];
  Node12 [label="mu::Parser::Cosh",height=0.2,width=0.4,color="black", fillcolor="white", style="filled",URL="$classmu_1_1Parser.html#a704685ab4dc632b7de11818e34604cbf",tooltip=" "];
  Node1 -> Node13 [color="midnightblue",fontsize="10",style="solid",fontname="Helvetica"];
  Node13 [label="mu::ParserBase::DefineFun",height=0.2,width=0.4,color="black", fillcolor="white", style="filled",URL="$classmu_1_1ParserBase.html#a19bff73a29e12bb1af90793ceb258059",tooltip="Define a parser function without arguments."];
  Node1 -> Node14 [color="midnightblue",fontsize="10",style="solid",fontname="Helvetica"];
  Node14 [label="mu::Parser::Exp",height=0.2,width=0.4,color="black", fillcolor="white", style="filled",URL="$classmu_1_1Parser.html#a3b4233e7a37d9b9da0de02e5efb026f9",tooltip=" "];
  Node1 -> Node15 [color="midnightblue",fontsize="10",style="solid",fontname="Helvetica"];
  Node15 [label="mu::Parser::Ln",height=0.2,width=0.4,color="black", fillcolor="white", style="filled",URL="$classmu_1_1Parser.html#af3ddf43c4e0a50661d2e5c7a08f6573e",tooltip=" "];
  Node1 -> Node16 [color="midnightblue",fontsize="10",style="solid",fontname="Helvetica"];
  Node16 [label="mu::Parser::Log10",height=0.2,width=0.4,color="black", fillcolor="white", style="filled",URL="$classmu_1_1Parser.html#adcc6ff400d5d3db54c9c8f7fa7fab662",tooltip=" "];
  Node1 -> Node17 [color="midnightblue",fontsize="10",style="solid",fontname="Helvetica"];
  Node17 [label="mu::Parser::Log2",height=0.2,width=0.4,color="black", fillcolor="white", style="filled",URL="$classmu_1_1Parser.html#a2b05894f3ecec088da432fce91e8d1e2",tooltip=" "];
  Node1 -> Node18 [color="midnightblue",fontsize="10",style="solid",fontname="Helvetica"];
  Node18 [label="mu::Parser::Max",height=0.2,width=0.4,color="black", fillcolor="white", style="filled",URL="$classmu_1_1Parser.html#ac396955a9fb9c60ef9c6d8276504f03a",tooltip="Callback for determining the maximum value out of a vector."];
  Node1 -> Node19 [color="midnightblue",fontsize="10",style="solid",fontname="Helvetica"];
  Node19 [label="mu::Parser::Min",height=0.2,width=0.4,color="black", fillcolor="white", style="filled",URL="$classmu_1_1Parser.html#a806abd5be29fd98c6cf1e7bf1a88a606",tooltip="Callback for determining the minimum value out of a vector."];
  Node1 -> Node20 [color="midnightblue",fontsize="10",style="solid",fontname="Helvetica"];
  Node20 [label="mu::Parser::Rint",height=0.2,width=0.4,color="black", fillcolor="white", style="filled",URL="$classmu_1_1Parser.html#a51134e691339d1f0eba2ef1401af9627",tooltip=" "];
  Node1 -> Node21 [color="midnightblue",fontsize="10",style="solid",fontname="Helvetica"];
  Node21 [label="mu::Parser::Sign",height=0.2,width=0.4,color="black", fillcolor="white", style="filled",URL="$classmu_1_1Parser.html#a5e40197030815bec2ed18e2515e2c4b5",tooltip=" "];
  Node1 -> Node22 [color="midnightblue",fontsize="10",style="solid",fontname="Helvetica"];
  Node22 [label="mu::Parser::Sin",height=0.2,width=0.4,color="black", fillcolor="white", style="filled",URL="$classmu_1_1Parser.html#ae27b3c432464fb3a8ca29f5984b71736",tooltip=" "];
  Node1 -> Node23 [color="midnightblue",fontsize="10",style="solid",fontname="Helvetica"];
  Node23 [label="mu::Parser::Sinh",height=0.2,width=0.4,color="black", fillcolor="white", style="filled",URL="$classmu_1_1Parser.html#a9d639b1e388f3ebd4cb72091b1b7c2f7",tooltip=" "];
  Node1 -> Node24 [color="midnightblue",fontsize="10",style="solid",fontname="Helvetica"];
  Node24 [label="mu::Parser::Sqrt",height=0.2,width=0.4,color="black", fillcolor="white", style="filled",URL="$classmu_1_1Parser.html#a1c3274e9af9301c6cd2fcd2899cf8d0f",tooltip=" "];
  Node1 -> Node25 [color="midnightblue",fontsize="10",style="solid",fontname="Helvetica"];
  Node25 [label="mu::Parser::Sum",height=0.2,width=0.4,color="black", fillcolor="white", style="filled",URL="$classmu_1_1Parser.html#aee609940958bf761b4df615576e98d0a",tooltip="Callback for adding multiple values."];
  Node1 -> Node26 [color="midnightblue",fontsize="10",style="solid",fontname="Helvetica"];
  Node26 [label="mu::Parser::Tan",height=0.2,width=0.4,color="black", fillcolor="white", style="filled",URL="$classmu_1_1Parser.html#a71537707d5ed53a40197c845f279cec3",tooltip=" "];
  Node1 -> Node27 [color="midnightblue",fontsize="10",style="solid",fontname="Helvetica"];
  Node27 [label="mu::Parser::Tanh",height=0.2,width=0.4,color="black", fillcolor="white", style="filled",URL="$classmu_1_1Parser.html#af5d01f61fd26b4b0be5f75458d53b638",tooltip=" "];
}
