digraph "mu::ParserTokenReader::IsInfixOpTok"
{
 // LATEX_PDF_SIZE
  edge [fontname="Helvetica",fontsize="10",labelfontname="Helvetica",labelfontsize="10"];
  node [fontname="Helvetica",fontsize="10",shape=record];
  rankdir="LR";
  Node1 [label="mu::ParserTokenReader\l::IsInfixOpTok",height=0.2,width=0.4,color="black", fillcolor="grey75", style="filled", fontcolor="black",tooltip="Check if a string position contains a unary infix operator."];
  Node1 -> Node2 [color="midnightblue",fontsize="10",style="solid",fontname="Helvetica"];
  Node2 [label="mu::ParserTokenReader\l::Error",height=0.2,width=0.4,color="black", fillcolor="white", style="filled",URL="$classmu_1_1ParserTokenReader.html#a619b988a00572242b5791d0d38e7c0fe",tooltip="Create an error containing the parse error position."];
  Node2 -> Node3 [color="midnightblue",fontsize="10",style="solid",fontname="Helvetica"];
  Node3 [label="mu::ParserBase::Error",height=0.2,width=0.4,color="black", fillcolor="white", style="filled",URL="$classmu_1_1ParserBase.html#a408fec52d58680b74beee84ed9ca7c9c",tooltip="Create an error containing the parse error position."];
  Node1 -> Node4 [color="midnightblue",fontsize="10",style="solid",fontname="Helvetica"];
  Node4 [label="mu::ParserTokenReader\l::ExtractToken",height=0.2,width=0.4,color="black", fillcolor="white", style="filled",URL="$classmu_1_1ParserTokenReader.html#a560b070089df4ebc1b56e349c76b4b41",tooltip="Extract all characters that belong to a certain charset."];
  Node1 -> Node5 [color="midnightblue",fontsize="10",style="solid",fontname="Helvetica"];
  Node5 [label="mu::ParserToken::GetAsString",height=0.2,width=0.4,color="black", fillcolor="white", style="filled",URL="$classmu_1_1ParserToken.html#a6f303a8ea27ca8a38e84589d46d074e7",tooltip="Return the token identifier."];
  Node1 -> Node6 [color="midnightblue",fontsize="10",style="solid",fontname="Helvetica"];
  Node6 [label="it",height=0.2,width=0.4,color="black", fillcolor="white", style="filled",URL="$run_2readme_8txt.html#a00c941c0b3a058943426f27355541739",tooltip=" "];
  Node1 -> Node7 [color="midnightblue",fontsize="10",style="solid",fontname="Helvetica"];
  Node7 [label="mu::ParserToken::Set",height=0.2,width=0.4,color="black", fillcolor="white", style="filled",URL="$classmu_1_1ParserToken.html#ac4588ba38ccc660686956f7998ba74dc",tooltip="Assign a token type."];
  Node1 -> Node8 [color="midnightblue",fontsize="10",style="solid",fontname="Helvetica"];
  Node8 [label="mu::ParserBase::ValidInfix\lOprtChars",height=0.2,width=0.4,color="black", fillcolor="white", style="filled",URL="$classmu_1_1ParserBase.html#a07d5ceb535e963f4fda5e3890759373d",tooltip="Virtual function that defines the characters allowed in infix operator definitions."];
}
