digraph "UaVariant::setInt32"
{
 // LATEX_PDF_SIZE
  edge [fontname="Helvetica",fontsize="10",labelfontname="Helvetica",labelfontsize="10"];
  node [fontname="Helvetica",fontsize="10",shape=record];
  rankdir="LR";
  Node1 [label="UaVariant::setInt32",height=0.2,width=0.4,color="black", fillcolor="grey75", style="filled", fontcolor="black",tooltip=" "];
  Node1 -> Node2 [color="midnightblue",fontsize="10",style="solid",fontname="Helvetica"];
  Node2 [label="UaVariant::reuseOrRealloc",height=0.2,width=0.4,color="black", fillcolor="white", style="filled",URL="$classUaVariant.html#a1fc6436691fbdbe32b5f06605a32ed24",tooltip="Will assign a supplied newValue to the variant's value. If possible (matching old/new types) a reallo..."];
  Node2 -> Node3 [color="midnightblue",fontsize="10",style="solid",fontname="Helvetica"];
  Node3 [label="UA_copy",height=0.2,width=0.4,color="black", fillcolor="white", style="filled",URL="$generatedSources_2open62541_8h.html#aa2902fbc211543d7635bd99e5696dad0",tooltip=" "];
}
