digraph "UaObject"
{
 // LATEX_PDF_SIZE
  edge [fontname="Helvetica",fontsize="10",labelfontname="Helvetica",labelfontsize="10"];
  node [fontname="Helvetica",fontsize="10",shape=record];
  rankdir="LR";
  Node1 [label="UaObject",height=0.2,width=0.4,color="black", fillcolor="grey75", style="filled", fontcolor="black",tooltip=" "];
  Node2 -> Node1 [dir="back",color="midnightblue",fontsize="10",style="solid",fontname="Helvetica"];
  Node2 [label="UaNode",height=0.2,width=0.4,color="black", fillcolor="white", style="filled",URL="$classUaNode.html",tooltip=" "];
  Node1 -> Node3 [dir="back",color="midnightblue",fontsize="10",style="solid",fontname="Helvetica"];
  Node3 [label="OpcUa::BaseObjectType",height=0.2,width=0.4,color="black", fillcolor="white", style="filled",URL="$classOpcUa_1_1BaseObjectType.html",tooltip=" "];
  Node3 -> Node4 [dir="back",color="midnightblue",fontsize="10",style="solid",fontname="Helvetica"];
  Node4 [label="AddressSpace::ASBuildInformation",height=0.2,width=0.4,color="black", fillcolor="white", style="filled",URL="$classAddressSpace_1_1ASBuildInformation.html",tooltip="Fully auto-generated class to represent BuildInformation in the OPC UA AddressSpace."];
  Node3 -> Node5 [dir="back",color="midnightblue",fontsize="10",style="solid",fontname="Helvetica"];
  Node5 [label="AddressSpace::ASChannel",height=0.2,width=0.4,color="black", fillcolor="white", style="filled",URL="$classAddressSpace_1_1ASChannel.html",tooltip="Fully auto-generated class to represent Channel in the OPC UA AddressSpace."];
  Node3 -> Node6 [dir="back",color="midnightblue",fontsize="10",style="solid",fontname="Helvetica"];
  Node6 [label="AddressSpace::ASComponent\lLogLevel",height=0.2,width=0.4,color="black", fillcolor="white", style="filled",URL="$classAddressSpace_1_1ASComponentLogLevel.html",tooltip="Fully auto-generated class to represent ComponentLogLevel in the OPC UA AddressSpace."];
  Node3 -> Node7 [dir="back",color="midnightblue",fontsize="10",style="solid",fontname="Helvetica"];
  Node7 [label="AddressSpace::ASComponent\lLogLevels",height=0.2,width=0.4,color="black", fillcolor="white", style="filled",URL="$classAddressSpace_1_1ASComponentLogLevels.html",tooltip=" "];
  Node3 -> Node8 [dir="back",color="midnightblue",fontsize="10",style="solid",fontname="Helvetica"];
  Node8 [label="AddressSpace::ASGeneralLog\lLevel",height=0.2,width=0.4,color="black", fillcolor="white", style="filled",URL="$classAddressSpace_1_1ASGeneralLogLevel.html",tooltip="Fully auto-generated class to represent GeneralLogLevel in the OPC UA AddressSpace."];
  Node3 -> Node9 [dir="back",color="midnightblue",fontsize="10",style="solid",fontname="Helvetica"];
  Node9 [label="AddressSpace::ASLog",height=0.2,width=0.4,color="black", fillcolor="white", style="filled",URL="$classAddressSpace_1_1ASLog.html",tooltip=" "];
  Node3 -> Node10 [dir="back",color="midnightblue",fontsize="10",style="solid",fontname="Helvetica"];
  Node10 [label="AddressSpace::ASLxiAbstraction",height=0.2,width=0.4,color="black", fillcolor="white", style="filled",URL="$classAddressSpace_1_1ASLxiAbstraction.html",tooltip="Fully auto-generated class to represent LxiAbstraction in the OPC UA AddressSpace."];
  Node3 -> Node11 [dir="back",color="midnightblue",fontsize="10",style="solid",fontname="Helvetica"];
  Node11 [label="AddressSpace::ASLxiCommand",height=0.2,width=0.4,color="black", fillcolor="white", style="filled",URL="$classAddressSpace_1_1ASLxiCommand.html",tooltip="Fully auto-generated class to represent LxiCommand in the OPC UA AddressSpace."];
  Node3 -> Node12 [dir="back",color="midnightblue",fontsize="10",style="solid",fontname="Helvetica"];
  Node12 [label="AddressSpace::ASPowerSupply",height=0.2,width=0.4,color="black", fillcolor="white", style="filled",URL="$classAddressSpace_1_1ASPowerSupply.html",tooltip="Fully auto-generated class to represent PowerSupply in the OPC UA AddressSpace."];
  Node3 -> Node13 [dir="back",color="midnightblue",fontsize="10",style="solid",fontname="Helvetica"];
  Node13 [label="AddressSpace::ASQuasar",height=0.2,width=0.4,color="black", fillcolor="white", style="filled",URL="$classAddressSpace_1_1ASQuasar.html",tooltip="Fully auto-generated class to represent Quasar in the OPC UA AddressSpace."];
  Node3 -> Node14 [dir="back",color="midnightblue",fontsize="10",style="solid",fontname="Helvetica"];
  Node14 [label="AddressSpace::ASServer",height=0.2,width=0.4,color="black", fillcolor="white", style="filled",URL="$classAddressSpace_1_1ASServer.html",tooltip="Fully auto-generated class to represent Server in the OPC UA AddressSpace."];
  Node3 -> Node15 [dir="back",color="midnightblue",fontsize="10",style="solid",fontname="Helvetica"];
  Node15 [label="AddressSpace::ASSourceVariable\lThreadPool",height=0.2,width=0.4,color="black", fillcolor="white", style="filled",URL="$classAddressSpace_1_1ASSourceVariableThreadPool.html",tooltip="Fully auto-generated class to represent SourceVariableThreadPool in the OPC UA AddressSpace."];
  Node3 -> Node16 [dir="back",color="midnightblue",fontsize="10",style="solid",fontname="Helvetica"];
  Node16 [label="AddressSpace::ASStandard\lMetaData",height=0.2,width=0.4,color="black", fillcolor="white", style="filled",URL="$classAddressSpace_1_1ASStandardMetaData.html",tooltip="Fully auto-generated class to represent StandardMetaData in the OPC UA AddressSpace."];
  Node3 -> Node17 [dir="back",color="midnightblue",fontsize="10",style="solid",fontname="Helvetica"];
  Node17 [label="AddressSpace::ASStatusCh",height=0.2,width=0.4,color="black", fillcolor="white", style="filled",URL="$classAddressSpace_1_1ASStatusCh.html",tooltip="Fully auto-generated class to represent StatusCh in the OPC UA AddressSpace."];
  Node3 -> Node18 [dir="back",color="midnightblue",fontsize="10",style="solid",fontname="Helvetica"];
  Node18 [label="AddressSpace::ASStatusPs",height=0.2,width=0.4,color="black", fillcolor="white", style="filled",URL="$classAddressSpace_1_1ASStatusPs.html",tooltip="Fully auto-generated class to represent StatusPs in the OPC UA AddressSpace."];
}
