digraph "mu::ParserBase::ApplyFunc"
{
 // LATEX_PDF_SIZE
  edge [fontname="Helvetica",fontsize="10",labelfontname="Helvetica",labelfontsize="10"];
  node [fontname="Helvetica",fontsize="10",shape=record];
  rankdir="LR";
  Node1 [label="mu::ParserBase::ApplyFunc",height=0.2,width=0.4,color="black", fillcolor="grey75", style="filled", fontcolor="black",tooltip="Apply a function token."];
  Node1 -> Node2 [color="midnightblue",fontsize="10",style="solid",fontname="Helvetica"];
  Node2 [label="mu::ParserByteCode\l::AddBulkFun",height=0.2,width=0.4,color="black", fillcolor="white", style="filled",URL="$classmu_1_1ParserByteCode.html#a91e2de996576ca0b75cca98e3c383a24",tooltip="Add a bulk function to bytecode."];
  Node1 -> Node3 [color="midnightblue",fontsize="10",style="solid",fontname="Helvetica"];
  Node3 [label="mu::ParserByteCode\l::AddFun",height=0.2,width=0.4,color="black", fillcolor="white", style="filled",URL="$classmu_1_1ParserByteCode.html#a57c6b293b779228f389dcedeff6262f6",tooltip="Add function to bytecode."];
  Node1 -> Node4 [color="midnightblue",fontsize="10",style="solid",fontname="Helvetica"];
  Node4 [label="mu::ParserBase::ApplyStrFunc",height=0.2,width=0.4,color="black", fillcolor="white", style="filled",URL="$classmu_1_1ParserBase.html#abcbc1790fbc3ad3a5a3316b667bbc738",tooltip="Execute a function that takes a single string argument."];
  Node4 -> Node5 [color="midnightblue",fontsize="10",style="solid",fontname="Helvetica"];
  Node5 [label="mu::ParserByteCode\l::AddStrFun",height=0.2,width=0.4,color="black", fillcolor="white", style="filled",URL="$classmu_1_1ParserByteCode.html#a0118e777231376e8db0af4b001c8830c",tooltip="Add Strung function entry to the parser bytecode."];
  Node4 -> Node6 [color="midnightblue",fontsize="10",style="solid",fontname="Helvetica"];
  Node6 [label="mu::ParserBase::Error",height=0.2,width=0.4,color="black", fillcolor="white", style="filled",URL="$classmu_1_1ParserBase.html#a408fec52d58680b74beee84ed9ca7c9c",tooltip="Create an error containing the parse error position."];
  Node4 -> Node7 [color="midnightblue",fontsize="10",style="solid",fontname="Helvetica"];
  Node7 [label="mu::ParserToken::GetArgCount",height=0.2,width=0.4,color="black", fillcolor="white", style="filled",URL="$classmu_1_1ParserToken.html#a8a90a994f3285d45a29f5a27635264f8",tooltip="Return the number of function arguments."];
  Node4 -> Node8 [color="midnightblue",fontsize="10",style="solid",fontname="Helvetica"];
  Node8 [label="mu::ParserToken::GetAsString",height=0.2,width=0.4,color="black", fillcolor="white", style="filled",URL="$classmu_1_1ParserToken.html#a6f303a8ea27ca8a38e84589d46d074e7",tooltip="Return the token identifier."];
  Node4 -> Node9 [color="midnightblue",fontsize="10",style="solid",fontname="Helvetica"];
  Node9 [label="mu::ParserToken::GetFuncAddr",height=0.2,width=0.4,color="black", fillcolor="white", style="filled",URL="$classmu_1_1ParserToken.html#a8e4ae592585b83470d2f89363ac2a0f0",tooltip="Return the address of the callback function assoziated with function and operator tokens."];
  Node4 -> Node10 [color="midnightblue",fontsize="10",style="solid",fontname="Helvetica"];
  Node10 [label="mu::ParserToken::SetVal",height=0.2,width=0.4,color="black", fillcolor="white", style="filled",URL="$classmu_1_1ParserToken.html#a68d4974b234ee9f109ef466cd04e1501",tooltip="Make this token a value token."];
  Node1 -> Node11 [color="midnightblue",fontsize="10",style="solid",fontname="Helvetica"];
  Node11 [label="mu::ParserStack::empty",height=0.2,width=0.4,color="black", fillcolor="white", style="filled",URL="$classmu_1_1ParserStack.html#af402f5b7b4653dbbe19758904ac40532",tooltip="Returns true if stack is empty false otherwise."];
  Node1 -> Node6 [color="midnightblue",fontsize="10",style="solid",fontname="Helvetica"];
  Node1 -> Node7 [color="midnightblue",fontsize="10",style="solid",fontname="Helvetica"];
  Node1 -> Node8 [color="midnightblue",fontsize="10",style="solid",fontname="Helvetica"];
  Node1 -> Node12 [color="midnightblue",fontsize="10",style="solid",fontname="Helvetica"];
  Node12 [label="mu::ParserToken::GetCode",height=0.2,width=0.4,color="black", fillcolor="white", style="filled",URL="$classmu_1_1ParserToken.html#a11784bdd95e766f4b9691b5b3cd36ab4",tooltip="Return the token type."];
  Node1 -> Node9 [color="midnightblue",fontsize="10",style="solid",fontname="Helvetica"];
  Node1 -> Node13 [color="midnightblue",fontsize="10",style="solid",fontname="Helvetica"];
  Node13 [label="mu::ParserToken::GetType",height=0.2,width=0.4,color="black", fillcolor="white", style="filled",URL="$classmu_1_1ParserToken.html#ab64436d71016619cec2ed971201f1bb7",tooltip=" "];
  Node1 -> Node14 [color="midnightblue",fontsize="10",style="solid",fontname="Helvetica"];
  Node14 [label="mu::ParserStack::pop",height=0.2,width=0.4,color="black", fillcolor="white", style="filled",URL="$classmu_1_1ParserStack.html#ad00f833ee3f30d901fa18e714105c381",tooltip="Pop a value from the stack."];
  Node14 -> Node11 [color="midnightblue",fontsize="10",style="solid",fontname="Helvetica"];
  Node14 -> Node15 [color="midnightblue",fontsize="10",style="solid",fontname="Helvetica"];
  Node15 [label="mu::ParserStack::top",height=0.2,width=0.4,color="black", fillcolor="white", style="filled",URL="$classmu_1_1ParserStack.html#aba3a499ebaae388c27bfb81883cba7fd",tooltip="Return reference to the top object in the stack."];
  Node1 -> Node16 [color="midnightblue",fontsize="10",style="solid",fontname="Helvetica"];
  Node16 [label="mu::ParserStack::push",height=0.2,width=0.4,color="black", fillcolor="white", style="filled",URL="$classmu_1_1ParserStack.html#a38ae431c967a6607aace9dfd4ae4cc5f",tooltip="Push an object into the stack."];
  Node1 -> Node15 [color="midnightblue",fontsize="10",style="solid",fontname="Helvetica"];
}
