digraph "QuasarServer::initializeLogIt"
{
 // LATEX_PDF_SIZE
  edge [fontname="Helvetica",fontsize="10",labelfontname="Helvetica",labelfontsize="10"];
  node [fontname="Helvetica",fontsize="10",shape=record];
  rankdir="LR";
  Node1 [label="QuasarServer::initialize\lLogIt",height=0.2,width=0.4,color="black", fillcolor="grey75", style="filled", fontcolor="black",tooltip=" "];
  Node1 -> Node2 [color="midnightblue",fontsize="10",style="solid",fontname="Helvetica"];
  Node2 [label="BaseQuasarServer::initialize\lLogIt",height=0.2,width=0.4,color="black", fillcolor="white", style="filled",URL="$classBaseQuasarServer.html#aaa17cc90ae48046edb3bce213f725a17",tooltip=" "];
  Node2 -> Node3 [color="midnightblue",fontsize="10",style="solid",fontname="Helvetica"];
  Node3 [label="Log::initializeLogging",height=0.2,width=0.4,color="black", fillcolor="white", style="filled",URL="$namespaceLog.html#a4d7c05dd8f84e00e19c7e6edd2ab00f2",tooltip=" "];
  Node3 -> Node4 [color="midnightblue",fontsize="10",style="solid",fontname="Helvetica"];
  Node4 [label="LogItInstance::createInstance",height=0.2,width=0.4,color="black", fillcolor="white", style="filled",URL="$classLogItInstance.html#a441675aa6d7c42aa11d7cbab47c8e980",tooltip=" "];
  Node4 -> Node5 [color="midnightblue",fontsize="10",style="solid",fontname="Helvetica"];
  Node5 [label="LogItInstance::getInstance",height=0.2,width=0.4,color="black", fillcolor="white", style="filled",URL="$classLogItInstance.html#a0ebda6bc0c87a627369e43cef819c1be",tooltip=" "];
  Node4 -> Node6 [color="midnightblue",fontsize="10",style="solid",fontname="Helvetica"];
  Node6 [label="LogItInstance::instanceExists",height=0.2,width=0.4,color="black", fillcolor="white", style="filled",URL="$classLogItInstance.html#ad40785587e1f93f227f6a559504a3b77",tooltip=" "];
  Node4 -> Node7 [color="midnightblue",fontsize="10",style="solid",fontname="Helvetica"];
  Node7 [label="LogItInstance::LogItInstance",height=0.2,width=0.4,color="black", fillcolor="white", style="filled",URL="$classLogItInstance.html#a3d39fe6b9fc43c03c53f2ae66b64c3cd",tooltip=" "];
  Node3 -> Node8 [color="midnightblue",fontsize="10",style="solid",fontname="Helvetica"];
  Node8 [label="initializeSinks",height=0.2,width=0.4,color="black", fillcolor="white", style="filled",URL="$LogIt_8cpp.html#af5478d023babd6566bbc0a44bcee6832",tooltip=" "];
  Node8 -> Node9 [color="midnightblue",fontsize="10",style="solid",fontname="Helvetica"];
  Node9 [label="LogSinks::addSink",height=0.2,width=0.4,color="black", fillcolor="white", style="filled",URL="$classLogSinks.html#afe1313e2db13ac2a18d3fadcd0278e86",tooltip=" "];
  Node8 -> Node5 [color="midnightblue",fontsize="10",style="solid",fontname="Helvetica"];
  Node8 -> Node10 [color="midnightblue",fontsize="10",style="solid",fontname="Helvetica"];
  Node10 [label="StdOutLog::initialize",height=0.2,width=0.4,color="black", fillcolor="white", style="filled",URL="$classStdOutLog.html#a2715c389fa82bbc0503f7f165fa9ae6f",tooltip=" "];
  Node8 -> Node11 [color="midnightblue",fontsize="10",style="solid",fontname="Helvetica"];
  Node11 [label="BoostRotatingFileLog\l::initialize",height=0.2,width=0.4,color="black", fillcolor="white", style="filled",URL="$classBoostRotatingFileLog.html#a3930699ef5bd8e7047fbb28665a151b5",tooltip=" "];
  Node11 -> Node12 [color="midnightblue",fontsize="10",style="solid",fontname="Helvetica"];
  Node12 [label="BoostRotatingFileLog\l::addFileSink",height=0.2,width=0.4,color="black", fillcolor="white", style="filled",URL="$classBoostRotatingFileLog.html#a54a2ef5279913f156b92cb68794ae156",tooltip=" "];
  Node12 -> Node13 [color="midnightblue",fontsize="10",style="solid",fontname="Helvetica"];
  Node13 [label="test1.get",height=0.2,width=0.4,color="black", fillcolor="white", style="filled",URL="$namespacetest1.html#a8ec1884586b2a47882700f1407a0685c",tooltip=" "];
  Node8 -> Node14 [color="midnightblue",fontsize="10",style="solid",fontname="Helvetica"];
  Node14 [label="UaTraceSink::initialize",height=0.2,width=0.4,color="black", fillcolor="white", style="filled",URL="$classUaTraceSink.html#a0f75cfe19327d9c1e6c485b4b7d4e22f",tooltip=" "];
  Node8 -> Node6 [color="midnightblue",fontsize="10",style="solid",fontname="Helvetica"];
  Node3 -> Node6 [color="midnightblue",fontsize="10",style="solid",fontname="Helvetica"];
  Node3 -> Node15 [color="midnightblue",fontsize="10",style="solid",fontname="Helvetica"];
  Node15 [label="Log::setNonComponentLogLevel",height=0.2,width=0.4,color="black", fillcolor="white", style="filled",URL="$namespaceLog.html#ac7b569a0e76ee87b2f2f18d6c2cd02dd",tooltip=" "];
  Node15 -> Node5 [color="midnightblue",fontsize="10",style="solid",fontname="Helvetica"];
  Node15 -> Node6 [color="midnightblue",fontsize="10",style="solid",fontname="Helvetica"];
  Node2 -> Node16 [color="midnightblue",fontsize="10",style="solid",fontname="Helvetica"];
  Node16 [label="Log::registerLoggingComponent",height=0.2,width=0.4,color="black", fillcolor="white", style="filled",URL="$namespaceLog.html#a32727fc21e54eb598648e6d80e34da94",tooltip=" "];
}
