digraph "Device::DStatusPs::update"
{
 // LATEX_PDF_SIZE
  edge [fontname="Helvetica",fontsize="10",labelfontname="Helvetica",labelfontsize="10"];
  node [fontname="Helvetica",fontsize="10",shape=record];
  rankdir="LR";
  Node1 [label="Device::DStatusPs::\lupdate",height=0.2,width=0.4,color="black", fillcolor="grey75", style="filled", fontcolor="black",tooltip=" "];
  Node1 -> Node2 [color="midnightblue",fontsize="10",style="solid",fontname="Helvetica"];
  Node2 [label="Device::Base_DStatusPs\l::getAddressSpaceLink",height=0.2,width=0.4,color="black", fillcolor="white", style="filled",URL="$classDevice_1_1Base__DStatusPs.html#a86af77995a97da2e29cb1dc25f255ae6",tooltip=" "];
  Node1 -> Node3 [color="midnightblue",fontsize="10",style="solid",fontname="Helvetica"];
  Node3 [label="UaDateTime::now",height=0.2,width=0.4,color="black", fillcolor="white", style="filled",URL="$classUaDateTime.html#aeb1126d54f7e87cc7255e0142754ad2d",tooltip=" "];
  Node3 -> Node4 [color="midnightblue",fontsize="10",style="solid",fontname="Helvetica"];
  Node4 [label="UA_DateTime_now",height=0.2,width=0.4,color="black", fillcolor="white", style="filled",URL="$generatedSources_2open62541_8h.html#ac3621608c00f0b270463227893cbac67",tooltip=" "];
  Node3 -> Node5 [color="midnightblue",fontsize="10",style="solid",fontname="Helvetica"];
  Node5 [label="UaDateTime::UaDateTime",height=0.2,width=0.4,color="black", fillcolor="white", style="filled",URL="$classUaDateTime.html#a7eb999cdcc4cfdeb36df7f9b243719ad",tooltip=" "];
  Node1 -> Node6 [color="midnightblue",fontsize="10",style="solid",fontname="Helvetica"];
  Node6 [label="AddressSpace::ASStatusPs\l::setSTATUS_PS_CC",height=0.2,width=0.4,color="black", fillcolor="white", style="filled",URL="$classAddressSpace_1_1ASStatusPs.html#ab917715b95684207e53f8275aab90925",tooltip=" "];
  Node6 -> Node3 [color="midnightblue",fontsize="10",style="solid",fontname="Helvetica"];
  Node6 -> Node7 [color="midnightblue",fontsize="10",style="solid",fontname="Helvetica"];
  Node7 [label="UaVariant::setBool",height=0.2,width=0.4,color="black", fillcolor="white", style="filled",URL="$classUaVariant.html#afa28ac0b2d36197b40ff6718f33f4e99",tooltip=" "];
  Node7 -> Node8 [color="midnightblue",fontsize="10",style="solid",fontname="Helvetica"];
  Node8 [label="UaVariant::reuseOrRealloc",height=0.2,width=0.4,color="black", fillcolor="white", style="filled",URL="$classUaVariant.html#a1fc6436691fbdbe32b5f06605a32ed24",tooltip="Will assign a supplied newValue to the variant's value. If possible (matching old/new types) a reallo..."];
  Node8 -> Node9 [color="midnightblue",fontsize="10",style="solid",fontname="Helvetica"];
  Node9 [label="UA_copy",height=0.2,width=0.4,color="black", fillcolor="white", style="filled",URL="$generatedSources_2open62541_8h.html#aa2902fbc211543d7635bd99e5696dad0",tooltip=" "];
  Node6 -> Node10 [color="midnightblue",fontsize="10",style="solid",fontname="Helvetica"];
  Node10 [label="AddressSpace::ChangeNotifying\lVariable::setValue",height=0.2,width=0.4,color="black", fillcolor="white", style="filled",URL="$classAddressSpace_1_1ChangeNotifyingVariable.html#aa436a3e924e19b9194f16a0cac0e8238",tooltip=" "];
  Node10 -> Node11 [color="midnightblue",fontsize="10",style="solid",fontname="Helvetica"];
  Node11 [label="OpcUa::BaseDataVariableType\l::setValue",height=0.2,width=0.4,color="black", fillcolor="white", style="filled",URL="$classOpcUa_1_1BaseDataVariableType.html#a3f6e23aef1123c8a6c0e4459fa68ddc6",tooltip=" "];
  Node1 -> Node12 [color="midnightblue",fontsize="10",style="solid",fontname="Helvetica"];
  Node12 [label="AddressSpace::ASStatusPs\l::setSTATUS_PS_CH_ON",height=0.2,width=0.4,color="black", fillcolor="white", style="filled",URL="$classAddressSpace_1_1ASStatusPs.html#a2987c8d56fb3648058eaaddacc7f2a06",tooltip=" "];
  Node12 -> Node3 [color="midnightblue",fontsize="10",style="solid",fontname="Helvetica"];
  Node12 -> Node7 [color="midnightblue",fontsize="10",style="solid",fontname="Helvetica"];
  Node12 -> Node10 [color="midnightblue",fontsize="10",style="solid",fontname="Helvetica"];
  Node1 -> Node13 [color="midnightblue",fontsize="10",style="solid",fontname="Helvetica"];
  Node13 [label="AddressSpace::ASStatusPs\l::setSTATUS_PS_NOC",height=0.2,width=0.4,color="black", fillcolor="white", style="filled",URL="$classAddressSpace_1_1ASStatusPs.html#a4d0fd420cdf576df3222e8dcdf02c7ef",tooltip=" "];
  Node13 -> Node3 [color="midnightblue",fontsize="10",style="solid",fontname="Helvetica"];
  Node13 -> Node7 [color="midnightblue",fontsize="10",style="solid",fontname="Helvetica"];
  Node13 -> Node10 [color="midnightblue",fontsize="10",style="solid",fontname="Helvetica"];
  Node1 -> Node14 [color="midnightblue",fontsize="10",style="solid",fontname="Helvetica"];
  Node14 [label="AddressSpace::ASStatusPs\l::setSTATUS_PS_OVCH",height=0.2,width=0.4,color="black", fillcolor="white", style="filled",URL="$classAddressSpace_1_1ASStatusPs.html#a0a05c563dd006f197c5ac944b1339462",tooltip=" "];
  Node14 -> Node3 [color="midnightblue",fontsize="10",style="solid",fontname="Helvetica"];
  Node14 -> Node7 [color="midnightblue",fontsize="10",style="solid",fontname="Helvetica"];
  Node14 -> Node10 [color="midnightblue",fontsize="10",style="solid",fontname="Helvetica"];
  Node1 -> Node15 [color="midnightblue",fontsize="10",style="solid",fontname="Helvetica"];
  Node15 [label="AddressSpace::ASStatusPs\l::setSTATUS_PS_OVCS",height=0.2,width=0.4,color="black", fillcolor="white", style="filled",URL="$classAddressSpace_1_1ASStatusPs.html#a8453df7fd48944ad5017654864ef5580",tooltip=" "];
  Node15 -> Node3 [color="midnightblue",fontsize="10",style="solid",fontname="Helvetica"];
  Node15 -> Node7 [color="midnightblue",fontsize="10",style="solid",fontname="Helvetica"];
  Node15 -> Node10 [color="midnightblue",fontsize="10",style="solid",fontname="Helvetica"];
  Node1 -> Node16 [color="midnightblue",fontsize="10",style="solid",fontname="Helvetica"];
  Node16 [label="AddressSpace::ASStatusPs\l::setSTATUS_PS_OVVH",height=0.2,width=0.4,color="black", fillcolor="white", style="filled",URL="$classAddressSpace_1_1ASStatusPs.html#ac5aeb22d1b45d4518ea0c05ba4519a20",tooltip=" "];
  Node16 -> Node3 [color="midnightblue",fontsize="10",style="solid",fontname="Helvetica"];
  Node16 -> Node7 [color="midnightblue",fontsize="10",style="solid",fontname="Helvetica"];
  Node16 -> Node10 [color="midnightblue",fontsize="10",style="solid",fontname="Helvetica"];
  Node1 -> Node17 [color="midnightblue",fontsize="10",style="solid",fontname="Helvetica"];
  Node17 [label="AddressSpace::ASStatusPs\l::setSTATUS_PS_OVVS",height=0.2,width=0.4,color="black", fillcolor="white", style="filled",URL="$classAddressSpace_1_1ASStatusPs.html#a99802dd619c6da2307b2c9266cdf5bb2",tooltip=" "];
  Node17 -> Node3 [color="midnightblue",fontsize="10",style="solid",fontname="Helvetica"];
  Node17 -> Node7 [color="midnightblue",fontsize="10",style="solid",fontname="Helvetica"];
  Node17 -> Node10 [color="midnightblue",fontsize="10",style="solid",fontname="Helvetica"];
  Node1 -> Node18 [color="midnightblue",fontsize="10",style="solid",fontname="Helvetica"];
  Node18 [label="AddressSpace::ASStatusPs\l::setSTATUS_PS_RESET_ACK",height=0.2,width=0.4,color="black", fillcolor="white", style="filled",URL="$classAddressSpace_1_1ASStatusPs.html#a75b3d8fc88f8c72f384ef249270a9e69",tooltip=" "];
  Node18 -> Node3 [color="midnightblue",fontsize="10",style="solid",fontname="Helvetica"];
  Node18 -> Node7 [color="midnightblue",fontsize="10",style="solid",fontname="Helvetica"];
  Node18 -> Node10 [color="midnightblue",fontsize="10",style="solid",fontname="Helvetica"];
  Node1 -> Node19 [color="midnightblue",fontsize="10",style="solid",fontname="Helvetica"];
  Node19 [label="AddressSpace::ASStatusPs\l::setSTATUS_PS_RESET_SUCCESS",height=0.2,width=0.4,color="black", fillcolor="white", style="filled",URL="$classAddressSpace_1_1ASStatusPs.html#af80d6ef1781da13576d8d713d8900313",tooltip=" "];
  Node19 -> Node3 [color="midnightblue",fontsize="10",style="solid",fontname="Helvetica"];
  Node19 -> Node7 [color="midnightblue",fontsize="10",style="solid",fontname="Helvetica"];
  Node19 -> Node10 [color="midnightblue",fontsize="10",style="solid",fontname="Helvetica"];
  Node1 -> Node20 [color="midnightblue",fontsize="10",style="solid",fontname="Helvetica"];
  Node20 [label="AddressSpace::ASStatusPs\l::setSTATUS_PS_TRIP",height=0.2,width=0.4,color="black", fillcolor="white", style="filled",URL="$classAddressSpace_1_1ASStatusPs.html#ae5ec959e997a6b0bf1e771d589427b71",tooltip=" "];
  Node20 -> Node3 [color="midnightblue",fontsize="10",style="solid",fontname="Helvetica"];
  Node20 -> Node7 [color="midnightblue",fontsize="10",style="solid",fontname="Helvetica"];
  Node20 -> Node10 [color="midnightblue",fontsize="10",style="solid",fontname="Helvetica"];
  Node1 -> Node21 [color="midnightblue",fontsize="10",style="solid",fontname="Helvetica"];
  Node21 [label="AddressSpace::ASStatusPs\l::setSTATUS_PS_TRIPC",height=0.2,width=0.4,color="black", fillcolor="white", style="filled",URL="$classAddressSpace_1_1ASStatusPs.html#a251af63c5388731b726523458762a293",tooltip=" "];
  Node21 -> Node3 [color="midnightblue",fontsize="10",style="solid",fontname="Helvetica"];
  Node21 -> Node7 [color="midnightblue",fontsize="10",style="solid",fontname="Helvetica"];
  Node21 -> Node10 [color="midnightblue",fontsize="10",style="solid",fontname="Helvetica"];
  Node1 -> Node22 [color="midnightblue",fontsize="10",style="solid",fontname="Helvetica"];
  Node22 [label="AddressSpace::ASStatusPs\l::setSTATUS_PS_TRIPV",height=0.2,width=0.4,color="black", fillcolor="white", style="filled",URL="$classAddressSpace_1_1ASStatusPs.html#a4279868ed3228eb1bed95cd31f668734",tooltip=" "];
  Node22 -> Node3 [color="midnightblue",fontsize="10",style="solid",fontname="Helvetica"];
  Node22 -> Node7 [color="midnightblue",fontsize="10",style="solid",fontname="Helvetica"];
  Node22 -> Node10 [color="midnightblue",fontsize="10",style="solid",fontname="Helvetica"];
  Node1 -> Node23 [color="midnightblue",fontsize="10",style="solid",fontname="Helvetica"];
  Node23 [label="AddressSpace::ASStatusPs\l::setSTATUS_PS_UNV",height=0.2,width=0.4,color="black", fillcolor="white", style="filled",URL="$classAddressSpace_1_1ASStatusPs.html#a65aa96be247de1087410a46283bc4a4a",tooltip=" "];
  Node23 -> Node3 [color="midnightblue",fontsize="10",style="solid",fontname="Helvetica"];
  Node23 -> Node7 [color="midnightblue",fontsize="10",style="solid",fontname="Helvetica"];
  Node23 -> Node10 [color="midnightblue",fontsize="10",style="solid",fontname="Helvetica"];
}
