digraph "/home/mludwig/cernLocal/projects/opcua-lxi-master/generatedSources/Configuration.cxx"
{
 // LATEX_PDF_SIZE
  edge [fontname="Helvetica",fontsize="10",labelfontname="Helvetica",labelfontsize="10"];
  node [fontname="Helvetica",fontsize="10",shape=record];
  Node1 [label="/home/mludwig/cernLocal\l/projects/opcua-lxi-master\l/generatedSources/Configuration.cxx",height=0.2,width=0.4,color="black", fillcolor="grey75", style="filled", fontcolor="black",tooltip=" "];
  Node1 -> Node2 [color="midnightblue",fontsize="10",style="solid",fontname="Helvetica"];
  Node2 [label="xsd/cxx/pre.hxx",height=0.2,width=0.4,color="grey75", fillcolor="white", style="filled",tooltip=" "];
  Node1 -> Node3 [color="midnightblue",fontsize="10",style="solid",fontname="Helvetica"];
  Node3 [label="Configuration.hxx",height=0.2,width=0.4,color="red", fillcolor="white", style="filled",URL="$Configuration_8hxx.html",tooltip=" "];
  Node3 -> Node4 [color="midnightblue",fontsize="10",style="solid",fontname="Helvetica"];
  Node4 [label="xsd/cxx/config.hxx",height=0.2,width=0.4,color="grey75", fillcolor="white", style="filled",tooltip=" "];
  Node3 -> Node2 [color="midnightblue",fontsize="10",style="solid",fontname="Helvetica"];
  Node3 -> Node5 [color="midnightblue",fontsize="10",style="solid",fontname="Helvetica"];
  Node5 [label="xsd/cxx/xml/char-utf8.hxx",height=0.2,width=0.4,color="grey75", fillcolor="white", style="filled",tooltip=" "];
  Node3 -> Node6 [color="midnightblue",fontsize="10",style="solid",fontname="Helvetica"];
  Node6 [label="xsd/cxx/tree/exceptions.hxx",height=0.2,width=0.4,color="grey75", fillcolor="white", style="filled",tooltip=" "];
  Node3 -> Node7 [color="midnightblue",fontsize="10",style="solid",fontname="Helvetica"];
  Node7 [label="xsd/cxx/tree/elements.hxx",height=0.2,width=0.4,color="grey75", fillcolor="white", style="filled",tooltip=" "];
  Node3 -> Node8 [color="midnightblue",fontsize="10",style="solid",fontname="Helvetica"];
  Node8 [label="xsd/cxx/tree/types.hxx",height=0.2,width=0.4,color="grey75", fillcolor="white", style="filled",tooltip=" "];
  Node3 -> Node9 [color="midnightblue",fontsize="10",style="solid",fontname="Helvetica"];
  Node9 [label="xsd/cxx/xml/error-handler.hxx",height=0.2,width=0.4,color="grey75", fillcolor="white", style="filled",tooltip=" "];
  Node3 -> Node10 [color="midnightblue",fontsize="10",style="solid",fontname="Helvetica"];
  Node10 [label="xsd/cxx/xml/dom/auto\l-ptr.hxx",height=0.2,width=0.4,color="grey75", fillcolor="white", style="filled",tooltip=" "];
  Node3 -> Node11 [color="midnightblue",fontsize="10",style="solid",fontname="Helvetica"];
  Node11 [label="xsd/cxx/tree/parsing.hxx",height=0.2,width=0.4,color="grey75", fillcolor="white", style="filled",tooltip=" "];
  Node3 -> Node12 [color="midnightblue",fontsize="10",style="solid",fontname="Helvetica"];
  Node12 [label="xsd/cxx/tree/parsing\l/byte.hxx",height=0.2,width=0.4,color="grey75", fillcolor="white", style="filled",tooltip=" "];
  Node3 -> Node13 [color="midnightblue",fontsize="10",style="solid",fontname="Helvetica"];
  Node13 [label="xsd/cxx/tree/parsing\l/unsigned-byte.hxx",height=0.2,width=0.4,color="grey75", fillcolor="white", style="filled",tooltip=" "];
  Node3 -> Node14 [color="midnightblue",fontsize="10",style="solid",fontname="Helvetica"];
  Node14 [label="xsd/cxx/tree/parsing\l/short.hxx",height=0.2,width=0.4,color="grey75", fillcolor="white", style="filled",tooltip=" "];
  Node3 -> Node15 [color="midnightblue",fontsize="10",style="solid",fontname="Helvetica"];
  Node15 [label="xsd/cxx/tree/parsing\l/unsigned-short.hxx",height=0.2,width=0.4,color="grey75", fillcolor="white", style="filled",tooltip=" "];
  Node3 -> Node16 [color="midnightblue",fontsize="10",style="solid",fontname="Helvetica"];
  Node16 [label="xsd/cxx/tree/parsing\l/int.hxx",height=0.2,width=0.4,color="grey75", fillcolor="white", style="filled",tooltip=" "];
  Node3 -> Node17 [color="midnightblue",fontsize="10",style="solid",fontname="Helvetica"];
  Node17 [label="xsd/cxx/tree/parsing\l/unsigned-int.hxx",height=0.2,width=0.4,color="grey75", fillcolor="white", style="filled",tooltip=" "];
  Node3 -> Node18 [color="midnightblue",fontsize="10",style="solid",fontname="Helvetica"];
  Node18 [label="xsd/cxx/tree/parsing\l/long.hxx",height=0.2,width=0.4,color="grey75", fillcolor="white", style="filled",tooltip=" "];
  Node3 -> Node19 [color="midnightblue",fontsize="10",style="solid",fontname="Helvetica"];
  Node19 [label="xsd/cxx/tree/parsing\l/unsigned-long.hxx",height=0.2,width=0.4,color="grey75", fillcolor="white", style="filled",tooltip=" "];
  Node3 -> Node20 [color="midnightblue",fontsize="10",style="solid",fontname="Helvetica"];
  Node20 [label="xsd/cxx/tree/parsing\l/boolean.hxx",height=0.2,width=0.4,color="grey75", fillcolor="white", style="filled",tooltip=" "];
  Node3 -> Node21 [color="midnightblue",fontsize="10",style="solid",fontname="Helvetica"];
  Node21 [label="xsd/cxx/tree/parsing\l/float.hxx",height=0.2,width=0.4,color="grey75", fillcolor="white", style="filled",tooltip=" "];
  Node3 -> Node22 [color="midnightblue",fontsize="10",style="solid",fontname="Helvetica"];
  Node22 [label="xsd/cxx/tree/parsing\l/double.hxx",height=0.2,width=0.4,color="grey75", fillcolor="white", style="filled",tooltip=" "];
  Node3 -> Node23 [color="midnightblue",fontsize="10",style="solid",fontname="Helvetica"];
  Node23 [label="xsd/cxx/tree/parsing\l/decimal.hxx",height=0.2,width=0.4,color="grey75", fillcolor="white", style="filled",tooltip=" "];
  Node3 -> Node24 [color="midnightblue",fontsize="10",style="solid",fontname="Helvetica"];
  Node24 [label="xsd/cxx/xml/dom/serialization\l-header.hxx",height=0.2,width=0.4,color="grey75", fillcolor="white", style="filled",tooltip=" "];
  Node3 -> Node25 [color="midnightblue",fontsize="10",style="solid",fontname="Helvetica"];
  Node25 [label="xsd/cxx/tree/serialization.hxx",height=0.2,width=0.4,color="grey75", fillcolor="white", style="filled",tooltip=" "];
  Node3 -> Node26 [color="midnightblue",fontsize="10",style="solid",fontname="Helvetica"];
  Node26 [label="xsd/cxx/tree/serialization\l/byte.hxx",height=0.2,width=0.4,color="grey75", fillcolor="white", style="filled",tooltip=" "];
  Node3 -> Node27 [color="midnightblue",fontsize="10",style="solid",fontname="Helvetica"];
  Node27 [label="xsd/cxx/tree/serialization\l/unsigned-byte.hxx",height=0.2,width=0.4,color="grey75", fillcolor="white", style="filled",tooltip=" "];
  Node3 -> Node28 [color="midnightblue",fontsize="10",style="solid",fontname="Helvetica"];
  Node28 [label="xsd/cxx/tree/serialization\l/short.hxx",height=0.2,width=0.4,color="grey75", fillcolor="white", style="filled",tooltip=" "];
  Node3 -> Node29 [color="midnightblue",fontsize="10",style="solid",fontname="Helvetica"];
  Node29 [label="xsd/cxx/tree/serialization\l/unsigned-short.hxx",height=0.2,width=0.4,color="grey75", fillcolor="white", style="filled",tooltip=" "];
  Node3 -> Node30 [color="midnightblue",fontsize="10",style="solid",fontname="Helvetica"];
  Node30 [label="xsd/cxx/tree/serialization\l/int.hxx",height=0.2,width=0.4,color="grey75", fillcolor="white", style="filled",tooltip=" "];
  Node3 -> Node31 [color="midnightblue",fontsize="10",style="solid",fontname="Helvetica"];
  Node31 [label="xsd/cxx/tree/serialization\l/unsigned-int.hxx",height=0.2,width=0.4,color="grey75", fillcolor="white", style="filled",tooltip=" "];
  Node3 -> Node32 [color="midnightblue",fontsize="10",style="solid",fontname="Helvetica"];
  Node32 [label="xsd/cxx/tree/serialization\l/long.hxx",height=0.2,width=0.4,color="grey75", fillcolor="white", style="filled",tooltip=" "];
  Node3 -> Node33 [color="midnightblue",fontsize="10",style="solid",fontname="Helvetica"];
  Node33 [label="xsd/cxx/tree/serialization\l/unsigned-long.hxx",height=0.2,width=0.4,color="grey75", fillcolor="white", style="filled",tooltip=" "];
  Node3 -> Node34 [color="midnightblue",fontsize="10",style="solid",fontname="Helvetica"];
  Node34 [label="xsd/cxx/tree/serialization\l/boolean.hxx",height=0.2,width=0.4,color="grey75", fillcolor="white", style="filled",tooltip=" "];
  Node3 -> Node35 [color="midnightblue",fontsize="10",style="solid",fontname="Helvetica"];
  Node35 [label="xsd/cxx/tree/serialization\l/float.hxx",height=0.2,width=0.4,color="grey75", fillcolor="white", style="filled",tooltip=" "];
  Node3 -> Node36 [color="midnightblue",fontsize="10",style="solid",fontname="Helvetica"];
  Node36 [label="xsd/cxx/tree/serialization\l/double.hxx",height=0.2,width=0.4,color="grey75", fillcolor="white", style="filled",tooltip=" "];
  Node3 -> Node37 [color="midnightblue",fontsize="10",style="solid",fontname="Helvetica"];
  Node37 [label="xsd/cxx/tree/serialization\l/decimal.hxx",height=0.2,width=0.4,color="grey75", fillcolor="white", style="filled",tooltip=" "];
  Node3 -> Node38 [color="midnightblue",fontsize="10",style="solid",fontname="Helvetica"];
  Node38 [label="memory",height=0.2,width=0.4,color="grey75", fillcolor="white", style="filled",tooltip=" "];
  Node3 -> Node39 [color="midnightblue",fontsize="10",style="solid",fontname="Helvetica"];
  Node39 [label="limits",height=0.2,width=0.4,color="grey75", fillcolor="white", style="filled",tooltip=" "];
  Node3 -> Node40 [color="midnightblue",fontsize="10",style="solid",fontname="Helvetica"];
  Node40 [label="algorithm",height=0.2,width=0.4,color="grey75", fillcolor="white", style="filled",tooltip=" "];
  Node3 -> Node41 [color="midnightblue",fontsize="10",style="solid",fontname="Helvetica"];
  Node41 [label="utility",height=0.2,width=0.4,color="grey75", fillcolor="white", style="filled",tooltip=" "];
  Node3 -> Node42 [color="midnightblue",fontsize="10",style="solid",fontname="Helvetica"];
  Node42 [label="cstddef",height=0.2,width=0.4,color="grey75", fillcolor="white", style="filled",tooltip=" "];
  Node3 -> Node43 [color="midnightblue",fontsize="10",style="solid",fontname="Helvetica"];
  Node43 [label="vector",height=0.2,width=0.4,color="grey75", fillcolor="white", style="filled",tooltip=" "];
  Node3 -> Node52 [color="midnightblue",fontsize="10",style="solid",fontname="Helvetica"];
  Node52 [label="xsd/cxx/post.hxx",height=0.2,width=0.4,color="grey75", fillcolor="white", style="filled",tooltip=" "];
  Node1 -> Node53 [color="midnightblue",fontsize="10",style="solid",fontname="Helvetica"];
  Node53 [label="xsd/cxx/xml/dom/parsing\l-source.hxx",height=0.2,width=0.4,color="grey75", fillcolor="white", style="filled",tooltip=" "];
  Node1 -> Node54 [color="midnightblue",fontsize="10",style="solid",fontname="Helvetica"];
  Node54 [label="istream",height=0.2,width=0.4,color="grey75", fillcolor="white", style="filled",tooltip=" "];
  Node1 -> Node55 [color="midnightblue",fontsize="10",style="solid",fontname="Helvetica"];
  Node55 [label="xsd/cxx/xml/sax/std\l-input-source.hxx",height=0.2,width=0.4,color="grey75", fillcolor="white", style="filled",tooltip=" "];
  Node1 -> Node56 [color="midnightblue",fontsize="10",style="solid",fontname="Helvetica"];
  Node56 [label="xsd/cxx/tree/error\l-handler.hxx",height=0.2,width=0.4,color="grey75", fillcolor="white", style="filled",tooltip=" "];
  Node1 -> Node57 [color="midnightblue",fontsize="10",style="solid",fontname="Helvetica"];
  Node57 [label="ostream",height=0.2,width=0.4,color="grey75", fillcolor="white", style="filled",tooltip=" "];
  Node1 -> Node58 [color="midnightblue",fontsize="10",style="solid",fontname="Helvetica"];
  Node58 [label="xsd/cxx/xml/dom/serialization\l-source.hxx",height=0.2,width=0.4,color="grey75", fillcolor="white", style="filled",tooltip=" "];
  Node1 -> Node52 [color="midnightblue",fontsize="10",style="solid",fontname="Helvetica"];
}
