digraph "validatePowerSupply"
{
 // LATEX_PDF_SIZE
  edge [fontname="Helvetica",fontsize="10",labelfontname="Helvetica",labelfontsize="10"];
  node [fontname="Helvetica",fontsize="10",shape=record];
  rankdir="LR";
  Node1 [label="validatePowerSupply",height=0.2,width=0.4,color="black", fillcolor="grey75", style="filled", fontcolor="black",tooltip=" "];
  Node1 -> Node2 [color="midnightblue",fontsize="10",style="solid",fontname="Helvetica"];
  Node2 [label="validatePowerSupplyHasChannel",height=0.2,width=0.4,color="black", fillcolor="white", style="filled",URL="$ConfigValidator_8cpp.html#a5d52fa211f6042608daa678f4fd796bf",tooltip=" "];
  Node2 -> Node3 [color="midnightblue",fontsize="10",style="solid",fontname="Helvetica"];
  Node3 [label="Device::Base_DPowerSupply\l::channels",height=0.2,width=0.4,color="black", fillcolor="white", style="filled",URL="$classDevice_1_1Base__DPowerSupply.html#a59c95c33d17e96642e128896f9a6f70c",tooltip=" "];
  Node2 -> Node4 [color="midnightblue",fontsize="10",style="solid",fontname="Helvetica"];
  Node4 [label="validateChannel",height=0.2,width=0.4,color="black", fillcolor="white", style="filled",URL="$ConfigValidator_8cpp.html#aab027f586aa539771f0bc3487e96b39a",tooltip=" "];
  Node4 -> Node5 [color="midnightblue",fontsize="10",style="solid",fontname="Helvetica"];
  Node5 [label="validateChannelHasStatusCh",height=0.2,width=0.4,color="black", fillcolor="white", style="filled",URL="$ConfigValidator_8cpp.html#af8550f1f0d970c598c1cc218f78d1593",tooltip=" "];
  Node5 -> Node6 [color="midnightblue",fontsize="10",style="solid",fontname="Helvetica"];
  Node6 [label="Device::Base_DChannel\l::statuschs",height=0.2,width=0.4,color="black", fillcolor="white", style="filled",URL="$classDevice_1_1Base__DChannel.html#a4e72112739a5e395741859a553c39cf9",tooltip=" "];
  Node5 -> Node7 [color="midnightblue",fontsize="10",style="solid",fontname="Helvetica"];
  Node7 [label="validateStatusCh",height=0.2,width=0.4,color="black", fillcolor="white", style="filled",URL="$ConfigValidator_8cpp.html#a4f4de2ec1df53e00298278fca2e58aae",tooltip=" "];
  Node1 -> Node8 [color="midnightblue",fontsize="10",style="solid",fontname="Helvetica"];
  Node8 [label="validatePowerSupplyHasStatusPs",height=0.2,width=0.4,color="black", fillcolor="white", style="filled",URL="$ConfigValidator_8cpp.html#a82f78dd5d5af9dd744344e56912c1b8f",tooltip=" "];
  Node8 -> Node9 [color="midnightblue",fontsize="10",style="solid",fontname="Helvetica"];
  Node9 [label="Device::Base_DPowerSupply\l::statuspss",height=0.2,width=0.4,color="black", fillcolor="white", style="filled",URL="$classDevice_1_1Base__DPowerSupply.html#ac04e0017fd8b0efb40fc2f7eda739b83",tooltip=" "];
  Node8 -> Node10 [color="midnightblue",fontsize="10",style="solid",fontname="Helvetica"];
  Node10 [label="validateStatusPs",height=0.2,width=0.4,color="black", fillcolor="white", style="filled",URL="$ConfigValidator_8cpp.html#a83a0a8839cd2d501efba4972b9667359",tooltip=" "];
}
