digraph "validateDeviceTree"
{
 // LATEX_PDF_SIZE
  edge [fontname="Helvetica",fontsize="10",labelfontname="Helvetica",labelfontsize="10"];
  node [fontname="Helvetica",fontsize="10",shape=record];
  rankdir="LR";
  Node1 [label="validateDeviceTree",height=0.2,width=0.4,color="black", fillcolor="grey75", style="filled", fontcolor="black",tooltip=" "];
  Node1 -> Node2 [color="midnightblue",fontsize="10",style="solid",fontname="Helvetica"];
  Node2 [label="Device::DRoot::getInstance",height=0.2,width=0.4,color="black", fillcolor="white", style="filled",URL="$classDevice_1_1DRoot.html#a4d4822f4460a29c6188b7f466d36408c",tooltip=" "];
  Node1 -> Node3 [color="midnightblue",fontsize="10",style="solid",fontname="Helvetica"];
  Node3 [label="validateRoot",height=0.2,width=0.4,color="black", fillcolor="white", style="filled",URL="$ConfigValidator_8cpp.html#a419f9a444ee767c8c19938a9b9dae498",tooltip=" "];
  Node3 -> Node4 [color="midnightblue",fontsize="10",style="solid",fontname="Helvetica"];
  Node4 [label="validateRootHasLxiAbstraction",height=0.2,width=0.4,color="black", fillcolor="white", style="filled",URL="$ConfigValidator_8cpp.html#a8354005fd5f959ee0c629c0f3929a374",tooltip=" "];
  Node4 -> Node5 [color="midnightblue",fontsize="10",style="solid",fontname="Helvetica"];
  Node5 [label="Device::DRoot::lxiabstractions",height=0.2,width=0.4,color="black", fillcolor="white", style="filled",URL="$classDevice_1_1DRoot.html#a739e66010f6f8a8b049eca268a749a13",tooltip=" "];
  Node4 -> Node6 [color="midnightblue",fontsize="10",style="solid",fontname="Helvetica"];
  Node6 [label="validateLxiAbstraction",height=0.2,width=0.4,color="black", fillcolor="white", style="filled",URL="$ConfigValidator_8cpp.html#acdd561dd8a5827741ed1cd40c5a7e59d",tooltip=" "];
  Node6 -> Node7 [color="midnightblue",fontsize="10",style="solid",fontname="Helvetica"];
  Node7 [label="validateLxiAbstractionHas\lLxiCommand",height=0.2,width=0.4,color="black", fillcolor="white", style="filled",URL="$ConfigValidator_8cpp.html#ad48fe9a0cb7483c95bc142cab8ceee4b",tooltip=" "];
  Node7 -> Node8 [color="midnightblue",fontsize="10",style="solid",fontname="Helvetica"];
  Node8 [label="Device::Base_DLxiAbstraction\l::lxicommands",height=0.2,width=0.4,color="black", fillcolor="white", style="filled",URL="$classDevice_1_1Base__DLxiAbstraction.html#a7bb7a84cb44c8a0da2b5c94f0ace6d3d",tooltip=" "];
  Node7 -> Node9 [color="midnightblue",fontsize="10",style="solid",fontname="Helvetica"];
  Node9 [label="validateLxiCommand",height=0.2,width=0.4,color="black", fillcolor="white", style="filled",URL="$ConfigValidator_8cpp.html#aefcee7e40dba9f597963f26c52ba084e",tooltip=" "];
  Node3 -> Node10 [color="midnightblue",fontsize="10",style="solid",fontname="Helvetica"];
  Node10 [label="validateRootHasPowerSupply",height=0.2,width=0.4,color="black", fillcolor="white", style="filled",URL="$ConfigValidator_8cpp.html#a943091decb047ad6780ae68a54762afd",tooltip=" "];
  Node10 -> Node11 [color="midnightblue",fontsize="10",style="solid",fontname="Helvetica"];
  Node11 [label="Device::DRoot::powersupplys",height=0.2,width=0.4,color="black", fillcolor="white", style="filled",URL="$classDevice_1_1DRoot.html#aa98fa063955dd6b19f3bf2d528c85867",tooltip=" "];
  Node10 -> Node12 [color="midnightblue",fontsize="10",style="solid",fontname="Helvetica"];
  Node12 [label="validatePowerSupply",height=0.2,width=0.4,color="black", fillcolor="white", style="filled",URL="$ConfigValidator_8cpp.html#a615c2b3e4ff5cd8510b721554d35c2db",tooltip=" "];
  Node12 -> Node13 [color="midnightblue",fontsize="10",style="solid",fontname="Helvetica"];
  Node13 [label="validatePowerSupplyHasChannel",height=0.2,width=0.4,color="black", fillcolor="white", style="filled",URL="$ConfigValidator_8cpp.html#a5d52fa211f6042608daa678f4fd796bf",tooltip=" "];
  Node13 -> Node14 [color="midnightblue",fontsize="10",style="solid",fontname="Helvetica"];
  Node14 [label="Device::Base_DPowerSupply\l::channels",height=0.2,width=0.4,color="black", fillcolor="white", style="filled",URL="$classDevice_1_1Base__DPowerSupply.html#a59c95c33d17e96642e128896f9a6f70c",tooltip=" "];
  Node13 -> Node15 [color="midnightblue",fontsize="10",style="solid",fontname="Helvetica"];
  Node15 [label="validateChannel",height=0.2,width=0.4,color="black", fillcolor="white", style="filled",URL="$ConfigValidator_8cpp.html#aab027f586aa539771f0bc3487e96b39a",tooltip=" "];
  Node15 -> Node16 [color="midnightblue",fontsize="10",style="solid",fontname="Helvetica"];
  Node16 [label="validateChannelHasStatusCh",height=0.2,width=0.4,color="black", fillcolor="white", style="filled",URL="$ConfigValidator_8cpp.html#af8550f1f0d970c598c1cc218f78d1593",tooltip=" "];
  Node16 -> Node17 [color="midnightblue",fontsize="10",style="solid",fontname="Helvetica"];
  Node17 [label="Device::Base_DChannel\l::statuschs",height=0.2,width=0.4,color="black", fillcolor="white", style="filled",URL="$classDevice_1_1Base__DChannel.html#a4e72112739a5e395741859a553c39cf9",tooltip=" "];
  Node16 -> Node18 [color="midnightblue",fontsize="10",style="solid",fontname="Helvetica"];
  Node18 [label="validateStatusCh",height=0.2,width=0.4,color="black", fillcolor="white", style="filled",URL="$ConfigValidator_8cpp.html#a4f4de2ec1df53e00298278fca2e58aae",tooltip=" "];
  Node12 -> Node19 [color="midnightblue",fontsize="10",style="solid",fontname="Helvetica"];
  Node19 [label="validatePowerSupplyHasStatusPs",height=0.2,width=0.4,color="black", fillcolor="white", style="filled",URL="$ConfigValidator_8cpp.html#a82f78dd5d5af9dd744344e56912c1b8f",tooltip=" "];
  Node19 -> Node20 [color="midnightblue",fontsize="10",style="solid",fontname="Helvetica"];
  Node20 [label="Device::Base_DPowerSupply\l::statuspss",height=0.2,width=0.4,color="black", fillcolor="white", style="filled",URL="$classDevice_1_1Base__DPowerSupply.html#ac04e0017fd8b0efb40fc2f7eda739b83",tooltip=" "];
  Node19 -> Node21 [color="midnightblue",fontsize="10",style="solid",fontname="Helvetica"];
  Node21 [label="validateStatusPs",height=0.2,width=0.4,color="black", fillcolor="white", style="filled",URL="$ConfigValidator_8cpp.html#a83a0a8839cd2d501efba4972b9667359",tooltip=" "];
}
