digraph "/home/mludwig/cernLocal/projects/opcua-lxi-master/Device/include/DChannel.h"
{
 // LATEX_PDF_SIZE
  edge [fontname="Helvetica",fontsize="10",labelfontname="Helvetica",labelfontsize="10"];
  node [fontname="Helvetica",fontsize="10",shape=record];
  Node1 [label="/home/mludwig/cernLocal\l/projects/opcua-lxi-master\l/Device/include/DChannel.h",height=0.2,width=0.4,color="black", fillcolor="grey75", style="filled", fontcolor="black",tooltip=" "];
  Node1 -> Node2 [dir="back",color="midnightblue",fontsize="10",style="solid",fontname="Helvetica"];
  Node2 [label="/home/mludwig/cernLocal\l/projects/opcua-lxi-master\l/Device/include/DPowerSupply.h",height=0.2,width=0.4,color="black", fillcolor="white", style="filled",URL="$DPowerSupply_8h.html",tooltip=" "];
  Node2 -> Node3 [dir="back",color="midnightblue",fontsize="10",style="solid",fontname="Helvetica"];
  Node3 [label="/home/mludwig/cernLocal\l/projects/opcua-lxi-master\l/Device/src/DChannel.cpp",height=0.2,width=0.4,color="black", fillcolor="white", style="filled",URL="$DChannel_8cpp.html",tooltip=" "];
  Node2 -> Node4 [dir="back",color="midnightblue",fontsize="10",style="solid",fontname="Helvetica"];
  Node4 [label="/home/mludwig/cernLocal\l/projects/opcua-lxi-master\l/Device/src/DPowerSupply.cpp",height=0.2,width=0.4,color="black", fillcolor="white", style="filled",URL="$DPowerSupply_8cpp.html",tooltip=" "];
  Node2 -> Node5 [dir="back",color="midnightblue",fontsize="10",style="solid",fontname="Helvetica"];
  Node5 [label="/home/mludwig/cernLocal\l/projects/opcua-lxi-master\l/generatedSources/AddressSpaceClasses.cpp",height=0.2,width=0.4,color="black", fillcolor="white", style="filled",URL="$AddressSpaceClasses_8cpp.html",tooltip=" "];
  Node2 -> Node6 [dir="back",color="midnightblue",fontsize="10",style="solid",fontname="Helvetica"];
  Node6 [label="/home/mludwig/cernLocal\l/projects/opcua-lxi-master\l/generatedSources/Base_All.cpp",height=0.2,width=0.4,color="black", fillcolor="white", style="filled",URL="$Base__All_8cpp.html",tooltip=" "];
  Node2 -> Node7 [dir="back",color="midnightblue",fontsize="10",style="solid",fontname="Helvetica"];
  Node7 [label="/home/mludwig/cernLocal\l/projects/opcua-lxi-master\l/generatedSources/Configurator.cpp",height=0.2,width=0.4,color="black", fillcolor="white", style="filled",URL="$Configurator_8cpp.html",tooltip=" "];
  Node2 -> Node8 [dir="back",color="midnightblue",fontsize="10",style="solid",fontname="Helvetica"];
  Node8 [label="/home/mludwig/cernLocal\l/projects/opcua-lxi-master\l/generatedSources/ConfigValidator.cpp",height=0.2,width=0.4,color="black", fillcolor="white", style="filled",URL="$ConfigValidator_8cpp.html",tooltip=" "];
  Node2 -> Node9 [dir="back",color="midnightblue",fontsize="10",style="solid",fontname="Helvetica"];
  Node9 [label="/home/mludwig/cernLocal\l/projects/opcua-lxi-master\l/generatedSources/DRoot.cpp",height=0.2,width=0.4,color="black", fillcolor="white", style="filled",URL="$DRoot_8cpp.html",tooltip=" "];
  Node2 -> Node10 [dir="back",color="midnightblue",fontsize="10",style="solid",fontname="Helvetica"];
  Node10 [label="/home/mludwig/cernLocal\l/projects/opcua-lxi-master\l/generatedSources/SourceVariables.cpp",height=0.2,width=0.4,color="black", fillcolor="white", style="filled",URL="$SourceVariables_8cpp.html",tooltip=" "];
  Node2 -> Node11 [dir="back",color="midnightblue",fontsize="10",style="solid",fontname="Helvetica"];
  Node11 [label="/home/mludwig/cernLocal\l/projects/opcua-lxi-master\l/Server/src/QuasarServer.cpp",height=0.2,width=0.4,color="black", fillcolor="white", style="filled",URL="$QuasarServer_8cpp.html",tooltip=" "];
  Node1 -> Node3 [dir="back",color="midnightblue",fontsize="10",style="solid",fontname="Helvetica"];
  Node1 -> Node4 [dir="back",color="midnightblue",fontsize="10",style="solid",fontname="Helvetica"];
  Node1 -> Node5 [dir="back",color="midnightblue",fontsize="10",style="solid",fontname="Helvetica"];
  Node1 -> Node6 [dir="back",color="midnightblue",fontsize="10",style="solid",fontname="Helvetica"];
  Node1 -> Node7 [dir="back",color="midnightblue",fontsize="10",style="solid",fontname="Helvetica"];
  Node1 -> Node8 [dir="back",color="midnightblue",fontsize="10",style="solid",fontname="Helvetica"];
  Node1 -> Node10 [dir="back",color="midnightblue",fontsize="10",style="solid",fontname="Helvetica"];
}
