digraph "/home/mludwig/cernLocal/projects/opcua-lxi-master/Device/src/DChannel.cpp"
{
 // LATEX_PDF_SIZE
  edge [fontname="Helvetica",fontsize="10",labelfontname="Helvetica",labelfontsize="10"];
  node [fontname="Helvetica",fontsize="10",shape=record];
  Node1 [label="/home/mludwig/cernLocal\l/projects/opcua-lxi-master\l/Device/src/DChannel.cpp",height=0.2,width=0.4,color="black", fillcolor="grey75", style="filled", fontcolor="black",tooltip=" "];
  Node1 -> Node2 [color="midnightblue",fontsize="10",style="solid",fontname="Helvetica"];
  Node2 [label="DChannel.h",height=0.2,width=0.4,color="black", fillcolor="white", style="filled",URL="$DChannel_8h.html",tooltip=" "];
  Node2 -> Node3 [color="midnightblue",fontsize="10",style="solid",fontname="Helvetica"];
  Node3 [label="Base_DChannel.h",height=0.2,width=0.4,color="black", fillcolor="white", style="filled",URL="$Base__DChannel_8h.html",tooltip=" "];
  Node3 -> Node4 [color="midnightblue",fontsize="10",style="solid",fontname="Helvetica"];
  Node4 [label="vector",height=0.2,width=0.4,color="grey75", fillcolor="white", style="filled",tooltip=" "];
  Node3 -> Node5 [color="midnightblue",fontsize="10",style="solid",fontname="Helvetica"];
  Node5 [label="string",height=0.2,width=0.4,color="grey75", fillcolor="white", style="filled",tooltip=" "];
  Node3 -> Node6 [color="midnightblue",fontsize="10",style="solid",fontname="Helvetica"];
  Node6 [label="list",height=0.2,width=0.4,color="grey75", fillcolor="white", style="filled",tooltip=" "];
  Node3 -> Node7 [color="midnightblue",fontsize="10",style="solid",fontname="Helvetica"];
  Node7 [label="boost/thread/mutex.hpp",height=0.2,width=0.4,color="grey75", fillcolor="white", style="filled",tooltip=" "];
  Node3 -> Node8 [color="midnightblue",fontsize="10",style="solid",fontname="Helvetica"];
  Node8 [label="opcua_platformdefs.h",height=0.2,width=0.4,color="red", fillcolor="white", style="filled",URL="$opcua__platformdefs_8h.html",tooltip=" "];
  Node2 -> Node10 [color="midnightblue",fontsize="10",style="solid",fontname="Helvetica"];
  Node10 [label="DLxiCommand.h",height=0.2,width=0.4,color="black", fillcolor="white", style="filled",URL="$DLxiCommand_8h.html",tooltip=" "];
  Node10 -> Node11 [color="midnightblue",fontsize="10",style="solid",fontname="Helvetica"];
  Node11 [label="iostream",height=0.2,width=0.4,color="grey75", fillcolor="white", style="filled",tooltip=" "];
  Node10 -> Node12 [color="midnightblue",fontsize="10",style="solid",fontname="Helvetica"];
  Node12 [label="Base_DLxiCommand.h",height=0.2,width=0.4,color="black", fillcolor="white", style="filled",URL="$Base__DLxiCommand_8h.html",tooltip=" "];
  Node12 -> Node4 [color="midnightblue",fontsize="10",style="solid",fontname="Helvetica"];
  Node12 -> Node5 [color="midnightblue",fontsize="10",style="solid",fontname="Helvetica"];
  Node12 -> Node6 [color="midnightblue",fontsize="10",style="solid",fontname="Helvetica"];
  Node12 -> Node7 [color="midnightblue",fontsize="10",style="solid",fontname="Helvetica"];
  Node12 -> Node8 [color="midnightblue",fontsize="10",style="solid",fontname="Helvetica"];
  Node10 -> Node13 [color="midnightblue",fontsize="10",style="solid",fontname="Helvetica"];
  Node13 [label="map",height=0.2,width=0.4,color="grey75", fillcolor="white", style="filled",tooltip=" "];
  Node2 -> Node14 [color="midnightblue",fontsize="10",style="solid",fontname="Helvetica"];
  Node14 [label="LxiComm.h",height=0.2,width=0.4,color="black", fillcolor="white", style="filled",URL="$LxiComm_8h.html",tooltip=" "];
  Node14 -> Node5 [color="midnightblue",fontsize="10",style="solid",fontname="Helvetica"];
  Node14 -> Node11 [color="midnightblue",fontsize="10",style="solid",fontname="Helvetica"];
  Node14 -> Node15 [color="midnightblue",fontsize="10",style="solid",fontname="Helvetica"];
  Node15 [label="sstream",height=0.2,width=0.4,color="grey75", fillcolor="white", style="filled",tooltip=" "];
  Node14 -> Node13 [color="midnightblue",fontsize="10",style="solid",fontname="Helvetica"];
  Node14 -> Node16 [color="midnightblue",fontsize="10",style="solid",fontname="Helvetica"];
  Node16 [label="unistd.h",height=0.2,width=0.4,color="grey75", fillcolor="white", style="filled",tooltip=" "];
  Node14 -> Node17 [color="midnightblue",fontsize="10",style="solid",fontname="Helvetica"];
  Node17 [label="LogIt.h",height=0.2,width=0.4,color="red", fillcolor="white", style="filled",URL="$LogIt_8h.html",tooltip=" "];
  Node17 -> Node11 [color="midnightblue",fontsize="10",style="solid",fontname="Helvetica"];
  Node17 -> Node6 [color="midnightblue",fontsize="10",style="solid",fontname="Helvetica"];
  Node1 -> Node28 [color="midnightblue",fontsize="10",style="solid",fontname="Helvetica"];
  Node28 [label="ASChannel.h",height=0.2,width=0.4,color="black", fillcolor="white", style="filled",URL="$ASChannel_8h.html",tooltip=" "];
  Node28 -> Node29 [color="midnightblue",fontsize="10",style="solid",fontname="Helvetica"];
  Node29 [label="opcua_baseobjecttype.h",height=0.2,width=0.4,color="black", fillcolor="white", style="filled",URL="$opcua__baseobjecttype_8h.html",tooltip=" "];
  Node29 -> Node30 [color="midnightblue",fontsize="10",style="solid",fontname="Helvetica"];
  Node30 [label="uanode.h",height=0.2,width=0.4,color="red", fillcolor="white", style="filled",URL="$uanode_8h.html",tooltip=" "];
  Node30 -> Node6 [color="midnightblue",fontsize="10",style="solid",fontname="Helvetica"];
  Node29 -> Node54 [color="midnightblue",fontsize="10",style="solid",fontname="Helvetica"];
  Node54 [label="uabasenodes.h",height=0.2,width=0.4,color="black", fillcolor="white", style="filled",URL="$uabasenodes_8h.html",tooltip=" "];
  Node54 -> Node30 [color="midnightblue",fontsize="10",style="solid",fontname="Helvetica"];
  Node29 -> Node55 [color="midnightblue",fontsize="10",style="solid",fontname="Helvetica"];
  Node55 [label="nodemanagerbase.h",height=0.2,width=0.4,color="red", fillcolor="white", style="filled",URL="$nodemanagerbase_8h.html",tooltip=" "];
  Node55 -> Node56 [color="midnightblue",fontsize="10",style="solid",fontname="Helvetica"];
  Node56 [label="statuscode.h",height=0.2,width=0.4,color="red", fillcolor="white", style="filled",URL="$statuscode_8h.html",tooltip=" "];
  Node56 -> Node8 [color="midnightblue",fontsize="10",style="solid",fontname="Helvetica"];
  Node56 -> Node4 [color="midnightblue",fontsize="10",style="solid",fontname="Helvetica"];
  Node55 -> Node30 [color="midnightblue",fontsize="10",style="solid",fontname="Helvetica"];
  Node29 -> Node57 [color="midnightblue",fontsize="10",style="solid",fontname="Helvetica"];
  Node57 [label="uadatavariablecache.h",height=0.2,width=0.4,color="red", fillcolor="white", style="filled",URL="$uadatavariablecache_8h.html",tooltip=" "];
  Node57 -> Node30 [color="midnightblue",fontsize="10",style="solid",fontname="Helvetica"];
  Node57 -> Node56 [color="midnightblue",fontsize="10",style="solid",fontname="Helvetica"];
  Node57 -> Node54 [color="midnightblue",fontsize="10",style="solid",fontname="Helvetica"];
  Node29 -> Node60 [color="midnightblue",fontsize="10",style="solid",fontname="Helvetica"];
  Node60 [label="methodhandleuanode.h",height=0.2,width=0.4,color="black", fillcolor="white", style="filled",URL="$methodhandleuanode_8h.html",tooltip=" "];
  Node60 -> Node54 [color="midnightblue",fontsize="10",style="solid",fontname="Helvetica"];
  Node60 -> Node61 [color="midnightblue",fontsize="10",style="solid",fontname="Helvetica"];
  Node61 [label="arrays.h",height=0.2,width=0.4,color="red", fillcolor="white", style="filled",URL="$arrays_8h.html",tooltip=" "];
  Node61 -> Node56 [color="midnightblue",fontsize="10",style="solid",fontname="Helvetica"];
  Node29 -> Node68 [color="midnightblue",fontsize="10",style="solid",fontname="Helvetica"];
  Node68 [label="methodmanager.h",height=0.2,width=0.4,color="red", fillcolor="white", style="filled",URL="$methodmanager_8h.html",tooltip=" "];
  Node68 -> Node61 [color="midnightblue",fontsize="10",style="solid",fontname="Helvetica"];
  Node28 -> Node60 [color="midnightblue",fontsize="10",style="solid",fontname="Helvetica"];
  Node28 -> Node69 [color="midnightblue",fontsize="10",style="solid",fontname="Helvetica"];
  Node69 [label="ASDelegatingMethod.h",height=0.2,width=0.4,color="black", fillcolor="white", style="filled",URL="$ASDelegatingMethod_8h.html",tooltip=" "];
  Node69 -> Node17 [color="midnightblue",fontsize="10",style="solid",fontname="Helvetica"];
  Node28 -> Node70 [color="midnightblue",fontsize="10",style="solid",fontname="Helvetica"];
  Node70 [label="Configuration.hxx",height=0.2,width=0.4,color="red", fillcolor="white", style="filled",URL="$Configuration_8hxx.html",tooltip=" "];
  Node70 -> Node71 [color="midnightblue",fontsize="10",style="solid",fontname="Helvetica"];
  Node71 [label="xsd/cxx/config.hxx",height=0.2,width=0.4,color="grey75", fillcolor="white", style="filled",tooltip=" "];
  Node70 -> Node72 [color="midnightblue",fontsize="10",style="solid",fontname="Helvetica"];
  Node72 [label="xsd/cxx/pre.hxx",height=0.2,width=0.4,color="grey75", fillcolor="white", style="filled",tooltip=" "];
  Node70 -> Node73 [color="midnightblue",fontsize="10",style="solid",fontname="Helvetica"];
  Node73 [label="xsd/cxx/xml/char-utf8.hxx",height=0.2,width=0.4,color="grey75", fillcolor="white", style="filled",tooltip=" "];
  Node70 -> Node74 [color="midnightblue",fontsize="10",style="solid",fontname="Helvetica"];
  Node74 [label="xsd/cxx/tree/exceptions.hxx",height=0.2,width=0.4,color="grey75", fillcolor="white", style="filled",tooltip=" "];
  Node70 -> Node75 [color="midnightblue",fontsize="10",style="solid",fontname="Helvetica"];
  Node75 [label="xsd/cxx/tree/elements.hxx",height=0.2,width=0.4,color="grey75", fillcolor="white", style="filled",tooltip=" "];
  Node70 -> Node76 [color="midnightblue",fontsize="10",style="solid",fontname="Helvetica"];
  Node76 [label="xsd/cxx/tree/types.hxx",height=0.2,width=0.4,color="grey75", fillcolor="white", style="filled",tooltip=" "];
  Node70 -> Node77 [color="midnightblue",fontsize="10",style="solid",fontname="Helvetica"];
  Node77 [label="xsd/cxx/xml/error-handler.hxx",height=0.2,width=0.4,color="grey75", fillcolor="white", style="filled",tooltip=" "];
  Node70 -> Node78 [color="midnightblue",fontsize="10",style="solid",fontname="Helvetica"];
  Node78 [label="xsd/cxx/xml/dom/auto\l-ptr.hxx",height=0.2,width=0.4,color="grey75", fillcolor="white", style="filled",tooltip=" "];
  Node70 -> Node79 [color="midnightblue",fontsize="10",style="solid",fontname="Helvetica"];
  Node79 [label="xsd/cxx/tree/parsing.hxx",height=0.2,width=0.4,color="grey75", fillcolor="white", style="filled",tooltip=" "];
  Node70 -> Node80 [color="midnightblue",fontsize="10",style="solid",fontname="Helvetica"];
  Node80 [label="xsd/cxx/tree/parsing\l/byte.hxx",height=0.2,width=0.4,color="grey75", fillcolor="white", style="filled",tooltip=" "];
  Node70 -> Node81 [color="midnightblue",fontsize="10",style="solid",fontname="Helvetica"];
  Node81 [label="xsd/cxx/tree/parsing\l/unsigned-byte.hxx",height=0.2,width=0.4,color="grey75", fillcolor="white", style="filled",tooltip=" "];
  Node70 -> Node82 [color="midnightblue",fontsize="10",style="solid",fontname="Helvetica"];
  Node82 [label="xsd/cxx/tree/parsing\l/short.hxx",height=0.2,width=0.4,color="grey75", fillcolor="white", style="filled",tooltip=" "];
  Node70 -> Node83 [color="midnightblue",fontsize="10",style="solid",fontname="Helvetica"];
  Node83 [label="xsd/cxx/tree/parsing\l/unsigned-short.hxx",height=0.2,width=0.4,color="grey75", fillcolor="white", style="filled",tooltip=" "];
  Node70 -> Node84 [color="midnightblue",fontsize="10",style="solid",fontname="Helvetica"];
  Node84 [label="xsd/cxx/tree/parsing\l/int.hxx",height=0.2,width=0.4,color="grey75", fillcolor="white", style="filled",tooltip=" "];
  Node70 -> Node85 [color="midnightblue",fontsize="10",style="solid",fontname="Helvetica"];
  Node85 [label="xsd/cxx/tree/parsing\l/unsigned-int.hxx",height=0.2,width=0.4,color="grey75", fillcolor="white", style="filled",tooltip=" "];
  Node70 -> Node4 [color="midnightblue",fontsize="10",style="solid",fontname="Helvetica"];
  Node28 -> Node119 [color="midnightblue",fontsize="10",style="solid",fontname="Helvetica"];
  Node119 [label="ASNodeManager.h",height=0.2,width=0.4,color="red", fillcolor="white", style="filled",URL="$ASNodeManager_8h.html",tooltip=" "];
  Node119 -> Node55 [color="midnightblue",fontsize="10",style="solid",fontname="Helvetica"];
  Node28 -> Node122 [color="midnightblue",fontsize="10",style="solid",fontname="Helvetica"];
  Node122 [label="ASDelegatingVariable.h",height=0.2,width=0.4,color="red", fillcolor="white", style="filled",URL="$ASDelegatingVariable_8h.html",tooltip=" "];
  Node28 -> Node127 [color="midnightblue",fontsize="10",style="solid",fontname="Helvetica"];
  Node127 [label="ASSourceVariable.h",height=0.2,width=0.4,color="red", fillcolor="white", style="filled",URL="$ASSourceVariable_8h.html",tooltip=" "];
  Node1 -> Node136 [color="midnightblue",fontsize="10",style="solid",fontname="Helvetica"];
  Node136 [label="DPowerSupply.h",height=0.2,width=0.4,color="black", fillcolor="white", style="filled",URL="$DPowerSupply_8h.html",tooltip=" "];
  Node136 -> Node4 [color="midnightblue",fontsize="10",style="solid",fontname="Helvetica"];
  Node136 -> Node137 [color="midnightblue",fontsize="10",style="solid",fontname="Helvetica"];
  Node137 [label="boost/foreach.hpp",height=0.2,width=0.4,color="grey75", fillcolor="white", style="filled",tooltip=" "];
  Node136 -> Node56 [color="midnightblue",fontsize="10",style="solid",fontname="Helvetica"];
  Node136 -> Node66 [color="midnightblue",fontsize="10",style="solid",fontname="Helvetica"];
  Node66 [label="uadatetime.h",height=0.2,width=0.4,color="red", fillcolor="white", style="filled",URL="$uadatetime_8h.html",tooltip=" "];
  Node136 -> Node138 [color="midnightblue",fontsize="10",style="solid",fontname="Helvetica"];
  Node138 [label="Base_DPowerSupply.h",height=0.2,width=0.4,color="black", fillcolor="white", style="filled",URL="$Base__DPowerSupply_8h.html",tooltip=" "];
  Node138 -> Node4 [color="midnightblue",fontsize="10",style="solid",fontname="Helvetica"];
  Node138 -> Node5 [color="midnightblue",fontsize="10",style="solid",fontname="Helvetica"];
  Node138 -> Node6 [color="midnightblue",fontsize="10",style="solid",fontname="Helvetica"];
  Node138 -> Node7 [color="midnightblue",fontsize="10",style="solid",fontname="Helvetica"];
  Node138 -> Node8 [color="midnightblue",fontsize="10",style="solid",fontname="Helvetica"];
  Node136 -> Node10 [color="midnightblue",fontsize="10",style="solid",fontname="Helvetica"];
  Node136 -> Node2 [color="midnightblue",fontsize="10",style="solid",fontname="Helvetica"];
  Node136 -> Node14 [color="midnightblue",fontsize="10",style="solid",fontname="Helvetica"];
}
