digraph "/home/mludwig/cernLocal/projects/opcua-lxi-master/CalculatedVariables/ext_components/muparser-amalgamated" {
  compound=true
  node [ fontsize="10", fontname="Helvetica"];
  edge [ labelfontsize="10", labelfontname="Helvetica"];
  subgraph clusterdir_43ab5940003cd091c34ccc278445c0e6 {
    graph [ bgcolor="#ddddee", pencolor="black", label="ext_components" fontname="Helvetica", fontsize="10", URL="dir_43ab5940003cd091c34ccc278445c0e6.html"]
  subgraph clusterdir_99bd96d77ec6acf36c4c22d03a351326 {
    graph [ bgcolor="#eeeeff", pencolor="black", label="" URL="dir_99bd96d77ec6acf36c4c22d03a351326.html"];
    dir_99bd96d77ec6acf36c4c22d03a351326 [shape=plaintext label="muparser-amalgamated"];
    dir_eb0f051bd4c512e94897788e3f61ab8a [shape=box label="include" color="black" fillcolor="white" style="filled" URL="dir_eb0f051bd4c512e94897788e3f61ab8a.html"];
    dir_104cdafdfccdc8dd36d1ba87312e45e2 [shape=box label="src" color="black" fillcolor="white" style="filled" URL="dir_104cdafdfccdc8dd36d1ba87312e45e2.html"];
  }
  }
  dir_104cdafdfccdc8dd36d1ba87312e45e2->dir_eb0f051bd4c512e94897788e3f61ab8a [headlabel="1", labeldistance=1.5 headhref="dir_000022_000021.html"];
}
