digraph "/home/mludwig/cernLocal/projects/opcua-lxi-master/LxiCommunication" {
  compound=true
  node [ fontsize="10", fontname="Helvetica"];
  edge [ labelfontsize="10", labelfontname="Helvetica"];
  subgraph clusterdir_0490e8c55b4fc72f88dba28d70c201e2 {
    graph [ bgcolor="#eeeeff", pencolor="black", label="" URL="dir_0490e8c55b4fc72f88dba28d70c201e2.html"];
    dir_0490e8c55b4fc72f88dba28d70c201e2 [shape=plaintext label="LxiCommunication"];
    dir_191ec0b5f02cd63b2fd34cbedd284705 [shape=box label="include" color="black" fillcolor="white" style="filled" URL="dir_191ec0b5f02cd63b2fd34cbedd284705.html"];
    dir_436d2bb0f9d26831983d3adfe79b4051 [shape=box label="src" color="black" fillcolor="white" style="filled" URL="dir_436d2bb0f9d26831983d3adfe79b4051.html"];
  }
  dir_4c76ddfc10a27668d6c42d3412320ee0 [shape=box label="Device" fillcolor="white" style="filled" color="red" URL="dir_4c76ddfc10a27668d6c42d3412320ee0.html"];
  dir_649f84fa6253a185189be55ef3e49b74 [shape=box label="generatedSources" URL="dir_649f84fa6253a185189be55ef3e49b74.html"];
  dir_02eeca945d0f2da9c46e2b78b50b4375 [shape=box label="LogIt" fillcolor="white" style="filled" color="red" URL="dir_02eeca945d0f2da9c46e2b78b50b4375.html"];
  dir_4c76ddfc10a27668d6c42d3412320ee0->dir_649f84fa6253a185189be55ef3e49b74 [headlabel="27", labeldistance=1.5 headhref="dir_000004_000042.html"];
  dir_4c76ddfc10a27668d6c42d3412320ee0->dir_191ec0b5f02cd63b2fd34cbedd284705 [headlabel="2", labeldistance=1.5 headhref="dir_000004_000049.html"];
  dir_649f84fa6253a185189be55ef3e49b74->dir_4c76ddfc10a27668d6c42d3412320ee0 [headlabel="32", labeldistance=1.5 headhref="dir_000042_000004.html"];
  dir_649f84fa6253a185189be55ef3e49b74->dir_02eeca945d0f2da9c46e2b78b50b4375 [headlabel="11", labeldistance=1.5 headhref="dir_000042_000008.html"];
  dir_436d2bb0f9d26831983d3adfe79b4051->dir_4c76ddfc10a27668d6c42d3412320ee0 [headlabel="1", labeldistance=1.5 headhref="dir_000050_000004.html"];
  dir_436d2bb0f9d26831983d3adfe79b4051->dir_649f84fa6253a185189be55ef3e49b74 [headlabel="1", labeldistance=1.5 headhref="dir_000050_000042.html"];
  dir_436d2bb0f9d26831983d3adfe79b4051->dir_191ec0b5f02cd63b2fd34cbedd284705 [headlabel="1", labeldistance=1.5 headhref="dir_000050_000049.html"];
  dir_191ec0b5f02cd63b2fd34cbedd284705->dir_02eeca945d0f2da9c46e2b78b50b4375 [headlabel="1", labeldistance=1.5 headhref="dir_000049_000008.html"];
}
