digraph "/home/mludwig/cernLocal/projects/opcua-lxi-master/Meta/include" {
  compound=true
  node [ fontsize="10", fontname="Helvetica"];
  edge [ labelfontsize="10", labelfontname="Helvetica"];
  subgraph clusterdir_7795a02a4813dcd036f04e5f7854f185 {
    graph [ bgcolor="#ddddee", pencolor="black", label="Meta" fontname="Helvetica", fontsize="10", URL="dir_7795a02a4813dcd036f04e5f7854f185.html"]
  dir_d19ce94a70a28b22f4e6a894bdfa705c [shape=box, label="include", style="filled", fillcolor="#eeeeff", pencolor="black", URL="dir_d19ce94a70a28b22f4e6a894bdfa705c.html"];
  }
  dir_649f84fa6253a185189be55ef3e49b74 [shape=box label="generatedSources" URL="dir_649f84fa6253a185189be55ef3e49b74.html"];
  dir_02eeca945d0f2da9c46e2b78b50b4375 [shape=box label="LogIt" fillcolor="white" style="filled" color="red" URL="dir_02eeca945d0f2da9c46e2b78b50b4375.html"];
  dir_9d0300c4d768b47749ab6b2e19d309b2 [shape=box label="AddressSpace" fillcolor="white" style="filled" color="red" URL="dir_9d0300c4d768b47749ab6b2e19d309b2.html"];
  dir_649f84fa6253a185189be55ef3e49b74->dir_02eeca945d0f2da9c46e2b78b50b4375 [headlabel="11", labeldistance=1.5 headhref="dir_000042_000008.html"];
  dir_649f84fa6253a185189be55ef3e49b74->dir_9d0300c4d768b47749ab6b2e19d309b2 [headlabel="31", labeldistance=1.5 headhref="dir_000042_000000.html"];
  dir_649f84fa6253a185189be55ef3e49b74->dir_d19ce94a70a28b22f4e6a894bdfa705c [headlabel="28", labeldistance=1.5 headhref="dir_000042_000051.html"];
  dir_9d0300c4d768b47749ab6b2e19d309b2->dir_649f84fa6253a185189be55ef3e49b74 [headlabel="9", labeldistance=1.5 headhref="dir_000000_000042.html"];
  dir_9d0300c4d768b47749ab6b2e19d309b2->dir_02eeca945d0f2da9c46e2b78b50b4375 [headlabel="4", labeldistance=1.5 headhref="dir_000000_000008.html"];
  dir_d19ce94a70a28b22f4e6a894bdfa705c->dir_649f84fa6253a185189be55ef3e49b74 [headlabel="97", labeldistance=1.5 headhref="dir_000051_000042.html"];
  dir_d19ce94a70a28b22f4e6a894bdfa705c->dir_02eeca945d0f2da9c46e2b78b50b4375 [headlabel="1", labeldistance=1.5 headhref="dir_000051_000008.html"];
  dir_d19ce94a70a28b22f4e6a894bdfa705c->dir_9d0300c4d768b47749ab6b2e19d309b2 [headlabel="31", labeldistance=1.5 headhref="dir_000051_000000.html"];
}
