digraph "/home/mludwig/cernLocal/projects/opcua-lxi-master/Device/src/DLxiCommand.cpp"
{
 // LATEX_PDF_SIZE
  edge [fontname="Helvetica",fontsize="10",labelfontname="Helvetica",labelfontsize="10"];
  node [fontname="Helvetica",fontsize="10",shape=record];
  Node1 [label="/home/mludwig/cernLocal\l/projects/opcua-lxi-master\l/Device/src/DLxiCommand.cpp",height=0.2,width=0.4,color="black", fillcolor="grey75", style="filled", fontcolor="black",tooltip=" "];
  Node1 -> Node2 [color="midnightblue",fontsize="10",style="solid",fontname="Helvetica"];
  Node2 [label="DLxiCommand.h",height=0.2,width=0.4,color="black", fillcolor="white", style="filled",URL="$DLxiCommand_8h.html",tooltip=" "];
  Node2 -> Node3 [color="midnightblue",fontsize="10",style="solid",fontname="Helvetica"];
  Node3 [label="iostream",height=0.2,width=0.4,color="grey75", fillcolor="white", style="filled",tooltip=" "];
  Node2 -> Node4 [color="midnightblue",fontsize="10",style="solid",fontname="Helvetica"];
  Node4 [label="Base_DLxiCommand.h",height=0.2,width=0.4,color="black", fillcolor="white", style="filled",URL="$Base__DLxiCommand_8h.html",tooltip=" "];
  Node4 -> Node5 [color="midnightblue",fontsize="10",style="solid",fontname="Helvetica"];
  Node5 [label="vector",height=0.2,width=0.4,color="grey75", fillcolor="white", style="filled",tooltip=" "];
  Node4 -> Node6 [color="midnightblue",fontsize="10",style="solid",fontname="Helvetica"];
  Node6 [label="string",height=0.2,width=0.4,color="grey75", fillcolor="white", style="filled",tooltip=" "];
  Node4 -> Node7 [color="midnightblue",fontsize="10",style="solid",fontname="Helvetica"];
  Node7 [label="list",height=0.2,width=0.4,color="grey75", fillcolor="white", style="filled",tooltip=" "];
  Node4 -> Node8 [color="midnightblue",fontsize="10",style="solid",fontname="Helvetica"];
  Node8 [label="boost/thread/mutex.hpp",height=0.2,width=0.4,color="grey75", fillcolor="white", style="filled",tooltip=" "];
  Node4 -> Node9 [color="midnightblue",fontsize="10",style="solid",fontname="Helvetica"];
  Node9 [label="opcua_platformdefs.h",height=0.2,width=0.4,color="red", fillcolor="white", style="filled",URL="$opcua__platformdefs_8h.html",tooltip=" "];
  Node2 -> Node11 [color="midnightblue",fontsize="10",style="solid",fontname="Helvetica"];
  Node11 [label="map",height=0.2,width=0.4,color="grey75", fillcolor="white", style="filled",tooltip=" "];
  Node1 -> Node12 [color="midnightblue",fontsize="10",style="solid",fontname="Helvetica"];
  Node12 [label="ASLxiCommand.h",height=0.2,width=0.4,color="black", fillcolor="white", style="filled",URL="$ASLxiCommand_8h.html",tooltip=" "];
  Node12 -> Node13 [color="midnightblue",fontsize="10",style="solid",fontname="Helvetica"];
  Node13 [label="opcua_baseobjecttype.h",height=0.2,width=0.4,color="black", fillcolor="white", style="filled",URL="$opcua__baseobjecttype_8h.html",tooltip=" "];
  Node13 -> Node14 [color="midnightblue",fontsize="10",style="solid",fontname="Helvetica"];
  Node14 [label="uanode.h",height=0.2,width=0.4,color="red", fillcolor="white", style="filled",URL="$uanode_8h.html",tooltip=" "];
  Node14 -> Node7 [color="midnightblue",fontsize="10",style="solid",fontname="Helvetica"];
  Node13 -> Node39 [color="midnightblue",fontsize="10",style="solid",fontname="Helvetica"];
  Node39 [label="uabasenodes.h",height=0.2,width=0.4,color="black", fillcolor="white", style="filled",URL="$uabasenodes_8h.html",tooltip=" "];
  Node39 -> Node14 [color="midnightblue",fontsize="10",style="solid",fontname="Helvetica"];
  Node13 -> Node40 [color="midnightblue",fontsize="10",style="solid",fontname="Helvetica"];
  Node40 [label="nodemanagerbase.h",height=0.2,width=0.4,color="red", fillcolor="white", style="filled",URL="$nodemanagerbase_8h.html",tooltip=" "];
  Node40 -> Node14 [color="midnightblue",fontsize="10",style="solid",fontname="Helvetica"];
  Node13 -> Node42 [color="midnightblue",fontsize="10",style="solid",fontname="Helvetica"];
  Node42 [label="uadatavariablecache.h",height=0.2,width=0.4,color="red", fillcolor="white", style="filled",URL="$uadatavariablecache_8h.html",tooltip=" "];
  Node42 -> Node14 [color="midnightblue",fontsize="10",style="solid",fontname="Helvetica"];
  Node42 -> Node39 [color="midnightblue",fontsize="10",style="solid",fontname="Helvetica"];
  Node13 -> Node45 [color="midnightblue",fontsize="10",style="solid",fontname="Helvetica"];
  Node45 [label="methodhandleuanode.h",height=0.2,width=0.4,color="black", fillcolor="white", style="filled",URL="$methodhandleuanode_8h.html",tooltip=" "];
  Node45 -> Node39 [color="midnightblue",fontsize="10",style="solid",fontname="Helvetica"];
  Node45 -> Node46 [color="midnightblue",fontsize="10",style="solid",fontname="Helvetica"];
  Node46 [label="arrays.h",height=0.2,width=0.4,color="red", fillcolor="white", style="filled",URL="$arrays_8h.html",tooltip=" "];
  Node13 -> Node53 [color="midnightblue",fontsize="10",style="solid",fontname="Helvetica"];
  Node53 [label="methodmanager.h",height=0.2,width=0.4,color="red", fillcolor="white", style="filled",URL="$methodmanager_8h.html",tooltip=" "];
  Node53 -> Node46 [color="midnightblue",fontsize="10",style="solid",fontname="Helvetica"];
  Node12 -> Node45 [color="midnightblue",fontsize="10",style="solid",fontname="Helvetica"];
  Node12 -> Node54 [color="midnightblue",fontsize="10",style="solid",fontname="Helvetica"];
  Node54 [label="ASDelegatingMethod.h",height=0.2,width=0.4,color="black", fillcolor="white", style="filled",URL="$ASDelegatingMethod_8h.html",tooltip=" "];
  Node54 -> Node55 [color="midnightblue",fontsize="10",style="solid",fontname="Helvetica"];
  Node55 [label="LogIt.h",height=0.2,width=0.4,color="red", fillcolor="white", style="filled",URL="$LogIt_8h.html",tooltip=" "];
  Node55 -> Node3 [color="midnightblue",fontsize="10",style="solid",fontname="Helvetica"];
  Node55 -> Node7 [color="midnightblue",fontsize="10",style="solid",fontname="Helvetica"];
  Node12 -> Node67 [color="midnightblue",fontsize="10",style="solid",fontname="Helvetica"];
  Node67 [label="Configuration.hxx",height=0.2,width=0.4,color="red", fillcolor="white", style="filled",URL="$Configuration_8hxx.html",tooltip=" "];
  Node67 -> Node68 [color="midnightblue",fontsize="10",style="solid",fontname="Helvetica"];
  Node68 [label="xsd/cxx/config.hxx",height=0.2,width=0.4,color="grey75", fillcolor="white", style="filled",tooltip=" "];
  Node67 -> Node69 [color="midnightblue",fontsize="10",style="solid",fontname="Helvetica"];
  Node69 [label="xsd/cxx/pre.hxx",height=0.2,width=0.4,color="grey75", fillcolor="white", style="filled",tooltip=" "];
  Node67 -> Node70 [color="midnightblue",fontsize="10",style="solid",fontname="Helvetica"];
  Node70 [label="xsd/cxx/xml/char-utf8.hxx",height=0.2,width=0.4,color="grey75", fillcolor="white", style="filled",tooltip=" "];
  Node67 -> Node71 [color="midnightblue",fontsize="10",style="solid",fontname="Helvetica"];
  Node71 [label="xsd/cxx/tree/exceptions.hxx",height=0.2,width=0.4,color="grey75", fillcolor="white", style="filled",tooltip=" "];
  Node67 -> Node72 [color="midnightblue",fontsize="10",style="solid",fontname="Helvetica"];
  Node72 [label="xsd/cxx/tree/elements.hxx",height=0.2,width=0.4,color="grey75", fillcolor="white", style="filled",tooltip=" "];
  Node67 -> Node73 [color="midnightblue",fontsize="10",style="solid",fontname="Helvetica"];
  Node73 [label="xsd/cxx/tree/types.hxx",height=0.2,width=0.4,color="grey75", fillcolor="white", style="filled",tooltip=" "];
  Node67 -> Node74 [color="midnightblue",fontsize="10",style="solid",fontname="Helvetica"];
  Node74 [label="xsd/cxx/xml/error-handler.hxx",height=0.2,width=0.4,color="grey75", fillcolor="white", style="filled",tooltip=" "];
  Node67 -> Node75 [color="midnightblue",fontsize="10",style="solid",fontname="Helvetica"];
  Node75 [label="xsd/cxx/xml/dom/auto\l-ptr.hxx",height=0.2,width=0.4,color="grey75", fillcolor="white", style="filled",tooltip=" "];
  Node67 -> Node76 [color="midnightblue",fontsize="10",style="solid",fontname="Helvetica"];
  Node76 [label="xsd/cxx/tree/parsing.hxx",height=0.2,width=0.4,color="grey75", fillcolor="white", style="filled",tooltip=" "];
  Node67 -> Node77 [color="midnightblue",fontsize="10",style="solid",fontname="Helvetica"];
  Node77 [label="xsd/cxx/tree/parsing\l/byte.hxx",height=0.2,width=0.4,color="grey75", fillcolor="white", style="filled",tooltip=" "];
  Node67 -> Node78 [color="midnightblue",fontsize="10",style="solid",fontname="Helvetica"];
  Node78 [label="xsd/cxx/tree/parsing\l/unsigned-byte.hxx",height=0.2,width=0.4,color="grey75", fillcolor="white", style="filled",tooltip=" "];
  Node67 -> Node79 [color="midnightblue",fontsize="10",style="solid",fontname="Helvetica"];
  Node79 [label="xsd/cxx/tree/parsing\l/short.hxx",height=0.2,width=0.4,color="grey75", fillcolor="white", style="filled",tooltip=" "];
  Node67 -> Node80 [color="midnightblue",fontsize="10",style="solid",fontname="Helvetica"];
  Node80 [label="xsd/cxx/tree/parsing\l/unsigned-short.hxx",height=0.2,width=0.4,color="grey75", fillcolor="white", style="filled",tooltip=" "];
  Node67 -> Node81 [color="midnightblue",fontsize="10",style="solid",fontname="Helvetica"];
  Node81 [label="xsd/cxx/tree/parsing\l/int.hxx",height=0.2,width=0.4,color="grey75", fillcolor="white", style="filled",tooltip=" "];
  Node67 -> Node82 [color="midnightblue",fontsize="10",style="solid",fontname="Helvetica"];
  Node82 [label="xsd/cxx/tree/parsing\l/unsigned-int.hxx",height=0.2,width=0.4,color="grey75", fillcolor="white", style="filled",tooltip=" "];
  Node67 -> Node83 [color="midnightblue",fontsize="10",style="solid",fontname="Helvetica"];
  Node83 [label="xsd/cxx/tree/parsing\l/long.hxx",height=0.2,width=0.4,color="grey75", fillcolor="white", style="filled",tooltip=" "];
  Node67 -> Node84 [color="midnightblue",fontsize="10",style="solid",fontname="Helvetica"];
  Node84 [label="xsd/cxx/tree/parsing\l/unsigned-long.hxx",height=0.2,width=0.4,color="grey75", fillcolor="white", style="filled",tooltip=" "];
  Node67 -> Node85 [color="midnightblue",fontsize="10",style="solid",fontname="Helvetica"];
  Node85 [label="xsd/cxx/tree/parsing\l/boolean.hxx",height=0.2,width=0.4,color="grey75", fillcolor="white", style="filled",tooltip=" "];
  Node67 -> Node86 [color="midnightblue",fontsize="10",style="solid",fontname="Helvetica"];
  Node86 [label="xsd/cxx/tree/parsing\l/float.hxx",height=0.2,width=0.4,color="grey75", fillcolor="white", style="filled",tooltip=" "];
  Node67 -> Node87 [color="midnightblue",fontsize="10",style="solid",fontname="Helvetica"];
  Node87 [label="xsd/cxx/tree/parsing\l/double.hxx",height=0.2,width=0.4,color="grey75", fillcolor="white", style="filled",tooltip=" "];
  Node67 -> Node88 [color="midnightblue",fontsize="10",style="solid",fontname="Helvetica"];
  Node88 [label="xsd/cxx/tree/parsing\l/decimal.hxx",height=0.2,width=0.4,color="grey75", fillcolor="white", style="filled",tooltip=" "];
  Node67 -> Node89 [color="midnightblue",fontsize="10",style="solid",fontname="Helvetica"];
  Node89 [label="xsd/cxx/xml/dom/serialization\l-header.hxx",height=0.2,width=0.4,color="grey75", fillcolor="white", style="filled",tooltip=" "];
  Node67 -> Node90 [color="midnightblue",fontsize="10",style="solid",fontname="Helvetica"];
  Node90 [label="xsd/cxx/tree/serialization.hxx",height=0.2,width=0.4,color="grey75", fillcolor="white", style="filled",tooltip=" "];
  Node67 -> Node91 [color="midnightblue",fontsize="10",style="solid",fontname="Helvetica"];
  Node91 [label="xsd/cxx/tree/serialization\l/byte.hxx",height=0.2,width=0.4,color="grey75", fillcolor="white", style="filled",tooltip=" "];
  Node67 -> Node92 [color="midnightblue",fontsize="10",style="solid",fontname="Helvetica"];
  Node92 [label="xsd/cxx/tree/serialization\l/unsigned-byte.hxx",height=0.2,width=0.4,color="grey75", fillcolor="white", style="filled",tooltip=" "];
  Node67 -> Node5 [color="midnightblue",fontsize="10",style="solid",fontname="Helvetica"];
  Node12 -> Node116 [color="midnightblue",fontsize="10",style="solid",fontname="Helvetica"];
  Node116 [label="ASNodeManager.h",height=0.2,width=0.4,color="red", fillcolor="white", style="filled",URL="$ASNodeManager_8h.html",tooltip=" "];
  Node116 -> Node40 [color="midnightblue",fontsize="10",style="solid",fontname="Helvetica"];
  Node12 -> Node119 [color="midnightblue",fontsize="10",style="solid",fontname="Helvetica"];
  Node119 [label="ASDelegatingVariable.h",height=0.2,width=0.4,color="red", fillcolor="white", style="filled",URL="$ASDelegatingVariable_8h.html",tooltip=" "];
  Node12 -> Node124 [color="midnightblue",fontsize="10",style="solid",fontname="Helvetica"];
  Node124 [label="ASSourceVariable.h",height=0.2,width=0.4,color="red", fillcolor="white", style="filled",URL="$ASSourceVariable_8h.html",tooltip=" "];
}
