digraph "/home/mludwig/cernLocal/projects/opcua-lxi-master/Meta/include/DStandardMetaData.h"
{
 // LATEX_PDF_SIZE
  edge [fontname="Helvetica",fontsize="10",labelfontname="Helvetica",labelfontsize="10"];
  node [fontname="Helvetica",fontsize="10",shape=record];
  Node1 [label="/home/mludwig/cernLocal\l/projects/opcua-lxi-master\l/Meta/include/DStandardMetaData.h",height=0.2,width=0.4,color="black", fillcolor="grey75", style="filled", fontcolor="black",tooltip=" "];
  Node1 -> Node2 [dir="back",color="midnightblue",fontsize="10",style="solid",fontname="Helvetica"];
  Node2 [label="/home/mludwig/cernLocal\l/projects/opcua-lxi-master\l/generatedSources/MetaAmalgamate.cpp",height=0.2,width=0.4,color="black", fillcolor="white", style="filled",URL="$MetaAmalgamate_8cpp.html",tooltip=" "];
  Node1 -> Node3 [dir="back",color="midnightblue",fontsize="10",style="solid",fontname="Helvetica"];
  Node3 [label="/home/mludwig/cernLocal\l/projects/opcua-lxi-master\l/Meta/include/Base_DSourceVariable\lThreadPool.h",height=0.2,width=0.4,color="black", fillcolor="white", style="filled",URL="$Base__DSourceVariableThreadPool_8h.html",tooltip=" "];
  Node3 -> Node2 [dir="back",color="midnightblue",fontsize="10",style="solid",fontname="Helvetica"];
  Node3 -> Node3 [dir="back",color="midnightblue",fontsize="10",style="solid",fontname="Helvetica"];
  Node3 -> Node4 [dir="back",color="midnightblue",fontsize="10",style="solid",fontname="Helvetica"];
  Node4 [label="/home/mludwig/cernLocal\l/projects/opcua-lxi-master\l/Meta/include/DSourceVariableThread\lPool.h",height=0.2,width=0.4,color="black", fillcolor="white", style="filled",URL="$DSourceVariableThreadPool_8h.html",tooltip=" "];
  Node4 -> Node2 [dir="back",color="midnightblue",fontsize="10",style="solid",fontname="Helvetica"];
  Node4 -> Node5 [dir="back",color="midnightblue",fontsize="10",style="solid",fontname="Helvetica"];
  Node5 [label="/home/mludwig/cernLocal\l/projects/opcua-lxi-master\l/Meta/src/ASSourceVariableThread\lPool.cpp",height=0.2,width=0.4,color="black", fillcolor="white", style="filled",URL="$ASSourceVariableThreadPool_8cpp.html",tooltip=" "];
  Node4 -> Node6 [dir="back",color="midnightblue",fontsize="10",style="solid",fontname="Helvetica"];
  Node6 [label="/home/mludwig/cernLocal\l/projects/opcua-lxi-master\l/Meta/src/DSourceVariableThreadPool.cpp",height=0.2,width=0.4,color="black", fillcolor="white", style="filled",URL="$DSourceVariableThreadPool_8cpp.html",tooltip=" "];
  Node4 -> Node7 [dir="back",color="midnightblue",fontsize="10",style="solid",fontname="Helvetica"];
  Node7 [label="/home/mludwig/cernLocal\l/projects/opcua-lxi-master\l/Meta/src/meta.cpp",height=0.2,width=0.4,color="black", fillcolor="white", style="filled",URL="$meta_8cpp.html",tooltip=" "];
  Node3 -> Node8 [dir="back",color="midnightblue",fontsize="10",style="solid",fontname="Helvetica"];
  Node8 [label="/home/mludwig/cernLocal\l/projects/opcua-lxi-master\l/Meta/src/Base_DSourceVariableThread\lPool.cpp",height=0.2,width=0.4,color="black", fillcolor="white", style="filled",URL="$Base__DSourceVariableThreadPool_8cpp.html",tooltip=" "];
  Node1 -> Node9 [dir="back",color="midnightblue",fontsize="10",style="solid",fontname="Helvetica"];
  Node9 [label="/home/mludwig/cernLocal\l/projects/opcua-lxi-master\l/Meta/include/meta.h",height=0.2,width=0.4,color="black", fillcolor="white", style="filled",URL="$meta_8h.html",tooltip=" "];
  Node9 -> Node10 [dir="back",color="midnightblue",fontsize="10",style="solid",fontname="Helvetica"];
  Node10 [label="/home/mludwig/cernLocal\l/projects/opcua-lxi-master\l/generatedSources/Configurator.cpp",height=0.2,width=0.4,color="black", fillcolor="white", style="filled",URL="$Configurator_8cpp.html",tooltip=" "];
  Node9 -> Node2 [dir="back",color="midnightblue",fontsize="10",style="solid",fontname="Helvetica"];
  Node9 -> Node7 [dir="back",color="midnightblue",fontsize="10",style="solid",fontname="Helvetica"];
  Node9 -> Node11 [dir="back",color="midnightblue",fontsize="10",style="solid",fontname="Helvetica"];
  Node11 [label="/home/mludwig/cernLocal\l/projects/opcua-lxi-master\l/Server/src/BaseQuasarServer.cpp",height=0.2,width=0.4,color="black", fillcolor="white", style="filled",URL="$BaseQuasarServer_8cpp.html",tooltip=" "];
  Node1 -> Node12 [dir="back",color="midnightblue",fontsize="10",style="solid",fontname="Helvetica"];
  Node12 [label="/home/mludwig/cernLocal\l/projects/opcua-lxi-master\l/Meta/src/ASStandardMetaData.cpp",height=0.2,width=0.4,color="black", fillcolor="white", style="filled",URL="$ASStandardMetaData_8cpp.html",tooltip=" "];
  Node1 -> Node13 [dir="back",color="midnightblue",fontsize="10",style="solid",fontname="Helvetica"];
  Node13 [label="/home/mludwig/cernLocal\l/projects/opcua-lxi-master\l/Meta/src/DStandardMetaData.cpp",height=0.2,width=0.4,color="black", fillcolor="white", style="filled",URL="$DStandardMetaData_8cpp.html",tooltip=" "];
  Node1 -> Node7 [dir="back",color="midnightblue",fontsize="10",style="solid",fontname="Helvetica"];
}
