digraph "/home/mludwig/cernLocal/projects/opcua-lxi-master/AddressSpace/src/FreeVariablesEngine.cpp"
{
 // LATEX_PDF_SIZE
  edge [fontname="Helvetica",fontsize="10",labelfontname="Helvetica",labelfontsize="10"];
  node [fontname="Helvetica",fontsize="10",shape=record];
  Node1 [label="/home/mludwig/cernLocal\l/projects/opcua-lxi-master\l/AddressSpace/src/FreeVariablesEngine.cpp",height=0.2,width=0.4,color="black", fillcolor="grey75", style="filled", fontcolor="black",tooltip=" "];
  Node1 -> Node2 [color="midnightblue",fontsize="10",style="solid",fontname="Helvetica"];
  Node2 [label="stdint.h",height=0.2,width=0.4,color="grey75", fillcolor="white", style="filled",tooltip=" "];
  Node1 -> Node3 [color="midnightblue",fontsize="10",style="solid",fontname="Helvetica"];
  Node3 [label="string",height=0.2,width=0.4,color="grey75", fillcolor="white", style="filled",tooltip=" "];
  Node1 -> Node4 [color="midnightblue",fontsize="10",style="solid",fontname="Helvetica"];
  Node4 [label="map",height=0.2,width=0.4,color="grey75", fillcolor="white", style="filled",tooltip=" "];
  Node1 -> Node5 [color="midnightblue",fontsize="10",style="solid",fontname="Helvetica"];
  Node5 [label="ASNodeManager.h",height=0.2,width=0.4,color="black", fillcolor="white", style="filled",URL="$ASNodeManager_8h.html",tooltip=" "];
  Node5 -> Node6 [color="midnightblue",fontsize="10",style="solid",fontname="Helvetica"];
  Node6 [label="functional",height=0.2,width=0.4,color="grey75", fillcolor="white", style="filled",tooltip=" "];
  Node5 -> Node7 [color="midnightblue",fontsize="10",style="solid",fontname="Helvetica"];
  Node7 [label="nodemanagerbase.h",height=0.2,width=0.4,color="black", fillcolor="white", style="filled",URL="$nodemanagerbase_8h.html",tooltip=" "];
  Node7 -> Node8 [color="midnightblue",fontsize="10",style="solid",fontname="Helvetica"];
  Node8 [label="statuscode.h",height=0.2,width=0.4,color="red", fillcolor="white", style="filled",URL="$statuscode_8h.html",tooltip=" "];
  Node8 -> Node9 [color="midnightblue",fontsize="10",style="solid",fontname="Helvetica"];
  Node9 [label="open62541.h",height=0.2,width=0.4,color="red", fillcolor="white", style="filled",URL="$generatedSources_2open62541_8h.html",tooltip=" "];
  Node9 -> Node21 [color="midnightblue",fontsize="10",style="solid",fontname="Helvetica"];
  Node21 [label="stdlib.h",height=0.2,width=0.4,color="grey75", fillcolor="white", style="filled",tooltip=" "];
  Node9 -> Node2 [color="midnightblue",fontsize="10",style="solid",fontname="Helvetica"];
  Node8 -> Node29 [color="midnightblue",fontsize="10",style="solid",fontname="Helvetica"];
  Node29 [label="uastring.h",height=0.2,width=0.4,color="red", fillcolor="white", style="filled",URL="$uastring_8h.html",tooltip=" "];
  Node29 -> Node9 [color="midnightblue",fontsize="10",style="solid",fontname="Helvetica"];
  Node29 -> Node3 [color="midnightblue",fontsize="10",style="solid",fontname="Helvetica"];
  Node8 -> Node31 [color="midnightblue",fontsize="10",style="solid",fontname="Helvetica"];
  Node31 [label="opcua_platformdefs.h",height=0.2,width=0.4,color="black", fillcolor="white", style="filled",URL="$opcua__platformdefs_8h.html",tooltip=" "];
  Node31 -> Node2 [color="midnightblue",fontsize="10",style="solid",fontname="Helvetica"];
  Node7 -> Node33 [color="midnightblue",fontsize="10",style="solid",fontname="Helvetica"];
  Node33 [label="uanode.h",height=0.2,width=0.4,color="black", fillcolor="white", style="filled",URL="$uanode_8h.html",tooltip=" "];
  Node33 -> Node34 [color="midnightblue",fontsize="10",style="solid",fontname="Helvetica"];
  Node34 [label="uanodeid.h",height=0.2,width=0.4,color="black", fillcolor="white", style="filled",URL="$uanodeid_8h.html",tooltip=" "];
  Node34 -> Node29 [color="midnightblue",fontsize="10",style="solid",fontname="Helvetica"];
  Node34 -> Node31 [color="midnightblue",fontsize="10",style="solid",fontname="Helvetica"];
  Node34 -> Node9 [color="midnightblue",fontsize="10",style="solid",fontname="Helvetica"];
  Node33 -> Node35 [color="midnightblue",fontsize="10",style="solid",fontname="Helvetica"];
  Node35 [label="other.h",height=0.2,width=0.4,color="black", fillcolor="white", style="filled",URL="$other_8h.html",tooltip=" "];
  Node35 -> Node9 [color="midnightblue",fontsize="10",style="solid",fontname="Helvetica"];
  Node35 -> Node29 [color="midnightblue",fontsize="10",style="solid",fontname="Helvetica"];
  Node33 -> Node36 [color="midnightblue",fontsize="10",style="solid",fontname="Helvetica"];
  Node36 [label="list",height=0.2,width=0.4,color="grey75", fillcolor="white", style="filled",tooltip=" "];
  Node7 -> Node35 [color="midnightblue",fontsize="10",style="solid",fontname="Helvetica"];
  Node5 -> Node37 [color="midnightblue",fontsize="10",style="solid",fontname="Helvetica"];
  Node37 [label="ASUtils.h",height=0.2,width=0.4,color="black", fillcolor="white", style="filled",URL="$ASUtils_8h.html",tooltip=" "];
  Node37 -> Node21 [color="midnightblue",fontsize="10",style="solid",fontname="Helvetica"];
  Node37 -> Node38 [color="midnightblue",fontsize="10",style="solid",fontname="Helvetica"];
  Node38 [label="iostream",height=0.2,width=0.4,color="grey75", fillcolor="white", style="filled",tooltip=" "];
  Node37 -> Node3 [color="midnightblue",fontsize="10",style="solid",fontname="Helvetica"];
  Node1 -> Node39 [color="midnightblue",fontsize="10",style="solid",fontname="Helvetica"];
  Node39 [label="FreeVariablesEngine.h",height=0.2,width=0.4,color="black", fillcolor="white", style="filled",URL="$FreeVariablesEngine_8h.html",tooltip=" "];
  Node39 -> Node34 [color="midnightblue",fontsize="10",style="solid",fontname="Helvetica"];
  Node39 -> Node40 [color="midnightblue",fontsize="10",style="solid",fontname="Helvetica"];
  Node40 [label="Configuration.hxx",height=0.2,width=0.4,color="red", fillcolor="white", style="filled",URL="$Configuration_8hxx.html",tooltip=" "];
  Node40 -> Node41 [color="midnightblue",fontsize="10",style="solid",fontname="Helvetica"];
  Node41 [label="xsd/cxx/config.hxx",height=0.2,width=0.4,color="grey75", fillcolor="white", style="filled",tooltip=" "];
  Node40 -> Node42 [color="midnightblue",fontsize="10",style="solid",fontname="Helvetica"];
  Node42 [label="xsd/cxx/pre.hxx",height=0.2,width=0.4,color="grey75", fillcolor="white", style="filled",tooltip=" "];
  Node40 -> Node43 [color="midnightblue",fontsize="10",style="solid",fontname="Helvetica"];
  Node43 [label="xsd/cxx/xml/char-utf8.hxx",height=0.2,width=0.4,color="grey75", fillcolor="white", style="filled",tooltip=" "];
  Node40 -> Node44 [color="midnightblue",fontsize="10",style="solid",fontname="Helvetica"];
  Node44 [label="xsd/cxx/tree/exceptions.hxx",height=0.2,width=0.4,color="grey75", fillcolor="white", style="filled",tooltip=" "];
  Node40 -> Node45 [color="midnightblue",fontsize="10",style="solid",fontname="Helvetica"];
  Node45 [label="xsd/cxx/tree/elements.hxx",height=0.2,width=0.4,color="grey75", fillcolor="white", style="filled",tooltip=" "];
  Node40 -> Node46 [color="midnightblue",fontsize="10",style="solid",fontname="Helvetica"];
  Node46 [label="xsd/cxx/tree/types.hxx",height=0.2,width=0.4,color="grey75", fillcolor="white", style="filled",tooltip=" "];
  Node40 -> Node47 [color="midnightblue",fontsize="10",style="solid",fontname="Helvetica"];
  Node47 [label="xsd/cxx/xml/error-handler.hxx",height=0.2,width=0.4,color="grey75", fillcolor="white", style="filled",tooltip=" "];
  Node40 -> Node48 [color="midnightblue",fontsize="10",style="solid",fontname="Helvetica"];
  Node48 [label="xsd/cxx/xml/dom/auto\l-ptr.hxx",height=0.2,width=0.4,color="grey75", fillcolor="white", style="filled",tooltip=" "];
  Node40 -> Node49 [color="midnightblue",fontsize="10",style="solid",fontname="Helvetica"];
  Node49 [label="xsd/cxx/tree/parsing.hxx",height=0.2,width=0.4,color="grey75", fillcolor="white", style="filled",tooltip=" "];
  Node40 -> Node50 [color="midnightblue",fontsize="10",style="solid",fontname="Helvetica"];
  Node50 [label="xsd/cxx/tree/parsing\l/byte.hxx",height=0.2,width=0.4,color="grey75", fillcolor="white", style="filled",tooltip=" "];
  Node40 -> Node51 [color="midnightblue",fontsize="10",style="solid",fontname="Helvetica"];
  Node51 [label="xsd/cxx/tree/parsing\l/unsigned-byte.hxx",height=0.2,width=0.4,color="grey75", fillcolor="white", style="filled",tooltip=" "];
  Node40 -> Node52 [color="midnightblue",fontsize="10",style="solid",fontname="Helvetica"];
  Node52 [label="xsd/cxx/tree/parsing\l/short.hxx",height=0.2,width=0.4,color="grey75", fillcolor="white", style="filled",tooltip=" "];
  Node40 -> Node53 [color="midnightblue",fontsize="10",style="solid",fontname="Helvetica"];
  Node53 [label="xsd/cxx/tree/parsing\l/unsigned-short.hxx",height=0.2,width=0.4,color="grey75", fillcolor="white", style="filled",tooltip=" "];
  Node40 -> Node54 [color="midnightblue",fontsize="10",style="solid",fontname="Helvetica"];
  Node54 [label="xsd/cxx/tree/parsing\l/int.hxx",height=0.2,width=0.4,color="grey75", fillcolor="white", style="filled",tooltip=" "];
  Node40 -> Node55 [color="midnightblue",fontsize="10",style="solid",fontname="Helvetica"];
  Node55 [label="xsd/cxx/tree/parsing\l/unsigned-int.hxx",height=0.2,width=0.4,color="grey75", fillcolor="white", style="filled",tooltip=" "];
  Node40 -> Node56 [color="midnightblue",fontsize="10",style="solid",fontname="Helvetica"];
  Node56 [label="xsd/cxx/tree/parsing\l/long.hxx",height=0.2,width=0.4,color="grey75", fillcolor="white", style="filled",tooltip=" "];
  Node40 -> Node57 [color="midnightblue",fontsize="10",style="solid",fontname="Helvetica"];
  Node57 [label="xsd/cxx/tree/parsing\l/unsigned-long.hxx",height=0.2,width=0.4,color="grey75", fillcolor="white", style="filled",tooltip=" "];
  Node40 -> Node58 [color="midnightblue",fontsize="10",style="solid",fontname="Helvetica"];
  Node58 [label="xsd/cxx/tree/parsing\l/boolean.hxx",height=0.2,width=0.4,color="grey75", fillcolor="white", style="filled",tooltip=" "];
  Node1 -> Node90 [color="midnightblue",fontsize="10",style="solid",fontname="Helvetica"];
  Node90 [label="ChangeNotifyingVariable.h",height=0.2,width=0.4,color="black", fillcolor="white", style="filled",URL="$ChangeNotifyingVariable_8h.html",tooltip=" "];
  Node90 -> Node91 [color="midnightblue",fontsize="10",style="solid",fontname="Helvetica"];
  Node91 [label="opcua_basedatavariabletype.h",height=0.2,width=0.4,color="red", fillcolor="white", style="filled",URL="$opcua__basedatavariabletype_8h.html",tooltip=" "];
  Node91 -> Node34 [color="midnightblue",fontsize="10",style="solid",fontname="Helvetica"];
  Node91 -> Node33 [color="midnightblue",fontsize="10",style="solid",fontname="Helvetica"];
  Node91 -> Node7 [color="midnightblue",fontsize="10",style="solid",fontname="Helvetica"];
  Node91 -> Node8 [color="midnightblue",fontsize="10",style="solid",fontname="Helvetica"];
  Node90 -> Node6 [color="midnightblue",fontsize="10",style="solid",fontname="Helvetica"];
  Node90 -> Node36 [color="midnightblue",fontsize="10",style="solid",fontname="Helvetica"];
  Node1 -> Node119 [color="midnightblue",fontsize="10",style="solid",fontname="Helvetica"];
  Node119 [label="Utils.h",height=0.2,width=0.4,color="black", fillcolor="white", style="filled",URL="$Utils_8h.html",tooltip=" "];
  Node119 -> Node102 [color="midnightblue",fontsize="10",style="solid",fontname="Helvetica"];
  Node102 [label="sstream",height=0.2,width=0.4,color="grey75", fillcolor="white", style="filled",tooltip=" "];
  Node119 -> Node120 [color="midnightblue",fontsize="10",style="solid",fontname="Helvetica"];
  Node120 [label="stdexcept",height=0.2,width=0.4,color="grey75", fillcolor="white", style="filled",tooltip=" "];
  Node1 -> Node121 [color="midnightblue",fontsize="10",style="solid",fontname="Helvetica"];
  Node121 [label="CalculatedVariablesEngine.h",height=0.2,width=0.4,color="black", fillcolor="white", style="filled",URL="$CalculatedVariablesEngine_8h.html",tooltip=" "];
  Node121 -> Node36 [color="midnightblue",fontsize="10",style="solid",fontname="Helvetica"];
  Node121 -> Node34 [color="midnightblue",fontsize="10",style="solid",fontname="Helvetica"];
  Node121 -> Node40 [color="midnightblue",fontsize="10",style="solid",fontname="Helvetica"];
  Node121 -> Node122 [color="midnightblue",fontsize="10",style="solid",fontname="Helvetica"];
  Node122 [label="ParserVariable.h",height=0.2,width=0.4,color="red", fillcolor="white", style="filled",URL="$ParserVariable_8h.html",tooltip=" "];
  Node122 -> Node3 [color="midnightblue",fontsize="10",style="solid",fontname="Helvetica"];
  Node122 -> Node36 [color="midnightblue",fontsize="10",style="solid",fontname="Helvetica"];
  Node1 -> Node99 [color="midnightblue",fontsize="10",style="solid",fontname="Helvetica"];
  Node99 [label="LogIt.h",height=0.2,width=0.4,color="black", fillcolor="white", style="filled",URL="$LogIt_8h.html",tooltip=" "];
  Node99 -> Node2 [color="midnightblue",fontsize="10",style="solid",fontname="Helvetica"];
  Node99 -> Node38 [color="midnightblue",fontsize="10",style="solid",fontname="Helvetica"];
  Node99 -> Node36 [color="midnightblue",fontsize="10",style="solid",fontname="Helvetica"];
  Node99 -> Node100 [color="midnightblue",fontsize="10",style="solid",fontname="Helvetica"];
  Node100 [label="LogItStaticDefinitions.h",height=0.2,width=0.4,color="black", fillcolor="white", style="filled",URL="$LogItStaticDefinitions_8h.html",tooltip=" "];
  Node99 -> Node101 [color="midnightblue",fontsize="10",style="solid",fontname="Helvetica"];
  Node101 [label="LogRecord.h",height=0.2,width=0.4,color="black", fillcolor="white", style="filled",URL="$LogRecord_8h.html",tooltip=" "];
  Node101 -> Node2 [color="midnightblue",fontsize="10",style="solid",fontname="Helvetica"];
  Node101 -> Node102 [color="midnightblue",fontsize="10",style="solid",fontname="Helvetica"];
  Node101 -> Node103 [color="midnightblue",fontsize="10",style="solid",fontname="Helvetica"];
  Node103 [label="LogLevels.h",height=0.2,width=0.4,color="black", fillcolor="white", style="filled",URL="$LogLevels_8h.html",tooltip=" "];
  Node103 -> Node3 [color="midnightblue",fontsize="10",style="solid",fontname="Helvetica"];
  Node101 -> Node100 [color="midnightblue",fontsize="10",style="solid",fontname="Helvetica"];
  Node99 -> Node103 [color="midnightblue",fontsize="10",style="solid",fontname="Helvetica"];
  Node99 -> Node104 [color="midnightblue",fontsize="10",style="solid",fontname="Helvetica"];
  Node104 [label="LogItInstance.h",height=0.2,width=0.4,color="red", fillcolor="white", style="filled",URL="$LogItInstance_8h.html",tooltip=" "];
  Node104 -> Node4 [color="midnightblue",fontsize="10",style="solid",fontname="Helvetica"];
  Node104 -> Node100 [color="midnightblue",fontsize="10",style="solid",fontname="Helvetica"];
  Node104 -> Node103 [color="midnightblue",fontsize="10",style="solid",fontname="Helvetica"];
}
