digraph "UA_Client_sendAsyncRequest"
{
 // LATEX_PDF_SIZE
  edge [fontname="Helvetica",fontsize="10",labelfontname="Helvetica",labelfontsize="10"];
  node [fontname="Helvetica",fontsize="10",shape=record];
  rankdir="LR";
  Node1 [label="UA_Client_sendAsyncRequest",height=0.2,width=0.4,color="black", fillcolor="grey75", style="filled", fontcolor="black",tooltip=" "];
  Node1 -> Node2 [color="midnightblue",fontsize="10",style="solid",fontname="Helvetica"];
  Node2 [label="__UA_Client_AsyncService",height=0.2,width=0.4,color="black", fillcolor="white", style="filled",URL="$open62541_8c.html#ad78231c45e627fe56021d7b36470818c",tooltip=" "];
  Node2 -> Node3 [color="midnightblue",fontsize="10",style="solid",fontname="Helvetica"];
  Node3 [label="__UA_Client_AsyncServiceEx",height=0.2,width=0.4,color="black", fillcolor="white", style="filled",URL="$open62541_8c.html#afe89ec5227d18cb15649a04437ed57d3",tooltip=" "];
  Node1 -> Node4 [color="midnightblue",fontsize="10",style="solid",fontname="Helvetica"];
  Node4 [label="UA_Client_getState",height=0.2,width=0.4,color="black", fillcolor="white", style="filled",URL="$open62541_8c.html#a8a1ed871019c73f861b60e2c8593b32e",tooltip=" "];
}
