digraph "UA_UInt32_random"
{
 // LATEX_PDF_SIZE
  edge [fontname="Helvetica",fontsize="10",labelfontname="Helvetica",labelfontsize="10"];
  node [fontname="Helvetica",fontsize="10",shape=record];
  rankdir="LR";
  Node1 [label="UA_UInt32_random",height=0.2,width=0.4,color="black", fillcolor="grey75", style="filled", fontcolor="black",tooltip=" "];
  Node1 -> Node2 [color="midnightblue",fontsize="10",style="solid",fontname="Helvetica"];
  Node2 [label="pcg32_random_r",height=0.2,width=0.4,color="black", fillcolor="white", style="filled",URL="$open62541_8c.html#a6ffafd643e056204994d5b80b6f83668",tooltip=" "];
}
