digraph "UA_Client_changeRepeatedCallbackInterval"
{
 // LATEX_PDF_SIZE
  edge [fontname="Helvetica",fontsize="10",labelfontname="Helvetica",labelfontsize="10"];
  node [fontname="Helvetica",fontsize="10",shape=record];
  rankdir="LR";
  Node1 [label="UA_Client_changeRepeated\lCallbackInterval",height=0.2,width=0.4,color="black", fillcolor="grey75", style="filled", fontcolor="black",tooltip=" "];
  Node1 -> Node2 [color="midnightblue",fontsize="10",style="solid",fontname="Helvetica"];
  Node2 [label="UA_Timer_changeRepeatedCallback\lInterval",height=0.2,width=0.4,color="black", fillcolor="white", style="filled",URL="$open62541_8c.html#a1fc9da79f0c9454a6e562086d73dbcca",tooltip=" "];
  Node2 -> Node3 [color="midnightblue",fontsize="10",style="solid",fontname="Helvetica"];
  Node3 [label="UA_DateTime_nowMonotonic",height=0.2,width=0.4,color="black", fillcolor="white", style="filled",URL="$generatedSources_2open62541_8h.html#a4729b2c4355acebccaa4c9ee9c3ab813",tooltip=" "];
}
