digraph "UA_ServerConfig_addSecurityPolicyNone"
{
 // LATEX_PDF_SIZE
  edge [fontname="Helvetica",fontsize="10",labelfontname="Helvetica",labelfontsize="10"];
  node [fontname="Helvetica",fontsize="10",shape=record];
  rankdir="LR";
  Node1 [label="UA_ServerConfig_addSecurity\lPolicyNone",height=0.2,width=0.4,color="black", fillcolor="grey75", style="filled", fontcolor="black",tooltip=" "];
  Node1 -> Node2 [color="midnightblue",fontsize="10",style="solid",fontname="Helvetica"];
  Node2 [label="UA_SecurityPolicy_None",height=0.2,width=0.4,color="black", fillcolor="white", style="filled",URL="$open62541_8c.html#a78763ae09ae9fb03d5834b5241f9000f",tooltip=" "];
}
