digraph "UA_ByteString_toBase64String"
{
 // LATEX_PDF_SIZE
  edge [fontname="Helvetica",fontsize="10",labelfontname="Helvetica",labelfontsize="10"];
  node [fontname="Helvetica",fontsize="10",shape=record];
  rankdir="LR";
  Node1 [label="UA_ByteString_toBase64String",height=0.2,width=0.4,color="black", fillcolor="grey75", style="filled", fontcolor="black",tooltip=" "];
  Node1 -> Node2 [color="midnightblue",fontsize="10",style="solid",fontname="Helvetica"];
  Node2 [label="UA_base64",height=0.2,width=0.4,color="black", fillcolor="white", style="filled",URL="$open62541_8c.html#a80760de64399c59481dde358f2453f94",tooltip=" "];
  Node2 -> Node3 [color="midnightblue",fontsize="10",style="solid",fontname="Helvetica"];
  Node3 [label="in",height=0.2,width=0.4,color="black", fillcolor="white", style="filled",URL="$quickstart_8rst_8txt.html#a1c372101441826d1163cc31c85e636f7",tooltip=" "];
}
