digraph "UA_Server_removeCallback"
{
 // LATEX_PDF_SIZE
  edge [fontname="Helvetica",fontsize="10",labelfontname="Helvetica",labelfontsize="10"];
  node [fontname="Helvetica",fontsize="10",shape=record];
  rankdir="LR";
  Node1 [label="UA_Server_removeCallback",height=0.2,width=0.4,color="black", fillcolor="grey75", style="filled", fontcolor="black",tooltip=" "];
  Node1 -> Node2 [color="midnightblue",fontsize="10",style="solid",fontname="Helvetica"];
  Node2 [label="UA_Timer_removeCallback",height=0.2,width=0.4,color="black", fillcolor="white", style="filled",URL="$open62541_8c.html#ae504cae780f667d314c5ab3fc70adc06",tooltip=" "];
}
