digraph "UA_Server_browseRecursive"
{
 // LATEX_PDF_SIZE
  edge [fontname="Helvetica",fontsize="10",labelfontname="Helvetica",labelfontsize="10"];
  node [fontname="Helvetica",fontsize="10",shape=record];
  rankdir="LR";
  Node1 [label="UA_Server_browseRecursive",height=0.2,width=0.4,color="black", fillcolor="grey75", style="filled", fontcolor="black",tooltip=" "];
  Node1 -> Node2 [color="midnightblue",fontsize="10",style="solid",fontname="Helvetica"];
  Node2 [label="browseRecursive",height=0.2,width=0.4,color="black", fillcolor="white", style="filled",URL="$open62541_8c.html#a32d2ad89c4936afa02771ee3c9bbf275",tooltip=" "];
  Node1 -> Node3 [color="midnightblue",fontsize="10",style="solid",fontname="Helvetica"];
  Node3 [label="referenceSubtypes",height=0.2,width=0.4,color="black", fillcolor="white", style="filled",URL="$open62541_8c.html#adda2cf841f54c0ad34600d32616c1f72",tooltip=" "];
  Node3 -> Node4 [color="midnightblue",fontsize="10",style="solid",fontname="Helvetica"];
  Node4 [label="UA_NodeId_isNull",height=0.2,width=0.4,color="black", fillcolor="white", style="filled",URL="$open62541_8c.html#a5d5eb7e9d541654965cdd0e43efadb73",tooltip=" "];
  Node4 -> Node5 [color="midnightblue",fontsize="10",style="solid",fontname="Helvetica"];
  Node5 [label="UA_Guid_equal",height=0.2,width=0.4,color="black", fillcolor="white", style="filled",URL="$open62541_8c.html#aeadb12f99531c38134d0ad28a8dd3186",tooltip=" "];
  Node4 -> Node6 [color="midnightblue",fontsize="10",style="solid",fontname="Helvetica"];
  Node6 [label="UA_String_equal",height=0.2,width=0.4,color="black", fillcolor="white", style="filled",URL="$open62541_8c.html#a1eae0133787497837706d72ad647b39d",tooltip=" "];
  Node1 -> Node7 [color="midnightblue",fontsize="10",style="solid",fontname="Helvetica"];
  Node7 [label="UA_Array_delete",height=0.2,width=0.4,color="black", fillcolor="white", style="filled",URL="$open62541_8c.html#a05af722df9c9a11fd6b497a7a35b8cdb",tooltip=" "];
  Node7 -> Node8 [color="midnightblue",fontsize="10",style="solid",fontname="Helvetica"];
  Node8 [label="UA_clear",height=0.2,width=0.4,color="black", fillcolor="white", style="filled",URL="$open62541_8c.html#ab615e6928fa544fb7caf34c9e241fd4b",tooltip=" "];
  Node1 -> Node4 [color="midnightblue",fontsize="10",style="solid",fontname="Helvetica"];
}
