digraph "/home/mludwig/cernLocal/projects/opcua-lxi-master/LogIt/include/LogItInstance.h"
{
 // LATEX_PDF_SIZE
  edge [fontname="Helvetica",fontsize="10",labelfontname="Helvetica",labelfontsize="10"];
  node [fontname="Helvetica",fontsize="10",shape=record];
  Node1 [label="/home/mludwig/cernLocal\l/projects/opcua-lxi-master\l/LogIt/include/LogItInstance.h",height=0.2,width=0.4,color="black", fillcolor="grey75", style="filled", fontcolor="black",tooltip=" "];
  Node1 -> Node2 [dir="back",color="midnightblue",fontsize="10",style="solid",fontname="Helvetica"];
  Node2 [label="/home/mludwig/cernLocal\l/projects/opcua-lxi-master\l/LogIt/include/LogIt.h",height=0.2,width=0.4,color="black", fillcolor="white", style="filled",URL="$LogIt_8h.html",tooltip=" "];
  Node2 -> Node3 [dir="back",color="midnightblue",fontsize="10",style="solid",fontname="Helvetica"];
  Node3 [label="/home/mludwig/cernLocal\l/projects/opcua-lxi-master\l/AddressSpace/include/ASDelegating\lMethod.h",height=0.2,width=0.4,color="black", fillcolor="white", style="filled",URL="$ASDelegatingMethod_8h.html",tooltip=" "];
  Node3 -> Node4 [dir="back",color="midnightblue",fontsize="10",style="solid",fontname="Helvetica"];
  Node4 [label="/home/mludwig/cernLocal\l/projects/opcua-lxi-master\l/generatedSources/ASChannel.h",height=0.2,width=0.4,color="black", fillcolor="white", style="filled",URL="$ASChannel_8h.html",tooltip=" "];
  Node4 -> Node5 [dir="back",color="midnightblue",fontsize="10",style="solid",fontname="Helvetica"];
  Node5 [label="/home/mludwig/cernLocal\l/projects/opcua-lxi-master\l/Device/src/DChannel.cpp",height=0.2,width=0.4,color="black", fillcolor="white", style="filled",URL="$DChannel_8cpp.html",tooltip=" "];
  Node4 -> Node6 [dir="back",color="midnightblue",fontsize="10",style="solid",fontname="Helvetica"];
  Node6 [label="/home/mludwig/cernLocal\l/projects/opcua-lxi-master\l/Device/src/DPowerSupply.cpp",height=0.2,width=0.4,color="black", fillcolor="white", style="filled",URL="$DPowerSupply_8cpp.html",tooltip=" "];
  Node4 -> Node7 [dir="back",color="midnightblue",fontsize="10",style="solid",fontname="Helvetica"];
  Node7 [label="/home/mludwig/cernLocal\l/projects/opcua-lxi-master\l/generatedSources/AddressSpaceClasses.cpp",height=0.2,width=0.4,color="black", fillcolor="white", style="filled",URL="$AddressSpaceClasses_8cpp.html",tooltip=" "];
  Node4 -> Node8 [dir="back",color="midnightblue",fontsize="10",style="solid",fontname="Helvetica"];
  Node8 [label="/home/mludwig/cernLocal\l/projects/opcua-lxi-master\l/generatedSources/Configurator.cpp",height=0.2,width=0.4,color="black", fillcolor="white", style="filled",URL="$Configurator_8cpp.html",tooltip=" "];
  Node3 -> Node9 [dir="back",color="midnightblue",fontsize="10",style="solid",fontname="Helvetica"];
  Node9 [label="/home/mludwig/cernLocal\l/projects/opcua-lxi-master\l/generatedSources/ASLxiAbstraction.h",height=0.2,width=0.4,color="red", fillcolor="white", style="filled",URL="$ASLxiAbstraction_8h.html",tooltip=" "];
  Node9 -> Node7 [dir="back",color="midnightblue",fontsize="10",style="solid",fontname="Helvetica"];
  Node9 -> Node8 [dir="back",color="midnightblue",fontsize="10",style="solid",fontname="Helvetica"];
  Node3 -> Node11 [dir="back",color="midnightblue",fontsize="10",style="solid",fontname="Helvetica"];
  Node11 [label="/home/mludwig/cernLocal\l/projects/opcua-lxi-master\l/generatedSources/ASLxiCommand.h",height=0.2,width=0.4,color="red", fillcolor="white", style="filled",URL="$ASLxiCommand_8h.html",tooltip=" "];
  Node11 -> Node7 [dir="back",color="midnightblue",fontsize="10",style="solid",fontname="Helvetica"];
  Node11 -> Node8 [dir="back",color="midnightblue",fontsize="10",style="solid",fontname="Helvetica"];
  Node11 -> Node13 [dir="back",color="midnightblue",fontsize="10",style="solid",fontname="Helvetica"];
  Node13 [label="/home/mludwig/cernLocal\l/projects/opcua-lxi-master\l/Server/src/QuasarServer.cpp",height=0.2,width=0.4,color="black", fillcolor="white", style="filled",URL="$QuasarServer_8cpp.html",tooltip=" "];
  Node3 -> Node14 [dir="back",color="midnightblue",fontsize="10",style="solid",fontname="Helvetica"];
  Node14 [label="/home/mludwig/cernLocal\l/projects/opcua-lxi-master\l/generatedSources/ASPowerSupply.h",height=0.2,width=0.4,color="black", fillcolor="white", style="filled",URL="$ASPowerSupply_8h.html",tooltip=" "];
  Node14 -> Node6 [dir="back",color="midnightblue",fontsize="10",style="solid",fontname="Helvetica"];
  Node14 -> Node7 [dir="back",color="midnightblue",fontsize="10",style="solid",fontname="Helvetica"];
  Node14 -> Node8 [dir="back",color="midnightblue",fontsize="10",style="solid",fontname="Helvetica"];
  Node14 -> Node13 [dir="back",color="midnightblue",fontsize="10",style="solid",fontname="Helvetica"];
  Node3 -> Node15 [dir="back",color="midnightblue",fontsize="10",style="solid",fontname="Helvetica"];
  Node15 [label="/home/mludwig/cernLocal\l/projects/opcua-lxi-master\l/generatedSources/ASStatusCh.h",height=0.2,width=0.4,color="red", fillcolor="white", style="filled",URL="$ASStatusCh_8h.html",tooltip=" "];
  Node15 -> Node7 [dir="back",color="midnightblue",fontsize="10",style="solid",fontname="Helvetica"];
  Node15 -> Node8 [dir="back",color="midnightblue",fontsize="10",style="solid",fontname="Helvetica"];
  Node3 -> Node17 [dir="back",color="midnightblue",fontsize="10",style="solid",fontname="Helvetica"];
  Node17 [label="/home/mludwig/cernLocal\l/projects/opcua-lxi-master\l/generatedSources/ASStatusPs.h",height=0.2,width=0.4,color="red", fillcolor="white", style="filled",URL="$ASStatusPs_8h.html",tooltip=" "];
  Node17 -> Node7 [dir="back",color="midnightblue",fontsize="10",style="solid",fontname="Helvetica"];
  Node17 -> Node8 [dir="back",color="midnightblue",fontsize="10",style="solid",fontname="Helvetica"];
  Node3 -> Node19 [dir="back",color="midnightblue",fontsize="10",style="solid",fontname="Helvetica"];
  Node19 [label="/home/mludwig/cernLocal\l/projects/opcua-lxi-master\l/Meta/include/ASBuildInformation.h",height=0.2,width=0.4,color="red", fillcolor="white", style="filled",URL="$ASBuildInformation_8h.html",tooltip=" "];
  Node19 -> Node20 [dir="back",color="midnightblue",fontsize="10",style="solid",fontname="Helvetica"];
  Node20 [label="/home/mludwig/cernLocal\l/projects/opcua-lxi-master\l/generatedSources/MetaAmalgamate.cpp",height=0.2,width=0.4,color="black", fillcolor="white", style="filled",URL="$MetaAmalgamate_8cpp.html",tooltip=" "];
  Node19 -> Node23 [dir="back",color="midnightblue",fontsize="10",style="solid",fontname="Helvetica"];
  Node23 [label="/home/mludwig/cernLocal\l/projects/opcua-lxi-master\l/Meta/src/meta.cpp",height=0.2,width=0.4,color="black", fillcolor="white", style="filled",URL="$meta_8cpp.html",tooltip=" "];
  Node2 -> Node24 [dir="back",color="midnightblue",fontsize="10",style="solid",fontname="Helvetica"];
  Node24 [label="/home/mludwig/cernLocal\l/projects/opcua-lxi-master\l/AddressSpace/src/ASSourceVariable\lIoManager.cpp",height=0.2,width=0.4,color="black", fillcolor="white", style="filled",URL="$ASSourceVariableIoManager_8cpp.html",tooltip=" "];
  Node2 -> Node25 [dir="back",color="midnightblue",fontsize="10",style="solid",fontname="Helvetica"];
  Node25 [label="/home/mludwig/cernLocal\l/projects/opcua-lxi-master\l/AddressSpace/src/ChangeNotifying\lVariable.cpp",height=0.2,width=0.4,color="black", fillcolor="white", style="filled",URL="$ChangeNotifyingVariable_8cpp.html",tooltip=" "];
  Node2 -> Node26 [dir="back",color="midnightblue",fontsize="10",style="solid",fontname="Helvetica"];
  Node26 [label="/home/mludwig/cernLocal\l/projects/opcua-lxi-master\l/AddressSpace/src/FreeVariablesEngine.cpp",height=0.2,width=0.4,color="black", fillcolor="white", style="filled",URL="$FreeVariablesEngine_8cpp.html",tooltip=" "];
  Node2 -> Node27 [dir="back",color="midnightblue",fontsize="10",style="solid",fontname="Helvetica"];
  Node27 [label="/home/mludwig/cernLocal\l/projects/opcua-lxi-master\l/CalculatedVariables/src\l/CalculatedVariable.cpp",height=0.2,width=0.4,color="black", fillcolor="white", style="filled",URL="$CalculatedVariable_8cpp.html",tooltip=" "];
  Node2 -> Node28 [dir="back",color="midnightblue",fontsize="10",style="solid",fontname="Helvetica"];
  Node28 [label="/home/mludwig/cernLocal\l/projects/opcua-lxi-master\l/CalculatedVariables/src\l/CalculatedVariablesChangeListener.cpp",height=0.2,width=0.4,color="black", fillcolor="white", style="filled",URL="$CalculatedVariablesChangeListener_8cpp.html",tooltip=" "];
  Node2 -> Node29 [dir="back",color="midnightblue",fontsize="10",style="solid",fontname="Helvetica"];
  Node29 [label="/home/mludwig/cernLocal\l/projects/opcua-lxi-master\l/CalculatedVariables/src\l/CalculatedVariablesEngine.cpp",height=0.2,width=0.4,color="black", fillcolor="white", style="filled",URL="$CalculatedVariablesEngine_8cpp.html",tooltip=" "];
  Node2 -> Node30 [dir="back",color="midnightblue",fontsize="10",style="solid",fontname="Helvetica"];
  Node30 [label="/home/mludwig/cernLocal\l/projects/opcua-lxi-master\l/CalculatedVariables/src\l/ParserVariable.cpp",height=0.2,width=0.4,color="black", fillcolor="white", style="filled",URL="$ParserVariable_8cpp.html",tooltip=" "];
  Node2 -> Node31 [dir="back",color="midnightblue",fontsize="10",style="solid",fontname="Helvetica"];
  Node31 [label="/home/mludwig/cernLocal\l/projects/opcua-lxi-master\l/Common/src/QuasarThreadPool.cpp",height=0.2,width=0.4,color="black", fillcolor="white", style="filled",URL="$QuasarThreadPool_8cpp.html",tooltip=" "];
  Node2 -> Node32 [dir="back",color="midnightblue",fontsize="10",style="solid",fontname="Helvetica"];
  Node32 [label="/home/mludwig/cernLocal\l/projects/opcua-lxi-master\l/generatedSources/ASInformationModel.cpp",height=0.2,width=0.4,color="black", fillcolor="white", style="filled",URL="$ASInformationModel_8cpp.html",tooltip=" "];
  Node2 -> Node8 [dir="back",color="midnightblue",fontsize="10",style="solid",fontname="Helvetica"];
  Node2 -> Node33 [dir="back",color="midnightblue",fontsize="10",style="solid",fontname="Helvetica"];
  Node33 [label="/home/mludwig/cernLocal\l/projects/opcua-lxi-master\l/generatedSources/DRoot.cpp",height=0.2,width=0.4,color="black", fillcolor="white", style="filled",URL="$DRoot_8cpp.html",tooltip=" "];
  Node2 -> Node20 [dir="back",color="midnightblue",fontsize="10",style="solid",fontname="Helvetica"];
  Node2 -> Node34 [dir="back",color="midnightblue",fontsize="10",style="solid",fontname="Helvetica"];
  Node34 [label="/home/mludwig/cernLocal\l/projects/opcua-lxi-master\l/generatedSources/open62541\l_compat.h",height=0.2,width=0.4,color="black", fillcolor="white", style="filled",URL="$open62541__compat_8h.html",tooltip=" "];
  Node34 -> Node35 [dir="back",color="midnightblue",fontsize="10",style="solid",fontname="Helvetica"];
  Node35 [label="/home/mludwig/cernLocal\l/projects/opcua-lxi-master\l/generatedSources/opcua_basedatavariabletype.h",height=0.2,width=0.4,color="red", fillcolor="white", style="filled",URL="$opcua__basedatavariabletype_8h.html",tooltip=" "];
  Node35 -> Node34 [dir="back",color="midnightblue",fontsize="10",style="solid",fontname="Helvetica"];
  Node35 -> Node19 [dir="back",color="midnightblue",fontsize="10",style="solid",fontname="Helvetica"];
  Node34 -> Node71 [dir="back",color="midnightblue",fontsize="10",style="solid",fontname="Helvetica"];
  Node71 [label="/home/mludwig/cernLocal\l/projects/opcua-lxi-master\l/generatedSources/open62541\l_compat.cpp",height=0.2,width=0.4,color="black", fillcolor="white", style="filled",URL="$open62541__compat_8cpp.html",tooltip=" "];
  Node34 -> Node72 [dir="back",color="midnightblue",fontsize="10",style="solid",fontname="Helvetica"];
  Node72 [label="/home/mludwig/cernLocal\l/projects/opcua-lxi-master\l/generatedSources/uastring.cpp",height=0.2,width=0.4,color="black", fillcolor="white", style="filled",URL="$uastring_8cpp.html",tooltip=" "];
  Node34 -> Node73 [dir="back",color="midnightblue",fontsize="10",style="solid",fontname="Helvetica"];
  Node73 [label="/home/mludwig/cernLocal\l/projects/opcua-lxi-master\l/generatedSources/uavariant.cpp",height=0.2,width=0.4,color="black", fillcolor="white", style="filled",URL="$uavariant_8cpp.html",tooltip=" "];
  Node2 -> Node74 [dir="back",color="midnightblue",fontsize="10",style="solid",fontname="Helvetica"];
  Node74 [label="/home/mludwig/cernLocal\l/projects/opcua-lxi-master\l/generatedSources/SourceVariables.cpp",height=0.2,width=0.4,color="black", fillcolor="white", style="filled",URL="$SourceVariables_8cpp.html",tooltip=" "];
  Node2 -> Node75 [dir="back",color="midnightblue",fontsize="10",style="solid",fontname="Helvetica"];
  Node75 [label="/home/mludwig/cernLocal\l/projects/opcua-lxi-master\l/generatedSources/uadatavalue.cpp",height=0.2,width=0.4,color="black", fillcolor="white", style="filled",URL="$uadatavalue_8cpp.html",tooltip=" "];
  Node2 -> Node76 [dir="back",color="midnightblue",fontsize="10",style="solid",fontname="Helvetica"];
  Node76 [label="/home/mludwig/cernLocal\l/projects/opcua-lxi-master\l/generatedSources/uaserver.cpp",height=0.2,width=0.4,color="black", fillcolor="white", style="filled",URL="$uaserver_8cpp.html",tooltip=" "];
  Node2 -> Node77 [dir="back",color="midnightblue",fontsize="10",style="solid",fontname="Helvetica"];
  Node77 [label="/home/mludwig/cernLocal\l/projects/opcua-lxi-master\l/generatedSources/uasession.cpp",height=0.2,width=0.4,color="black", fillcolor="white", style="filled",URL="$uasession_8cpp.html",tooltip=" "];
  Node2 -> Node78 [dir="back",color="midnightblue",fontsize="10",style="solid",fontname="Helvetica"];
  Node78 [label="/home/mludwig/cernLocal\l/projects/opcua-lxi-master\l/LogIt/src/LogIt.cpp",height=0.2,width=0.4,color="black", fillcolor="white", style="filled",URL="$LogIt_8cpp.html",tooltip=" "];
  Node2 -> Node79 [dir="back",color="midnightblue",fontsize="10",style="solid",fontname="Helvetica"];
  Node79 [label="/home/mludwig/cernLocal\l/projects/opcua-lxi-master\l/LogIt/src/LogLevels.cpp",height=0.2,width=0.4,color="black", fillcolor="white", style="filled",URL="$LogLevels_8cpp.html",tooltip=" "];
  Node2 -> Node80 [dir="back",color="midnightblue",fontsize="10",style="solid",fontname="Helvetica"];
  Node80 [label="/home/mludwig/cernLocal\l/projects/opcua-lxi-master\l/LogIt/src/LogRecord.cpp",height=0.2,width=0.4,color="black", fillcolor="white", style="filled",URL="$LogRecord_8cpp.html",tooltip=" "];
  Node2 -> Node81 [dir="back",color="midnightblue",fontsize="10",style="solid",fontname="Helvetica"];
  Node81 [label="/home/mludwig/cernLocal\l/projects/opcua-lxi-master\l/LxiCommunication/include\l/LxiComm.h",height=0.2,width=0.4,color="black", fillcolor="white", style="filled",URL="$LxiComm_8h.html",tooltip=" "];
  Node81 -> Node82 [dir="back",color="midnightblue",fontsize="10",style="solid",fontname="Helvetica"];
  Node82 [label="/home/mludwig/cernLocal\l/projects/opcua-lxi-master\l/Device/include/DChannel.h",height=0.2,width=0.4,color="red", fillcolor="white", style="filled",URL="$DChannel_8h.html",tooltip=" "];
  Node82 -> Node83 [dir="back",color="midnightblue",fontsize="10",style="solid",fontname="Helvetica"];
  Node83 [label="/home/mludwig/cernLocal\l/projects/opcua-lxi-master\l/Device/include/DPowerSupply.h",height=0.2,width=0.4,color="red", fillcolor="white", style="filled",URL="$DPowerSupply_8h.html",tooltip=" "];
  Node83 -> Node5 [dir="back",color="midnightblue",fontsize="10",style="solid",fontname="Helvetica"];
  Node83 -> Node6 [dir="back",color="midnightblue",fontsize="10",style="solid",fontname="Helvetica"];
  Node83 -> Node7 [dir="back",color="midnightblue",fontsize="10",style="solid",fontname="Helvetica"];
  Node83 -> Node8 [dir="back",color="midnightblue",fontsize="10",style="solid",fontname="Helvetica"];
  Node83 -> Node33 [dir="back",color="midnightblue",fontsize="10",style="solid",fontname="Helvetica"];
  Node83 -> Node74 [dir="back",color="midnightblue",fontsize="10",style="solid",fontname="Helvetica"];
  Node83 -> Node13 [dir="back",color="midnightblue",fontsize="10",style="solid",fontname="Helvetica"];
  Node82 -> Node5 [dir="back",color="midnightblue",fontsize="10",style="solid",fontname="Helvetica"];
  Node82 -> Node6 [dir="back",color="midnightblue",fontsize="10",style="solid",fontname="Helvetica"];
  Node82 -> Node7 [dir="back",color="midnightblue",fontsize="10",style="solid",fontname="Helvetica"];
  Node82 -> Node8 [dir="back",color="midnightblue",fontsize="10",style="solid",fontname="Helvetica"];
  Node82 -> Node74 [dir="back",color="midnightblue",fontsize="10",style="solid",fontname="Helvetica"];
  Node81 -> Node83 [dir="back",color="midnightblue",fontsize="10",style="solid",fontname="Helvetica"];
  Node81 -> Node86 [dir="back",color="midnightblue",fontsize="10",style="solid",fontname="Helvetica"];
  Node86 [label="/home/mludwig/cernLocal\l/projects/opcua-lxi-master\l/LxiCommunication/src/LxiComm.cpp",height=0.2,width=0.4,color="black", fillcolor="white", style="filled",URL="$LxiComm_8cpp.html",tooltip=" "];
  Node2 -> Node87 [dir="back",color="midnightblue",fontsize="10",style="solid",fontname="Helvetica"];
  Node87 [label="/home/mludwig/cernLocal\l/projects/opcua-lxi-master\l/Meta/include/DComponentLogLevel.h",height=0.2,width=0.4,color="black", fillcolor="white", style="filled",URL="$DComponentLogLevel_8h.html",tooltip=" "];
  Node87 -> Node20 [dir="back",color="midnightblue",fontsize="10",style="solid",fontname="Helvetica"];
  Node87 -> Node39 [dir="back",color="midnightblue",fontsize="10",style="solid",fontname="Helvetica"];
  Node39 [label="/home/mludwig/cernLocal\l/projects/opcua-lxi-master\l/Meta/src/ASComponentLogLevel.cpp",height=0.2,width=0.4,color="black", fillcolor="white", style="filled",URL="$ASComponentLogLevel_8cpp.html",tooltip=" "];
  Node87 -> Node41 [dir="back",color="midnightblue",fontsize="10",style="solid",fontname="Helvetica"];
  Node41 [label="/home/mludwig/cernLocal\l/projects/opcua-lxi-master\l/Meta/src/DComponentLogLevel.cpp",height=0.2,width=0.4,color="black", fillcolor="white", style="filled",URL="$DComponentLogLevel_8cpp.html",tooltip=" "];
  Node87 -> Node23 [dir="back",color="midnightblue",fontsize="10",style="solid",fontname="Helvetica"];
  Node2 -> Node88 [dir="back",color="midnightblue",fontsize="10",style="solid",fontname="Helvetica"];
  Node88 [label="/home/mludwig/cernLocal\l/projects/opcua-lxi-master\l/Meta/src/Certificate.cpp",height=0.2,width=0.4,color="black", fillcolor="white", style="filled",URL="$Certificate_8cpp.html",tooltip=" "];
  Node2 -> Node41 [dir="back",color="midnightblue",fontsize="10",style="solid",fontname="Helvetica"];
  Node2 -> Node47 [dir="back",color="midnightblue",fontsize="10",style="solid",fontname="Helvetica"];
  Node47 [label="/home/mludwig/cernLocal\l/projects/opcua-lxi-master\l/Meta/src/DGeneralLogLevel.cpp",height=0.2,width=0.4,color="black", fillcolor="white", style="filled",URL="$DGeneralLogLevel_8cpp.html",tooltip=" "];
  Node2 -> Node23 [dir="back",color="midnightblue",fontsize="10",style="solid",fontname="Helvetica"];
  Node2 -> Node89 [dir="back",color="midnightblue",fontsize="10",style="solid",fontname="Helvetica"];
  Node89 [label="/home/mludwig/cernLocal\l/projects/opcua-lxi-master\l/Server/src/BaseQuasarServer.cpp",height=0.2,width=0.4,color="black", fillcolor="white", style="filled",URL="$BaseQuasarServer_8cpp.html",tooltip=" "];
  Node2 -> Node13 [dir="back",color="midnightblue",fontsize="10",style="solid",fontname="Helvetica"];
  Node1 -> Node78 [dir="back",color="midnightblue",fontsize="10",style="solid",fontname="Helvetica"];
  Node1 -> Node90 [dir="back",color="midnightblue",fontsize="10",style="solid",fontname="Helvetica"];
  Node90 [label="/home/mludwig/cernLocal\l/projects/opcua-lxi-master\l/LogIt/src/LogItInstance.cpp",height=0.2,width=0.4,color="black", fillcolor="white", style="filled",URL="$LogItInstance_8cpp.html",tooltip=" "];
  Node1 -> Node80 [dir="back",color="midnightblue",fontsize="10",style="solid",fontname="Helvetica"];
}
