digraph "/home/mludwig/cernLocal/projects/opcua-lxi-master/generatedSources/lxi.h"
{
 // LATEX_PDF_SIZE
  edge [fontname="Helvetica",fontsize="10",labelfontname="Helvetica",labelfontsize="10"];
  node [fontname="Helvetica",fontsize="10",shape=record];
  Node1 [label="/home/mludwig/cernLocal\l/projects/opcua-lxi-master\l/generatedSources/lxi.h",height=0.2,width=0.4,color="black", fillcolor="grey75", style="filled", fontcolor="black",tooltip=" "];
  Node1 -> Node2 [dir="back",color="midnightblue",fontsize="10",style="solid",fontname="Helvetica"];
  Node2 [label="/home/mludwig/cernLocal\l/projects/opcua-lxi-master\l/generatedSources/avahi.h",height=0.2,width=0.4,color="black", fillcolor="white", style="filled",URL="$avahi_8h.html",tooltip=" "];
  Node1 -> Node3 [dir="back",color="midnightblue",fontsize="10",style="solid",fontname="Helvetica"];
  Node3 [label="/home/mludwig/cernLocal\l/projects/opcua-lxi-master\l/generatedSources/vxi11.h",height=0.2,width=0.4,color="black", fillcolor="white", style="filled",URL="$vxi11_8h.html",tooltip=" "];
  Node1 -> Node4 [dir="back",color="midnightblue",fontsize="10",style="solid",fontname="Helvetica"];
  Node4 [label="/home/mludwig/cernLocal\l/projects/opcua-lxi-master\l/LxiCommunication/src/LxiComm.cpp",height=0.2,width=0.4,color="black", fillcolor="white", style="filled",URL="$LxiComm_8cpp.html",tooltip=" "];
  Node1 -> Node5 [dir="back",color="midnightblue",fontsize="10",style="solid",fontname="Helvetica"];
  Node5 [label="/home/mludwig/cernLocal\l/projects/opcua-lxi-master\l/tools/lxitest/src/mainControl.cpp",height=0.2,width=0.4,color="black", fillcolor="white", style="filled",URL="$mainControl_8cpp.html",tooltip=" "];
  Node1 -> Node6 [dir="back",color="midnightblue",fontsize="10",style="solid",fontname="Helvetica"];
  Node6 [label="/home/mludwig/cernLocal\l/projects/opcua-lxi-master\l/tools/lxitest/src/mainPoll.cpp",height=0.2,width=0.4,color="black", fillcolor="white", style="filled",URL="$mainPoll_8cpp.html",tooltip=" "];
}
