digraph "/home/mludwig/cernLocal/projects/opcua-lxi-master/LxiCommunication/include/LxiComm.h"
{
 // LATEX_PDF_SIZE
  edge [fontname="Helvetica",fontsize="10",labelfontname="Helvetica",labelfontsize="10"];
  node [fontname="Helvetica",fontsize="10",shape=record];
  Node1 [label="/home/mludwig/cernLocal\l/projects/opcua-lxi-master\l/LxiCommunication/include\l/LxiComm.h",height=0.2,width=0.4,color="black", fillcolor="grey75", style="filled", fontcolor="black",tooltip=" "];
  Node1 -> Node2 [color="midnightblue",fontsize="10",style="solid",fontname="Helvetica"];
  Node2 [label="string",height=0.2,width=0.4,color="grey75", fillcolor="white", style="filled",tooltip=" "];
  Node1 -> Node3 [color="midnightblue",fontsize="10",style="solid",fontname="Helvetica"];
  Node3 [label="iostream",height=0.2,width=0.4,color="grey75", fillcolor="white", style="filled",tooltip=" "];
  Node1 -> Node4 [color="midnightblue",fontsize="10",style="solid",fontname="Helvetica"];
  Node4 [label="sstream",height=0.2,width=0.4,color="grey75", fillcolor="white", style="filled",tooltip=" "];
  Node1 -> Node5 [color="midnightblue",fontsize="10",style="solid",fontname="Helvetica"];
  Node5 [label="map",height=0.2,width=0.4,color="grey75", fillcolor="white", style="filled",tooltip=" "];
  Node1 -> Node6 [color="midnightblue",fontsize="10",style="solid",fontname="Helvetica"];
  Node6 [label="unistd.h",height=0.2,width=0.4,color="grey75", fillcolor="white", style="filled",tooltip=" "];
  Node1 -> Node7 [color="midnightblue",fontsize="10",style="solid",fontname="Helvetica"];
  Node7 [label="LogIt.h",height=0.2,width=0.4,color="black", fillcolor="white", style="filled",URL="$LogIt_8h.html",tooltip=" "];
  Node7 -> Node8 [color="midnightblue",fontsize="10",style="solid",fontname="Helvetica"];
  Node8 [label="stdint.h",height=0.2,width=0.4,color="grey75", fillcolor="white", style="filled",tooltip=" "];
  Node7 -> Node3 [color="midnightblue",fontsize="10",style="solid",fontname="Helvetica"];
  Node7 -> Node9 [color="midnightblue",fontsize="10",style="solid",fontname="Helvetica"];
  Node9 [label="list",height=0.2,width=0.4,color="grey75", fillcolor="white", style="filled",tooltip=" "];
  Node7 -> Node10 [color="midnightblue",fontsize="10",style="solid",fontname="Helvetica"];
  Node10 [label="LogItStaticDefinitions.h",height=0.2,width=0.4,color="black", fillcolor="white", style="filled",URL="$LogItStaticDefinitions_8h.html",tooltip=" "];
  Node7 -> Node11 [color="midnightblue",fontsize="10",style="solid",fontname="Helvetica"];
  Node11 [label="LogRecord.h",height=0.2,width=0.4,color="black", fillcolor="white", style="filled",URL="$LogRecord_8h.html",tooltip=" "];
  Node11 -> Node8 [color="midnightblue",fontsize="10",style="solid",fontname="Helvetica"];
  Node11 -> Node4 [color="midnightblue",fontsize="10",style="solid",fontname="Helvetica"];
  Node11 -> Node12 [color="midnightblue",fontsize="10",style="solid",fontname="Helvetica"];
  Node12 [label="LogLevels.h",height=0.2,width=0.4,color="black", fillcolor="white", style="filled",URL="$LogLevels_8h.html",tooltip=" "];
  Node12 -> Node2 [color="midnightblue",fontsize="10",style="solid",fontname="Helvetica"];
  Node11 -> Node10 [color="midnightblue",fontsize="10",style="solid",fontname="Helvetica"];
  Node7 -> Node12 [color="midnightblue",fontsize="10",style="solid",fontname="Helvetica"];
  Node7 -> Node13 [color="midnightblue",fontsize="10",style="solid",fontname="Helvetica"];
  Node13 [label="LogItInstance.h",height=0.2,width=0.4,color="black", fillcolor="white", style="filled",URL="$LogItInstance_8h.html",tooltip=" "];
  Node13 -> Node14 [color="midnightblue",fontsize="10",style="solid",fontname="Helvetica"];
  Node14 [label="vector",height=0.2,width=0.4,color="grey75", fillcolor="white", style="filled",tooltip=" "];
  Node13 -> Node5 [color="midnightblue",fontsize="10",style="solid",fontname="Helvetica"];
  Node13 -> Node15 [color="midnightblue",fontsize="10",style="solid",fontname="Helvetica"];
  Node15 [label="memory",height=0.2,width=0.4,color="grey75", fillcolor="white", style="filled",tooltip=" "];
  Node13 -> Node16 [color="midnightblue",fontsize="10",style="solid",fontname="Helvetica"];
  Node16 [label="unordered_map",height=0.2,width=0.4,color="grey75", fillcolor="white", style="filled",tooltip=" "];
  Node13 -> Node17 [color="midnightblue",fontsize="10",style="solid",fontname="Helvetica"];
  Node17 [label="mutex",height=0.2,width=0.4,color="grey75", fillcolor="white", style="filled",tooltip=" "];
  Node13 -> Node10 [color="midnightblue",fontsize="10",style="solid",fontname="Helvetica"];
  Node13 -> Node12 [color="midnightblue",fontsize="10",style="solid",fontname="Helvetica"];
  Node13 -> Node18 [color="midnightblue",fontsize="10",style="solid",fontname="Helvetica"];
  Node18 [label="ComponentAttributes.h",height=0.2,width=0.4,color="black", fillcolor="white", style="filled",URL="$ComponentAttributes_8h.html",tooltip=" "];
  Node18 -> Node2 [color="midnightblue",fontsize="10",style="solid",fontname="Helvetica"];
  Node18 -> Node8 [color="midnightblue",fontsize="10",style="solid",fontname="Helvetica"];
  Node18 -> Node12 [color="midnightblue",fontsize="10",style="solid",fontname="Helvetica"];
  Node18 -> Node10 [color="midnightblue",fontsize="10",style="solid",fontname="Helvetica"];
  Node13 -> Node19 [color="midnightblue",fontsize="10",style="solid",fontname="Helvetica"];
  Node19 [label="LogSinks.h",height=0.2,width=0.4,color="black", fillcolor="white", style="filled",URL="$LogSinks_8h.html",tooltip=" "];
  Node19 -> Node2 [color="midnightblue",fontsize="10",style="solid",fontname="Helvetica"];
  Node19 -> Node14 [color="midnightblue",fontsize="10",style="solid",fontname="Helvetica"];
  Node19 -> Node20 [color="midnightblue",fontsize="10",style="solid",fontname="Helvetica"];
  Node20 [label="LogSinkInterface.h",height=0.2,width=0.4,color="black", fillcolor="white", style="filled",URL="$LogSinkInterface_8h.html",tooltip=" "];
  Node20 -> Node2 [color="midnightblue",fontsize="10",style="solid",fontname="Helvetica"];
}
