digraph "configureSourceVariableThreadPool"
{
 // LATEX_PDF_SIZE
  edge [fontname="Helvetica",fontsize="10",labelfontname="Helvetica",labelfontsize="10"];
  node [fontname="Helvetica",fontsize="10",shape=record];
  rankdir="LR";
  Node1 [label="configureSourceVariableThreadPool",height=0.2,width=0.4,color="black", fillcolor="grey75", style="filled", fontcolor="black",tooltip=" "];
  Node1 -> Node2 [color="midnightblue",fontsize="10",style="solid",fontname="Helvetica"];
  Node2 [label="AddressSpace::ASNodeManager\l::getTypeNodeId",height=0.2,width=0.4,color="black", fillcolor="white", style="filled",URL="$classAddressSpace_1_1ASNodeManager.html#a7222aedaca89e506f891abf1b5e1ff6f",tooltip=" "];
  Node2 -> Node3 [color="midnightblue",fontsize="10",style="solid",fontname="Helvetica"];
  Node3 [label="NodeManagerBase::getName\lSpaceIndex",height=0.2,width=0.4,color="black", fillcolor="white", style="filled",URL="$classNodeManagerBase.html#a8fc733071743b0baef0f9b2321b4cf47",tooltip=" "];
  Node1 -> Node4 [color="midnightblue",fontsize="10",style="solid",fontname="Helvetica"];
  Node4 [label="MetaUtils::linkHandlerObject\lAndAddressSpaceNode",height=0.2,width=0.4,color="black", fillcolor="white", style="filled",URL="$namespaceMetaUtils.html#a64e5c7b2815903e5d2bfc30c387de2b4",tooltip=" "];
  Node1 -> Node5 [color="midnightblue",fontsize="10",style="solid",fontname="Helvetica"];
  Node5 [label="Configuration::SourceVariable\lThreadPool::maxJobs",height=0.2,width=0.4,color="black", fillcolor="white", style="filled",URL="$classConfiguration_1_1SourceVariableThreadPool.html#ae5ff9a5038d0adcaf520b6e3de6b9360",tooltip=" "];
  Node1 -> Node6 [color="midnightblue",fontsize="10",style="solid",fontname="Helvetica"];
  Node6 [label="Configuration::SourceVariable\lThreadPool::maxThreads",height=0.2,width=0.4,color="black", fillcolor="white", style="filled",URL="$classConfiguration_1_1SourceVariableThreadPool.html#aa705f18d59865deeab7a636c15ce5a8b",tooltip=" "];
  Node1 -> Node7 [color="midnightblue",fontsize="10",style="solid",fontname="Helvetica"];
  Node7 [label="Configuration::SourceVariable\lThreadPool::minThreads",height=0.2,width=0.4,color="black", fillcolor="white", style="filled",URL="$classConfiguration_1_1SourceVariableThreadPool.html#ada0ea7782b041ef39057a65bb851930f",tooltip=" "];
  Node1 -> Node8 [color="midnightblue",fontsize="10",style="solid",fontname="Helvetica"];
  Node8 [label="OpcUa::BaseObjectType\l::nodeId",height=0.2,width=0.4,color="black", fillcolor="white", style="filled",URL="$classOpcUa_1_1BaseObjectType.html#af841e38109e0fd27f3d4f80d0a7d685e",tooltip=" "];
}
