digraph "getGeneralLogLevelFromConfig"
{
 // LATEX_PDF_SIZE
  edge [fontname="Helvetica",fontsize="10",labelfontname="Helvetica",labelfontsize="10"];
  node [fontname="Helvetica",fontsize="10",shape=record];
  rankdir="LR";
  Node1 [label="getGeneralLogLevelFromConfig",height=0.2,width=0.4,color="black", fillcolor="grey75", style="filled", fontcolor="black",tooltip=" "];
  Node1 -> Node2 [color="midnightblue",fontsize="10",style="solid",fontname="Helvetica"];
  Node2 [label="Configuration::Log\l::GeneralLogLevel",height=0.2,width=0.4,color="black", fillcolor="white", style="filled",URL="$classConfiguration_1_1Log.html#a003e48c2828ac2e8701631d3ace12ae1",tooltip=" "];
  Node1 -> Node3 [color="midnightblue",fontsize="10",style="solid",fontname="Helvetica"];
  Node3 [label="Log::getNonComponentLogLevel",height=0.2,width=0.4,color="black", fillcolor="white", style="filled",URL="$namespaceLog.html#a664f6fd989baa96c73733bb42cd0142d",tooltip=" "];
  Node3 -> Node4 [color="midnightblue",fontsize="10",style="solid",fontname="Helvetica"];
  Node4 [label="LogItInstance::getInstance",height=0.2,width=0.4,color="black", fillcolor="white", style="filled",URL="$classLogItInstance.html#a0ebda6bc0c87a627369e43cef819c1be",tooltip=" "];
  Node1 -> Node5 [color="midnightblue",fontsize="10",style="solid",fontname="Helvetica"];
  Node5 [label="Log::logLevelToString",height=0.2,width=0.4,color="black", fillcolor="white", style="filled",URL="$namespaceLog.html#a0514d35b067113169a3ed7e73b819716",tooltip=" "];
}
