digraph "manage_files.mfCheckConsistency"
{
 // LATEX_PDF_SIZE
  edge [fontname="Helvetica",fontsize="10",labelfontname="Helvetica",labelfontsize="10"];
  node [fontname="Helvetica",fontsize="10",shape=record];
  rankdir="LR";
  Node1 [label="manage_files.mfCheckConsistency",height=0.2,width=0.4,color="black", fillcolor="grey75", style="filled", fontcolor="black",tooltip=" "];
  Node1 -> Node2 [color="midnightblue",fontsize="10",style="solid",fontname="Helvetica"];
  Node2 [label="manage_files.check\l_consistency",height=0.2,width=0.4,color="black", fillcolor="white", style="filled",URL="$namespacemanage__files.html#aedd6db6cbe880419524210255cd1c8fb",tooltip=" "];
  Node2 -> Node3 [color="midnightblue",fontsize="10",style="solid",fontname="Helvetica"];
  Node3 [label="manage_files.get_list\l_classes",height=0.2,width=0.4,color="black", fillcolor="white", style="filled",URL="$namespacemanage__files.html#a02d3576c7e2ce12e4ff57ebc5ad88333",tooltip=" "];
  Node1 -> Node4 [color="midnightblue",fontsize="10",style="solid",fontname="Helvetica"];
  Node4 [label="manage_files.check\l_uncovered",height=0.2,width=0.4,color="black", fillcolor="white", style="filled",URL="$namespacemanage__files.html#aa0e68515cb2f09cfccf1b4f5188043e1",tooltip=" "];
  Node4 -> Node5 [color="midnightblue",fontsize="10",style="solid",fontname="Helvetica"];
  Node5 [label="manage_files.scan_dir",height=0.2,width=0.4,color="black", fillcolor="white", style="filled",URL="$namespacemanage__files.html#ade80134119e57f8da0b07718737a8bdb",tooltip=" "];
  Node1 -> Node6 [color="midnightblue",fontsize="10",style="solid",fontname="Helvetica"];
  Node6 [label="manage_files.load_file",height=0.2,width=0.4,color="black", fillcolor="white", style="filled",URL="$namespacemanage__files.html#af838e473fd347918280b2195c74b5f4a",tooltip=" "];
}
