digraph "automated_build.set_build_config"
{
 // LATEX_PDF_SIZE
  edge [fontname="Helvetica",fontsize="10",labelfontname="Helvetica",labelfontsize="10"];
  node [fontname="Helvetica",fontsize="10",shape=record];
  rankdir="LR";
  Node1 [label="automated_build.set\l_build_config",height=0.2,width=0.4,color="black", fillcolor="grey75", style="filled", fontcolor="black",tooltip=" "];
  Node1 -> Node2 [color="midnightblue",fontsize="10",style="solid",fontname="Helvetica"];
  Node2 [label="automated_build.write\l_build_config_selector",height=0.2,width=0.4,color="black", fillcolor="white", style="filled",URL="$namespaceautomated__build.html#ad75f17c0f53803e52533d671940bb201",tooltip=" "];
}
