digraph "Configuration::operator&lt;&lt;"
{
 // LATEX_PDF_SIZE
  edge [fontname="Helvetica",fontsize="10",labelfontname="Helvetica",labelfontsize="10"];
  node [fontname="Helvetica",fontsize="10",shape=record];
  rankdir="LR";
  Node1 [label="Configuration::operator\<\<",height=0.2,width=0.4,color="black", fillcolor="grey75", style="filled", fontcolor="black",tooltip=" "];
  Node1 -> Node2 [color="midnightblue",fontsize="10",style="solid",fontname="Helvetica"];
  Node2 [label="Configuration::SourceVariable\lThreadPool::maxJobs",height=0.2,width=0.4,color="black", fillcolor="white", style="filled",URL="$classConfiguration_1_1SourceVariableThreadPool.html#ae5ff9a5038d0adcaf520b6e3de6b9360",tooltip=" "];
  Node1 -> Node3 [color="midnightblue",fontsize="10",style="solid",fontname="Helvetica"];
  Node3 [label="Configuration::SourceVariable\lThreadPool::maxThreads",height=0.2,width=0.4,color="black", fillcolor="white", style="filled",URL="$classConfiguration_1_1SourceVariableThreadPool.html#aa705f18d59865deeab7a636c15ce5a8b",tooltip=" "];
  Node1 -> Node4 [color="midnightblue",fontsize="10",style="solid",fontname="Helvetica"];
  Node4 [label="Configuration::SourceVariable\lThreadPool::minThreads",height=0.2,width=0.4,color="black", fillcolor="white", style="filled",URL="$classConfiguration_1_1SourceVariableThreadPool.html#ada0ea7782b041ef39057a65bb851930f",tooltip=" "];
}
