digraph "DesignValidator.assert_attribute_present"
{
 // LATEX_PDF_SIZE
  edge [fontname="Helvetica",fontsize="10",labelfontname="Helvetica",labelfontsize="10"];
  node [fontname="Helvetica",fontsize="10",shape=record];
  rankdir="LR";
  Node1 [label="DesignValidator.assert\l_attribute_present",height=0.2,width=0.4,color="black", fillcolor="grey75", style="filled", fontcolor="black",tooltip=" "];
  Node1 -> Node2 [color="midnightblue",fontsize="10",style="solid",fontname="Helvetica"];
  Node2 [label="DesignValidator.stringify\l_locator",height=0.2,width=0.4,color="black", fillcolor="white", style="filled",URL="$namespaceDesignValidator.html#a3c474020191a505dcd9670f278785a6a",tooltip=" "];
}
