digraph "AddressSpace::ArrayTools::convertUaVariantToByteVector"
{
 // LATEX_PDF_SIZE
  edge [fontname="Helvetica",fontsize="10",labelfontname="Helvetica",labelfontsize="10"];
  node [fontname="Helvetica",fontsize="10",shape=record];
  rankdir="LR";
  Node1 [label="AddressSpace::ArrayTools\l::convertUaVariantToByteVector",height=0.2,width=0.4,color="black", fillcolor="grey75", style="filled", fontcolor="black",tooltip=" "];
  Node1 -> Node2 [color="midnightblue",fontsize="10",style="solid",fontname="Helvetica"];
  Node2 [label="UaByteArray::data",height=0.2,width=0.4,color="black", fillcolor="white", style="filled",URL="$classUaByteArray.html#a691e967cce3ede6724663cbda890457e",tooltip=" "];
  Node2 -> Node3 [color="midnightblue",fontsize="10",style="solid",fontname="Helvetica"];
  Node3 [label="UaCompatArray\< OpcUa\l_Byte \>::size",height=0.2,width=0.4,color="black", fillcolor="white", style="filled",URL="$classUaCompatArray.html#a4acfd16c4794f14da16293d1158e790e",tooltip=" "];
  Node1 -> Node3 [color="midnightblue",fontsize="10",style="solid",fontname="Helvetica"];
  Node1 -> Node4 [color="midnightblue",fontsize="10",style="solid",fontname="Helvetica"];
  Node4 [label="UaVariant::toByteArray",height=0.2,width=0.4,color="black", fillcolor="white", style="filled",URL="$classUaVariant.html#a6a9cb6cdccfa06e8e872b1167a3f7c8b",tooltip=" "];
}
