digraph "Configuration::operator&lt;&lt;"
{
 // LATEX_PDF_SIZE
  edge [fontname="Helvetica",fontsize="10",labelfontname="Helvetica",labelfontsize="10"];
  node [fontname="Helvetica",fontsize="10",shape=record];
  rankdir="LR";
  Node1 [label="Configuration::operator\<\<",height=0.2,width=0.4,color="black", fillcolor="grey75", style="filled", fontcolor="black",tooltip=" "];
  Node1 -> Node2 [color="midnightblue",fontsize="10",style="solid",fontname="Helvetica"];
  Node2 [label="Configuration::LxiAbstraction\l::CalculatedVariable",height=0.2,width=0.4,color="black", fillcolor="white", style="filled",URL="$classConfiguration_1_1LxiAbstraction.html#ae5b4737ba6f6d8175f79714eb3bff6db",tooltip=" "];
  Node1 -> Node3 [color="midnightblue",fontsize="10",style="solid",fontname="Helvetica"];
  Node3 [label="Configuration::LxiAbstraction\l::content_order",height=0.2,width=0.4,color="black", fillcolor="white", style="filled",URL="$classConfiguration_1_1LxiAbstraction.html#a9b5aea47cb80b3d5329c5947cf174686",tooltip=" "];
  Node1 -> Node4 [color="midnightblue",fontsize="10",style="solid",fontname="Helvetica"];
  Node4 [label="Configuration::LxiAbstraction\l::FreeVariable",height=0.2,width=0.4,color="black", fillcolor="white", style="filled",URL="$classConfiguration_1_1LxiAbstraction.html#ad6cfb086dcc462c16c410a48ea97bcd9",tooltip=" "];
  Node1 -> Node5 [color="midnightblue",fontsize="10",style="solid",fontname="Helvetica"];
  Node5 [label="Configuration::LxiAbstraction\l::LxiCommand",height=0.2,width=0.4,color="black", fillcolor="white", style="filled",URL="$classConfiguration_1_1LxiAbstraction.html#ad379734f68872d6dfa46d9f33e926832",tooltip=" "];
  Node1 -> Node6 [color="midnightblue",fontsize="10",style="solid",fontname="Helvetica"];
  Node6 [label="Configuration::LxiAbstraction\l::name",height=0.2,width=0.4,color="black", fillcolor="white", style="filled",URL="$classConfiguration_1_1LxiAbstraction.html#a61dc0023f7821578c368bff4d7c62cc3",tooltip=" "];
}
