digraph "Configuration::operator&lt;&lt;"
{
 // LATEX_PDF_SIZE
  edge [fontname="Helvetica",fontsize="10",labelfontname="Helvetica",labelfontsize="10"];
  node [fontname="Helvetica",fontsize="10",shape=record];
  rankdir="LR";
  Node1 [label="Configuration::operator\<\<",height=0.2,width=0.4,color="black", fillcolor="grey75", style="filled", fontcolor="black",tooltip=" "];
  Node1 -> Node2 [color="midnightblue",fontsize="10",style="solid",fontname="Helvetica"];
  Node2 [label="Configuration::StatusCh\l::CalculatedVariable",height=0.2,width=0.4,color="black", fillcolor="white", style="filled",URL="$classConfiguration_1_1StatusCh.html#a39bdc07835c6cf793ef620f9f5f8a1ce",tooltip=" "];
  Node1 -> Node3 [color="midnightblue",fontsize="10",style="solid",fontname="Helvetica"];
  Node3 [label="Configuration::StatusCh\l::content_order",height=0.2,width=0.4,color="black", fillcolor="white", style="filled",URL="$classConfiguration_1_1StatusCh.html#a296fce4c659adeb40331bf2aaad55692",tooltip=" "];
  Node1 -> Node4 [color="midnightblue",fontsize="10",style="solid",fontname="Helvetica"];
  Node4 [label="Configuration::StatusCh\l::FreeVariable",height=0.2,width=0.4,color="black", fillcolor="white", style="filled",URL="$classConfiguration_1_1StatusCh.html#a21accfd674dfb6d13d31245caae36a1d",tooltip=" "];
  Node1 -> Node5 [color="midnightblue",fontsize="10",style="solid",fontname="Helvetica"];
  Node5 [label="Configuration::StatusCh\l::name",height=0.2,width=0.4,color="black", fillcolor="white", style="filled",URL="$classConfiguration_1_1StatusCh.html#ae704acbe229451329cf1c041d5345669",tooltip=" "];
}
