digraph "transformDesign.get_transform_path"
{
 // LATEX_PDF_SIZE
  edge [fontname="Helvetica",fontsize="10",labelfontname="Helvetica",labelfontsize="10"];
  node [fontname="Helvetica",fontsize="10",shape=record];
  rankdir="LR";
  Node1 [label="transformDesign.get\l_transform_path",height=0.2,width=0.4,color="black", fillcolor="grey75", style="filled", fontcolor="black",tooltip=" "];
  Node1 -> Node2 [color="midnightblue",fontsize="10",style="solid",fontname="Helvetica"];
  Node2 [label="transformDesign.getTransform\lSpecByKey",height=0.2,width=0.4,color="black", fillcolor="white", style="filled",URL="$namespacetransformDesign.html#a120753b491d71b521753996f67edce09",tooltip=" "];
}
