digraph "quasarCommands.extract_common_arguments"
{
 // LATEX_PDF_SIZE
  edge [fontname="Helvetica",fontsize="10",labelfontname="Helvetica",labelfontsize="10"];
  node [fontname="Helvetica",fontsize="10",shape=record];
  rankdir="LR";
  Node1 [label="quasarCommands.extract\l_common_arguments",height=0.2,width=0.4,color="black", fillcolor="grey75", style="filled", fontcolor="black",tooltip=" "];
  Node1 -> Node2 [color="midnightblue",fontsize="10",style="solid",fontname="Helvetica"];
  Node2 [label="quasar_basic_utils.extract\l_argument",height=0.2,width=0.4,color="black", fillcolor="white", style="filled",URL="$namespacequasar__basic__utils.html#a81191be8ccbca8b8219ddff1ae9b8b48",tooltip=" "];
}
