digraph "Log::setComponentLogLevel"
{
 // LATEX_PDF_SIZE
  edge [fontname="Helvetica",fontsize="10",labelfontname="Helvetica",labelfontsize="10"];
  node [fontname="Helvetica",fontsize="10",shape=record];
  rankdir="LR";
  Node1 [label="Log::setComponentLogLevel",height=0.2,width=0.4,color="black", fillcolor="grey75", style="filled", fontcolor="black",tooltip=" "];
  Node1 -> Node2 [color="midnightblue",fontsize="10",style="solid",fontname="Helvetica"];
  Node2 [label="LogItInstance::getInstance",height=0.2,width=0.4,color="black", fillcolor="white", style="filled",URL="$classLogItInstance.html#a0ebda6bc0c87a627369e43cef819c1be",tooltip=" "];
  Node1 -> Node3 [color="midnightblue",fontsize="10",style="solid",fontname="Helvetica"];
  Node3 [label="LogItInstance::instanceExists",height=0.2,width=0.4,color="black", fillcolor="white", style="filled",URL="$classLogItInstance.html#ad40785587e1f93f227f6a559504a3b77",tooltip=" "];
  Node1 -> Node4 [color="midnightblue",fontsize="10",style="solid",fontname="Helvetica"];
  Node4 [label="ComponentAttributes\l::setLevel",height=0.2,width=0.4,color="black", fillcolor="white", style="filled",URL="$classComponentAttributes.html#a819cf4c6a79ae82d23fc3417b43e4f85",tooltip=" "];
}
