digraph "deviceGenerators.generateDeviceClass"
{
 // LATEX_PDF_SIZE
  edge [fontname="Helvetica",fontsize="10",labelfontname="Helvetica",labelfontsize="10"];
  node [fontname="Helvetica",fontsize="10",shape=record];
  rankdir="LR";
  Node1 [label="deviceGenerators.generate\lDeviceClass",height=0.2,width=0.4,color="black", fillcolor="grey75", style="filled", fontcolor="black",tooltip=" "];
  Node1 -> Node2 [color="midnightblue",fontsize="10",style="solid",fontname="Helvetica"];
  Node2 [label="deviceGenerators.generate\lOneDeviceClass",height=0.2,width=0.4,color="black", fillcolor="white", style="filled",URL="$namespacedeviceGenerators.html#a2736f541740d0d82fc5e4e9d67b85f5b",tooltip=" "];
  Node2 -> Node3 [color="midnightblue",fontsize="10",style="solid",fontname="Helvetica"];
  Node3 [label="transformDesign.transform\lByKey",height=0.2,width=0.4,color="black", fillcolor="white", style="filled",URL="$namespacetransformDesign.html#a46c321b7cc0b6cf26a326565a11e77ec",tooltip=" "];
  Node3 -> Node4 [color="midnightblue",fontsize="10",style="solid",fontname="Helvetica"];
  Node4 [label="transformDesign.get\l_transform_path",height=0.2,width=0.4,color="black", fillcolor="white", style="filled",URL="$namespacetransformDesign.html#ae65df44437fa3a8b24261d4d0224808e",tooltip=" "];
  Node4 -> Node5 [color="midnightblue",fontsize="10",style="solid",fontname="Helvetica"];
  Node5 [label="transformDesign.getTransform\lSpecByKey",height=0.2,width=0.4,color="black", fillcolor="white", style="filled",URL="$namespacetransformDesign.html#a120753b491d71b521753996f67edce09",tooltip=" "];
  Node3 -> Node6 [color="midnightblue",fontsize="10",style="solid",fontname="Helvetica"];
  Node6 [label="transformDesign.getTransform\lOutput",height=0.2,width=0.4,color="black", fillcolor="white", style="filled",URL="$namespacetransformDesign.html#a464ea5d11c95772ea5baaa1040d529f4",tooltip=" "];
  Node6 -> Node5 [color="midnightblue",fontsize="10",style="solid",fontname="Helvetica"];
  Node3 -> Node5 [color="midnightblue",fontsize="10",style="solid",fontname="Helvetica"];
  Node3 -> Node7 [color="midnightblue",fontsize="10",style="solid",fontname="Helvetica"];
  Node7 [label="transformDesign.transform\lDesignVerbose",height=0.2,width=0.4,color="black", fillcolor="white", style="filled",URL="$namespacetransformDesign.html#a29e5996552621c7ce6646ea9641800cd",tooltip=" "];
}
