digraph "Configuration::operator&lt;&lt;"
{
 // LATEX_PDF_SIZE
  edge [fontname="Helvetica",fontsize="10",labelfontname="Helvetica",labelfontsize="10"];
  node [fontname="Helvetica",fontsize="10",shape=record];
  rankdir="LR";
  Node1 [label="Configuration::operator\<\<",height=0.2,width=0.4,color="black", fillcolor="grey75", style="filled", fontcolor="black",tooltip=" "];
  Node1 -> Node2 [color="midnightblue",fontsize="10",style="solid",fontname="Helvetica"];
  Node2 [label="Configuration::GeneralLog\lLevel::logLevel",height=0.2,width=0.4,color="black", fillcolor="white", style="filled",URL="$classConfiguration_1_1GeneralLogLevel.html#a57590c4d16b85fb20c763f1ca50c54ba",tooltip=" "];
}
