digraph "optionalModules.listModules"
{
 // LATEX_PDF_SIZE
  edge [fontname="Helvetica",fontsize="10",labelfontname="Helvetica",labelfontsize="10"];
  node [fontname="Helvetica",fontsize="10",shape=record];
  rankdir="LR";
  Node1 [label="optionalModules.listModules",height=0.2,width=0.4,color="black", fillcolor="grey75", style="filled", fontcolor="black",tooltip=" "];
  Node1 -> Node2 [color="midnightblue",fontsize="10",style="solid",fontname="Helvetica"];
  Node2 [label="optionalModules._getModuleInfo",height=0.2,width=0.4,color="black", fillcolor="white", style="filled",URL="$namespaceoptionalModules.html#ac09906322de23e5ba108adfbc4bef62b",tooltip=" "];
}
