digraph "AddressSpace::findByStringId"
{
 // LATEX_PDF_SIZE
  edge [fontname="Helvetica",fontsize="10",labelfontname="Helvetica",labelfontsize="10"];
  node [fontname="Helvetica",fontsize="10",shape=record];
  rankdir="LR";
  Node1 [label="AddressSpace::findByStringId",height=0.2,width=0.4,color="black", fillcolor="grey75", style="filled", fontcolor="black",tooltip=" "];
  Node1 -> Node2 [color="midnightblue",fontsize="10",style="solid",fontname="Helvetica"];
  Node2 [label="NodeManagerBase::getName\lSpaceIndex",height=0.2,width=0.4,color="black", fillcolor="white", style="filled",URL="$classNodeManagerBase.html#a8fc733071743b0baef0f9b2321b4cf47",tooltip=" "];
  Node1 -> Node3 [color="midnightblue",fontsize="10",style="solid",fontname="Helvetica"];
  Node3 [label="NodeManagerBase::getNode",height=0.2,width=0.4,color="black", fillcolor="white", style="filled",URL="$classNodeManagerBase.html#acbf4cc91dc306070ac54041fe9ddc41d",tooltip=" "];
  Node3 -> Node4 [color="midnightblue",fontsize="10",style="solid",fontname="Helvetica"];
  Node4 [label="NodeManagerBase::ServerRoot\lNode::nodeId",height=0.2,width=0.4,color="black", fillcolor="white", style="filled",URL="$classNodeManagerBase_1_1ServerRootNode.html#a43caf1117f986f9b6a499ed6611216a6",tooltip=" "];
}
