digraph "Log::getComponentLogsList"
{
 // LATEX_PDF_SIZE
  edge [fontname="Helvetica",fontsize="10",labelfontname="Helvetica",labelfontsize="10"];
  node [fontname="Helvetica",fontsize="10",shape=record];
  rankdir="LR";
  Node1 [label="Log::getComponentLogsList",height=0.2,width=0.4,color="black", fillcolor="grey75", style="filled", fontcolor="black",tooltip=" "];
  Node1 -> Node2 [color="midnightblue",fontsize="10",style="solid",fontname="Helvetica"];
  Node2 [label="LogItInstance::getInstance",height=0.2,width=0.4,color="black", fillcolor="white", style="filled",URL="$classLogItInstance.html#a0ebda6bc0c87a627369e43cef819c1be",tooltip=" "];
  Node1 -> Node3 [color="midnightblue",fontsize="10",style="solid",fontname="Helvetica"];
  Node3 [label="LogItInstance::getLogging\lComponentsList",height=0.2,width=0.4,color="black", fillcolor="white", style="filled",URL="$classLogItInstance.html#a42ddaa6d2b205ec71d58be05782cde05",tooltip=" "];
  Node3 -> Node4 [color="midnightblue",fontsize="10",style="solid",fontname="Helvetica"];
  Node4 [label="ComponentAttributes\l::getHandle",height=0.2,width=0.4,color="black", fillcolor="white", style="filled",URL="$classComponentAttributes.html#abd7e09edf3ef6784643ee4913d018189",tooltip=" "];
  Node3 -> Node5 [color="midnightblue",fontsize="10",style="solid",fontname="Helvetica"];
  Node5 [label="ComponentAttributes\l::getName",height=0.2,width=0.4,color="black", fillcolor="white", style="filled",URL="$classComponentAttributes.html#a15addbe7a3cc56c88516d2bf8fd0ce91",tooltip=" "];
  Node1 -> Node6 [color="midnightblue",fontsize="10",style="solid",fontname="Helvetica"];
  Node6 [label="LogItInstance::instanceExists",height=0.2,width=0.4,color="black", fillcolor="white", style="filled",URL="$classLogItInstance.html#ad40785587e1f93f227f6a559504a3b77",tooltip=" "];
}
