digraph "Configuration::operator&lt;&lt;"
{
 // LATEX_PDF_SIZE
  edge [fontname="Helvetica",fontsize="10",labelfontname="Helvetica",labelfontsize="10"];
  node [fontname="Helvetica",fontsize="10",shape=record];
  rankdir="LR";
  Node1 [label="Configuration::operator\<\<",height=0.2,width=0.4,color="black", fillcolor="grey75", style="filled", fontcolor="black",tooltip=" "];
  Node1 -> Node2 [color="midnightblue",fontsize="10",style="solid",fontname="Helvetica"];
  Node2 [label="Configuration::LxiCommand\l::CalculatedVariable",height=0.2,width=0.4,color="black", fillcolor="white", style="filled",URL="$classConfiguration_1_1LxiCommand.html#afdd6a3915d9f7006f8791a252b0b3cc3",tooltip=" "];
  Node1 -> Node3 [color="midnightblue",fontsize="10",style="solid",fontname="Helvetica"];
  Node3 [label="Configuration::LxiCommand\l::Command",height=0.2,width=0.4,color="black", fillcolor="white", style="filled",URL="$classConfiguration_1_1LxiCommand.html#a851c103d8bd46a4b17268a33764eb5ca",tooltip=" "];
  Node1 -> Node4 [color="midnightblue",fontsize="10",style="solid",fontname="Helvetica"];
  Node4 [label="Configuration::LxiCommand\l::content_order",height=0.2,width=0.4,color="black", fillcolor="white", style="filled",URL="$classConfiguration_1_1LxiCommand.html#a6b5bfd84f142fa3dd49f1a09a990888d",tooltip=" "];
  Node1 -> Node5 [color="midnightblue",fontsize="10",style="solid",fontname="Helvetica"];
  Node5 [label="Configuration::LxiCommand\l::FreeVariable",height=0.2,width=0.4,color="black", fillcolor="white", style="filled",URL="$classConfiguration_1_1LxiCommand.html#aae4d222183979ef5df78c33fb892f1a2",tooltip=" "];
  Node1 -> Node6 [color="midnightblue",fontsize="10",style="solid",fontname="Helvetica"];
  Node6 [label="Configuration::LxiCommand\l::name",height=0.2,width=0.4,color="black", fillcolor="white", style="filled",URL="$classConfiguration_1_1LxiCommand.html#a56b7560e19fb130e0b0e1a68d3e11924",tooltip=" "];
}
