digraph "Configuration::configuration"
{
 // LATEX_PDF_SIZE
  edge [fontname="Helvetica",fontsize="10",labelfontname="Helvetica",labelfontsize="10"];
  node [fontname="Helvetica",fontsize="10",shape=record];
  rankdir="LR";
  Node1 [label="Configuration::configuration",height=0.2,width=0.4,color="black", fillcolor="grey75", style="filled", fontcolor="black",tooltip=" "];
  Node1 -> Node2 [color="midnightblue",fontsize="10",style="solid",fontname="Helvetica"];
  Node2 [label="Configuration::configuration",height=0.2,width=0.4,color="black", fillcolor="white", style="filled",URL="$namespaceConfiguration.html#a9c67e83f3202324bd097921f03e6212e",tooltip=" "];
}
