digraph "make_localised"
{
 // LATEX_PDF_SIZE
  edge [fontname="Helvetica",fontsize="10",labelfontname="Helvetica",labelfontsize="10"];
  node [fontname="Helvetica",fontsize="10",shape=record];
  rankdir="LR";
  Node1 [label="make_localised",height=0.2,width=0.4,color="black", fillcolor="grey75", style="filled", fontcolor="black",tooltip=" "];
  Node1 -> Node2 [color="midnightblue",fontsize="10",style="solid",fontname="Helvetica"];
  Node2 [label="UaString::impl",height=0.2,width=0.4,color="black", fillcolor="white", style="filled",URL="$classUaString.html#a8d5fbafb09f419e14d30bd138430244d",tooltip=" "];
}
