digraph "UA_Server_setNodeContext"
{
 // LATEX_PDF_SIZE
  edge [fontname="Helvetica",fontsize="10",labelfontname="Helvetica",labelfontsize="10"];
  node [fontname="Helvetica",fontsize="10",shape=record];
  rankdir="LR";
  Node1 [label="UA_Server_setNodeContext",height=0.2,width=0.4,color="black", fillcolor="grey75", style="filled", fontcolor="black",tooltip=" "];
  Node1 -> Node2 [color="midnightblue",fontsize="10",style="solid",fontname="Helvetica"];
  Node2 [label="UA_Server_editNode",height=0.2,width=0.4,color="black", fillcolor="white", style="filled",URL="$open62541_8c.html#a6917182f0c76e65635d342e05bcb7a25",tooltip=" "];
  Node2 -> Node3 [color="midnightblue",fontsize="10",style="solid",fontname="Helvetica"];
  Node3 [label="UA_Nodestore_deleteNode",height=0.2,width=0.4,color="black", fillcolor="white", style="filled",URL="$open62541_8c.html#a6ccf261d67dd313a17ac646067f95a1e",tooltip=" "];
  Node2 -> Node4 [color="midnightblue",fontsize="10",style="solid",fontname="Helvetica"];
  Node4 [label="UA_Nodestore_getNode",height=0.2,width=0.4,color="black", fillcolor="white", style="filled",URL="$open62541_8c.html#a6f333e6f6f5ed6e1e9f6fceb6543b8d8",tooltip=" "];
  Node4 -> Node5 [color="midnightblue",fontsize="10",style="solid",fontname="Helvetica"];
  Node5 [label="UA_NodeId_hash",height=0.2,width=0.4,color="black", fillcolor="white", style="filled",URL="$open62541_8c.html#a70f28304274548550045a86d85b6ea0d",tooltip=" "];
  Node2 -> Node6 [color="midnightblue",fontsize="10",style="solid",fontname="Helvetica"];
  Node6 [label="UA_Nodestore_getNodeCopy",height=0.2,width=0.4,color="black", fillcolor="white", style="filled",URL="$open62541_8c.html#afa2f22f861101cd7118eaeb505816c5f",tooltip=" "];
  Node6 -> Node4 [color="midnightblue",fontsize="10",style="solid",fontname="Helvetica"];
  Node2 -> Node7 [color="midnightblue",fontsize="10",style="solid",fontname="Helvetica"];
  Node7 [label="UA_Nodestore_releaseNode",height=0.2,width=0.4,color="black", fillcolor="white", style="filled",URL="$open62541_8c.html#a54dc292bec8a4250aa0a88c774484da6",tooltip=" "];
  Node2 -> Node8 [color="midnightblue",fontsize="10",style="solid",fontname="Helvetica"];
  Node8 [label="UA_Nodestore_replaceNode",height=0.2,width=0.4,color="black", fillcolor="white", style="filled",URL="$open62541_8c.html#a2c74d4675cde4986d9a7069e5c3f413a",tooltip=" "];
  Node8 -> Node4 [color="midnightblue",fontsize="10",style="solid",fontname="Helvetica"];
}
