digraph "UA_SecureChannelManager_renew"
{
 // LATEX_PDF_SIZE
  edge [fontname="Helvetica",fontsize="10",labelfontname="Helvetica",labelfontsize="10"];
  node [fontname="Helvetica",fontsize="10",shape=record];
  rankdir="LR";
  Node1 [label="UA_SecureChannelManager\l_renew",height=0.2,width=0.4,color="black", fillcolor="grey75", style="filled", fontcolor="black",tooltip=" "];
  Node1 -> Node2 [color="midnightblue",fontsize="10",style="solid",fontname="Helvetica"];
  Node2 [label="UA_DateTime_now",height=0.2,width=0.4,color="black", fillcolor="white", style="filled",URL="$generatedSources_2open62541_8h.html#ac3621608c00f0b270463227893cbac67",tooltip=" "];
}
