digraph "Service_Read"
{
 // LATEX_PDF_SIZE
  edge [fontname="Helvetica",fontsize="10",labelfontname="Helvetica",labelfontsize="10"];
  node [fontname="Helvetica",fontsize="10",shape=record];
  rankdir="LR";
  Node1 [label="Service_Read",height=0.2,width=0.4,color="black", fillcolor="grey75", style="filled", fontcolor="black",tooltip=" "];
  Node1 -> Node2 [color="midnightblue",fontsize="10",style="solid",fontname="Helvetica"];
  Node2 [label="UA_Server_processService\lOperations",height=0.2,width=0.4,color="black", fillcolor="white", style="filled",URL="$open62541_8c.html#a46f65ef5f936a5943d66dc2d312e97a3",tooltip=" "];
  Node2 -> Node3 [color="midnightblue",fontsize="10",style="solid",fontname="Helvetica"];
  Node3 [label="UA_Array_new",height=0.2,width=0.4,color="black", fillcolor="white", style="filled",URL="$open62541_8c.html#af8c0f89bd7b5eed5c2cfe17b75665aba",tooltip=" "];
}
