digraph "__UA_Client_AsyncService"
{
 // LATEX_PDF_SIZE
  edge [fontname="Helvetica",fontsize="10",labelfontname="Helvetica",labelfontsize="10"];
  node [fontname="Helvetica",fontsize="10",shape=record];
  rankdir="LR";
  Node1 [label="__UA_Client_AsyncService",height=0.2,width=0.4,color="black", fillcolor="grey75", style="filled", fontcolor="black",tooltip=" "];
  Node1 -> Node2 [color="midnightblue",fontsize="10",style="solid",fontname="Helvetica"];
  Node2 [label="__UA_Client_AsyncServiceEx",height=0.2,width=0.4,color="black", fillcolor="white", style="filled",URL="$open62541_8c.html#afe89ec5227d18cb15649a04437ed57d3",tooltip=" "];
}
