digraph "/home/mludwig/cernLocal/projects/opcua-lxi-master/generatedSources/SourceVariables.h"
{
 // LATEX_PDF_SIZE
  edge [fontname="Helvetica",fontsize="10",labelfontname="Helvetica",labelfontsize="10"];
  node [fontname="Helvetica",fontsize="10",shape=record];
  Node1 [label="/home/mludwig/cernLocal\l/projects/opcua-lxi-master\l/generatedSources/SourceVariables.h",height=0.2,width=0.4,color="black", fillcolor="grey75", style="filled", fontcolor="black",tooltip=" "];
  Node1 -> Node2 [dir="back",color="midnightblue",fontsize="10",style="solid",fontname="Helvetica"];
  Node2 [label="/home/mludwig/cernLocal\l/projects/opcua-lxi-master\l/AddressSpace/include/ASSourceVariable.h",height=0.2,width=0.4,color="black", fillcolor="white", style="filled",URL="$ASSourceVariable_8h.html",tooltip=" "];
  Node2 -> Node3 [dir="back",color="midnightblue",fontsize="10",style="solid",fontname="Helvetica"];
  Node3 [label="/home/mludwig/cernLocal\l/projects/opcua-lxi-master\l/AddressSpace/src/ASNodeManager.cpp",height=0.2,width=0.4,color="black", fillcolor="white", style="filled",URL="$ASNodeManager_8cpp.html",tooltip=" "];
  Node2 -> Node4 [dir="back",color="midnightblue",fontsize="10",style="solid",fontname="Helvetica"];
  Node4 [label="/home/mludwig/cernLocal\l/projects/opcua-lxi-master\l/generatedSources/ASChannel.h",height=0.2,width=0.4,color="black", fillcolor="white", style="filled",URL="$ASChannel_8h.html",tooltip=" "];
  Node4 -> Node5 [dir="back",color="midnightblue",fontsize="10",style="solid",fontname="Helvetica"];
  Node5 [label="/home/mludwig/cernLocal\l/projects/opcua-lxi-master\l/Device/src/DChannel.cpp",height=0.2,width=0.4,color="black", fillcolor="white", style="filled",URL="$DChannel_8cpp.html",tooltip=" "];
  Node4 -> Node6 [dir="back",color="midnightblue",fontsize="10",style="solid",fontname="Helvetica"];
  Node6 [label="/home/mludwig/cernLocal\l/projects/opcua-lxi-master\l/Device/src/DPowerSupply.cpp",height=0.2,width=0.4,color="black", fillcolor="white", style="filled",URL="$DPowerSupply_8cpp.html",tooltip=" "];
  Node4 -> Node7 [dir="back",color="midnightblue",fontsize="10",style="solid",fontname="Helvetica"];
  Node7 [label="/home/mludwig/cernLocal\l/projects/opcua-lxi-master\l/generatedSources/AddressSpaceClasses.cpp",height=0.2,width=0.4,color="black", fillcolor="white", style="filled",URL="$AddressSpaceClasses_8cpp.html",tooltip=" "];
  Node4 -> Node8 [dir="back",color="midnightblue",fontsize="10",style="solid",fontname="Helvetica"];
  Node8 [label="/home/mludwig/cernLocal\l/projects/opcua-lxi-master\l/generatedSources/Configurator.cpp",height=0.2,width=0.4,color="black", fillcolor="white", style="filled",URL="$Configurator_8cpp.html",tooltip=" "];
  Node2 -> Node9 [dir="back",color="midnightblue",fontsize="10",style="solid",fontname="Helvetica"];
  Node9 [label="/home/mludwig/cernLocal\l/projects/opcua-lxi-master\l/generatedSources/ASLxiAbstraction.h",height=0.2,width=0.4,color="black", fillcolor="white", style="filled",URL="$ASLxiAbstraction_8h.html",tooltip=" "];
  Node9 -> Node10 [dir="back",color="midnightblue",fontsize="10",style="solid",fontname="Helvetica"];
  Node10 [label="/home/mludwig/cernLocal\l/projects/opcua-lxi-master\l/Device/src/DLxiAbstraction.cpp",height=0.2,width=0.4,color="black", fillcolor="white", style="filled",URL="$DLxiAbstraction_8cpp.html",tooltip=" "];
  Node9 -> Node7 [dir="back",color="midnightblue",fontsize="10",style="solid",fontname="Helvetica"];
  Node9 -> Node8 [dir="back",color="midnightblue",fontsize="10",style="solid",fontname="Helvetica"];
  Node2 -> Node11 [dir="back",color="midnightblue",fontsize="10",style="solid",fontname="Helvetica"];
  Node11 [label="/home/mludwig/cernLocal\l/projects/opcua-lxi-master\l/generatedSources/ASLxiCommand.h",height=0.2,width=0.4,color="black", fillcolor="white", style="filled",URL="$ASLxiCommand_8h.html",tooltip=" "];
  Node11 -> Node12 [dir="back",color="midnightblue",fontsize="10",style="solid",fontname="Helvetica"];
  Node12 [label="/home/mludwig/cernLocal\l/projects/opcua-lxi-master\l/Device/src/DLxiCommand.cpp",height=0.2,width=0.4,color="black", fillcolor="white", style="filled",URL="$DLxiCommand_8cpp.html",tooltip=" "];
  Node11 -> Node7 [dir="back",color="midnightblue",fontsize="10",style="solid",fontname="Helvetica"];
  Node11 -> Node8 [dir="back",color="midnightblue",fontsize="10",style="solid",fontname="Helvetica"];
  Node11 -> Node13 [dir="back",color="midnightblue",fontsize="10",style="solid",fontname="Helvetica"];
  Node13 [label="/home/mludwig/cernLocal\l/projects/opcua-lxi-master\l/Server/src/QuasarServer.cpp",height=0.2,width=0.4,color="black", fillcolor="white", style="filled",URL="$QuasarServer_8cpp.html",tooltip=" "];
  Node2 -> Node14 [dir="back",color="midnightblue",fontsize="10",style="solid",fontname="Helvetica"];
  Node14 [label="/home/mludwig/cernLocal\l/projects/opcua-lxi-master\l/generatedSources/ASPowerSupply.h",height=0.2,width=0.4,color="black", fillcolor="white", style="filled",URL="$ASPowerSupply_8h.html",tooltip=" "];
  Node14 -> Node6 [dir="back",color="midnightblue",fontsize="10",style="solid",fontname="Helvetica"];
  Node14 -> Node7 [dir="back",color="midnightblue",fontsize="10",style="solid",fontname="Helvetica"];
  Node14 -> Node8 [dir="back",color="midnightblue",fontsize="10",style="solid",fontname="Helvetica"];
  Node14 -> Node13 [dir="back",color="midnightblue",fontsize="10",style="solid",fontname="Helvetica"];
  Node2 -> Node15 [dir="back",color="midnightblue",fontsize="10",style="solid",fontname="Helvetica"];
  Node15 [label="/home/mludwig/cernLocal\l/projects/opcua-lxi-master\l/generatedSources/ASStatusCh.h",height=0.2,width=0.4,color="black", fillcolor="white", style="filled",URL="$ASStatusCh_8h.html",tooltip=" "];
  Node15 -> Node16 [dir="back",color="midnightblue",fontsize="10",style="solid",fontname="Helvetica"];
  Node16 [label="/home/mludwig/cernLocal\l/projects/opcua-lxi-master\l/Device/src/DStatusCh.cpp",height=0.2,width=0.4,color="black", fillcolor="white", style="filled",URL="$DStatusCh_8cpp.html",tooltip=" "];
  Node15 -> Node7 [dir="back",color="midnightblue",fontsize="10",style="solid",fontname="Helvetica"];
  Node15 -> Node8 [dir="back",color="midnightblue",fontsize="10",style="solid",fontname="Helvetica"];
  Node2 -> Node17 [dir="back",color="midnightblue",fontsize="10",style="solid",fontname="Helvetica"];
  Node17 [label="/home/mludwig/cernLocal\l/projects/opcua-lxi-master\l/generatedSources/ASStatusPs.h",height=0.2,width=0.4,color="black", fillcolor="white", style="filled",URL="$ASStatusPs_8h.html",tooltip=" "];
  Node17 -> Node18 [dir="back",color="midnightblue",fontsize="10",style="solid",fontname="Helvetica"];
  Node18 [label="/home/mludwig/cernLocal\l/projects/opcua-lxi-master\l/Device/src/DStatusPs.cpp",height=0.2,width=0.4,color="black", fillcolor="white", style="filled",URL="$DStatusPs_8cpp.html",tooltip=" "];
  Node17 -> Node7 [dir="back",color="midnightblue",fontsize="10",style="solid",fontname="Helvetica"];
  Node17 -> Node8 [dir="back",color="midnightblue",fontsize="10",style="solid",fontname="Helvetica"];
  Node2 -> Node19 [dir="back",color="midnightblue",fontsize="10",style="solid",fontname="Helvetica"];
  Node19 [label="/home/mludwig/cernLocal\l/projects/opcua-lxi-master\l/Meta/include/ASBuildInformation.h",height=0.2,width=0.4,color="black", fillcolor="white", style="filled",URL="$ASBuildInformation_8h.html",tooltip=" "];
  Node19 -> Node20 [dir="back",color="midnightblue",fontsize="10",style="solid",fontname="Helvetica"];
  Node20 [label="/home/mludwig/cernLocal\l/projects/opcua-lxi-master\l/generatedSources/MetaAmalgamate.cpp",height=0.2,width=0.4,color="black", fillcolor="white", style="filled",URL="$MetaAmalgamate_8cpp.html",tooltip=" "];
  Node19 -> Node21 [dir="back",color="midnightblue",fontsize="10",style="solid",fontname="Helvetica"];
  Node21 [label="/home/mludwig/cernLocal\l/projects/opcua-lxi-master\l/Meta/src/ASBuildInformation.cpp",height=0.2,width=0.4,color="black", fillcolor="white", style="filled",URL="$ASBuildInformation_8cpp.html",tooltip=" "];
  Node19 -> Node22 [dir="back",color="midnightblue",fontsize="10",style="solid",fontname="Helvetica"];
  Node22 [label="/home/mludwig/cernLocal\l/projects/opcua-lxi-master\l/Meta/src/DBuildInformation.cpp",height=0.2,width=0.4,color="black", fillcolor="white", style="filled",URL="$DBuildInformation_8cpp.html",tooltip=" "];
  Node19 -> Node23 [dir="back",color="midnightblue",fontsize="10",style="solid",fontname="Helvetica"];
  Node23 [label="/home/mludwig/cernLocal\l/projects/opcua-lxi-master\l/Meta/src/meta.cpp",height=0.2,width=0.4,color="black", fillcolor="white", style="filled",URL="$meta_8cpp.html",tooltip=" "];
  Node2 -> Node24 [dir="back",color="midnightblue",fontsize="10",style="solid",fontname="Helvetica"];
  Node24 [label="/home/mludwig/cernLocal\l/projects/opcua-lxi-master\l/Meta/include/ASComponentLogLevel.h",height=0.2,width=0.4,color="black", fillcolor="white", style="filled",URL="$ASComponentLogLevel_8h.html",tooltip=" "];
  Node24 -> Node20 [dir="back",color="midnightblue",fontsize="10",style="solid",fontname="Helvetica"];
  Node24 -> Node25 [dir="back",color="midnightblue",fontsize="10",style="solid",fontname="Helvetica"];
  Node25 [label="/home/mludwig/cernLocal\l/projects/opcua-lxi-master\l/Meta/src/ASComponentLogLevel.cpp",height=0.2,width=0.4,color="black", fillcolor="white", style="filled",URL="$ASComponentLogLevel_8cpp.html",tooltip=" "];
  Node24 -> Node26 [dir="back",color="midnightblue",fontsize="10",style="solid",fontname="Helvetica"];
  Node26 [label="/home/mludwig/cernLocal\l/projects/opcua-lxi-master\l/Meta/src/Base_DComponentLogLevel.cpp",height=0.2,width=0.4,color="black", fillcolor="white", style="filled",URL="$Base__DComponentLogLevel_8cpp.html",tooltip=" "];
  Node24 -> Node27 [dir="back",color="midnightblue",fontsize="10",style="solid",fontname="Helvetica"];
  Node27 [label="/home/mludwig/cernLocal\l/projects/opcua-lxi-master\l/Meta/src/DComponentLogLevel.cpp",height=0.2,width=0.4,color="black", fillcolor="white", style="filled",URL="$DComponentLogLevel_8cpp.html",tooltip=" "];
  Node24 -> Node23 [dir="back",color="midnightblue",fontsize="10",style="solid",fontname="Helvetica"];
  Node2 -> Node28 [dir="back",color="midnightblue",fontsize="10",style="solid",fontname="Helvetica"];
  Node28 [label="/home/mludwig/cernLocal\l/projects/opcua-lxi-master\l/Meta/include/ASComponentLogLevels.h",height=0.2,width=0.4,color="black", fillcolor="white", style="filled",URL="$ASComponentLogLevels_8h.html",tooltip=" "];
  Node28 -> Node20 [dir="back",color="midnightblue",fontsize="10",style="solid",fontname="Helvetica"];
  Node28 -> Node29 [dir="back",color="midnightblue",fontsize="10",style="solid",fontname="Helvetica"];
  Node29 [label="/home/mludwig/cernLocal\l/projects/opcua-lxi-master\l/Meta/src/ASComponentLogLevels.cpp",height=0.2,width=0.4,color="black", fillcolor="white", style="filled",URL="$ASComponentLogLevels_8cpp.html",tooltip=" "];
  Node28 -> Node23 [dir="back",color="midnightblue",fontsize="10",style="solid",fontname="Helvetica"];
  Node2 -> Node30 [dir="back",color="midnightblue",fontsize="10",style="solid",fontname="Helvetica"];
  Node30 [label="/home/mludwig/cernLocal\l/projects/opcua-lxi-master\l/Meta/include/ASGeneralLogLevel.h",height=0.2,width=0.4,color="black", fillcolor="white", style="filled",URL="$ASGeneralLogLevel_8h.html",tooltip=" "];
  Node30 -> Node20 [dir="back",color="midnightblue",fontsize="10",style="solid",fontname="Helvetica"];
  Node30 -> Node31 [dir="back",color="midnightblue",fontsize="10",style="solid",fontname="Helvetica"];
  Node31 [label="/home/mludwig/cernLocal\l/projects/opcua-lxi-master\l/Meta/src/ASGeneralLogLevel.cpp",height=0.2,width=0.4,color="black", fillcolor="white", style="filled",URL="$ASGeneralLogLevel_8cpp.html",tooltip=" "];
  Node30 -> Node32 [dir="back",color="midnightblue",fontsize="10",style="solid",fontname="Helvetica"];
  Node32 [label="/home/mludwig/cernLocal\l/projects/opcua-lxi-master\l/Meta/src/Base_DGeneralLogLevel.cpp",height=0.2,width=0.4,color="black", fillcolor="white", style="filled",URL="$Base__DGeneralLogLevel_8cpp.html",tooltip=" "];
  Node30 -> Node33 [dir="back",color="midnightblue",fontsize="10",style="solid",fontname="Helvetica"];
  Node33 [label="/home/mludwig/cernLocal\l/projects/opcua-lxi-master\l/Meta/src/DGeneralLogLevel.cpp",height=0.2,width=0.4,color="black", fillcolor="white", style="filled",URL="$DGeneralLogLevel_8cpp.html",tooltip=" "];
  Node30 -> Node23 [dir="back",color="midnightblue",fontsize="10",style="solid",fontname="Helvetica"];
  Node2 -> Node34 [dir="back",color="midnightblue",fontsize="10",style="solid",fontname="Helvetica"];
  Node34 [label="/home/mludwig/cernLocal\l/projects/opcua-lxi-master\l/Meta/include/ASLog.h",height=0.2,width=0.4,color="black", fillcolor="white", style="filled",URL="$ASLog_8h.html",tooltip=" "];
  Node34 -> Node20 [dir="back",color="midnightblue",fontsize="10",style="solid",fontname="Helvetica"];
  Node34 -> Node35 [dir="back",color="midnightblue",fontsize="10",style="solid",fontname="Helvetica"];
  Node35 [label="/home/mludwig/cernLocal\l/projects/opcua-lxi-master\l/Meta/src/ASLog.cpp",height=0.2,width=0.4,color="black", fillcolor="white", style="filled",URL="$ASLog_8cpp.html",tooltip=" "];
  Node34 -> Node23 [dir="back",color="midnightblue",fontsize="10",style="solid",fontname="Helvetica"];
  Node2 -> Node36 [dir="back",color="midnightblue",fontsize="10",style="solid",fontname="Helvetica"];
  Node36 [label="/home/mludwig/cernLocal\l/projects/opcua-lxi-master\l/Meta/include/ASQuasar.h",height=0.2,width=0.4,color="black", fillcolor="white", style="filled",URL="$ASQuasar_8h.html",tooltip=" "];
  Node36 -> Node20 [dir="back",color="midnightblue",fontsize="10",style="solid",fontname="Helvetica"];
  Node36 -> Node37 [dir="back",color="midnightblue",fontsize="10",style="solid",fontname="Helvetica"];
  Node37 [label="/home/mludwig/cernLocal\l/projects/opcua-lxi-master\l/Meta/src/ASQuasar.cpp",height=0.2,width=0.4,color="black", fillcolor="white", style="filled",URL="$ASQuasar_8cpp.html",tooltip=" "];
  Node36 -> Node38 [dir="back",color="midnightblue",fontsize="10",style="solid",fontname="Helvetica"];
  Node38 [label="/home/mludwig/cernLocal\l/projects/opcua-lxi-master\l/Meta/src/Base_DQuasar.cpp",height=0.2,width=0.4,color="black", fillcolor="white", style="filled",URL="$Base__DQuasar_8cpp.html",tooltip=" "];
  Node36 -> Node39 [dir="back",color="midnightblue",fontsize="10",style="solid",fontname="Helvetica"];
  Node39 [label="/home/mludwig/cernLocal\l/projects/opcua-lxi-master\l/Meta/src/DQuasar.cpp",height=0.2,width=0.4,color="black", fillcolor="white", style="filled",URL="$DQuasar_8cpp.html",tooltip=" "];
  Node36 -> Node23 [dir="back",color="midnightblue",fontsize="10",style="solid",fontname="Helvetica"];
  Node2 -> Node40 [dir="back",color="midnightblue",fontsize="10",style="solid",fontname="Helvetica"];
  Node40 [label="/home/mludwig/cernLocal\l/projects/opcua-lxi-master\l/Meta/include/ASServer.h",height=0.2,width=0.4,color="black", fillcolor="white", style="filled",URL="$ASServer_8h.html",tooltip=" "];
  Node40 -> Node20 [dir="back",color="midnightblue",fontsize="10",style="solid",fontname="Helvetica"];
  Node40 -> Node41 [dir="back",color="midnightblue",fontsize="10",style="solid",fontname="Helvetica"];
  Node41 [label="/home/mludwig/cernLocal\l/projects/opcua-lxi-master\l/Meta/src/ASServer.cpp",height=0.2,width=0.4,color="black", fillcolor="white", style="filled",URL="$ASServer_8cpp.html",tooltip=" "];
  Node40 -> Node42 [dir="back",color="midnightblue",fontsize="10",style="solid",fontname="Helvetica"];
  Node42 [label="/home/mludwig/cernLocal\l/projects/opcua-lxi-master\l/Meta/src/Base_DServer.cpp",height=0.2,width=0.4,color="black", fillcolor="white", style="filled",URL="$Base__DServer_8cpp.html",tooltip=" "];
  Node40 -> Node43 [dir="back",color="midnightblue",fontsize="10",style="solid",fontname="Helvetica"];
  Node43 [label="/home/mludwig/cernLocal\l/projects/opcua-lxi-master\l/Meta/src/DServer.cpp",height=0.2,width=0.4,color="black", fillcolor="white", style="filled",URL="$DServer_8cpp.html",tooltip=" "];
  Node40 -> Node23 [dir="back",color="midnightblue",fontsize="10",style="solid",fontname="Helvetica"];
  Node2 -> Node44 [dir="back",color="midnightblue",fontsize="10",style="solid",fontname="Helvetica"];
  Node44 [label="/home/mludwig/cernLocal\l/projects/opcua-lxi-master\l/Meta/include/ASSourceVariableThread\lPool.h",height=0.2,width=0.4,color="red", fillcolor="white", style="filled",URL="$ASSourceVariableThreadPool_8h.html",tooltip=" "];
  Node44 -> Node20 [dir="back",color="midnightblue",fontsize="10",style="solid",fontname="Helvetica"];
  Node44 -> Node47 [dir="back",color="midnightblue",fontsize="10",style="solid",fontname="Helvetica"];
  Node47 [label="/home/mludwig/cernLocal\l/projects/opcua-lxi-master\l/Meta/src/DSourceVariableThreadPool.cpp",height=0.2,width=0.4,color="black", fillcolor="white", style="filled",URL="$DSourceVariableThreadPool_8cpp.html",tooltip=" "];
  Node44 -> Node23 [dir="back",color="midnightblue",fontsize="10",style="solid",fontname="Helvetica"];
  Node2 -> Node48 [dir="back",color="midnightblue",fontsize="10",style="solid",fontname="Helvetica"];
  Node48 [label="/home/mludwig/cernLocal\l/projects/opcua-lxi-master\l/Meta/include/ASStandardMetaData.h",height=0.2,width=0.4,color="red", fillcolor="white", style="filled",URL="$ASStandardMetaData_8h.html",tooltip=" "];
  Node48 -> Node20 [dir="back",color="midnightblue",fontsize="10",style="solid",fontname="Helvetica"];
  Node48 -> Node23 [dir="back",color="midnightblue",fontsize="10",style="solid",fontname="Helvetica"];
  Node1 -> Node52 [dir="back",color="midnightblue",fontsize="10",style="solid",fontname="Helvetica"];
  Node52 [label="/home/mludwig/cernLocal\l/projects/opcua-lxi-master\l/AddressSpace/include/ASSourceVariable\lIoManager.h",height=0.2,width=0.4,color="black", fillcolor="white", style="filled",URL="$ASSourceVariableIoManager_8h.html",tooltip=" "];
  Node52 -> Node2 [dir="back",color="midnightblue",fontsize="10",style="solid",fontname="Helvetica"];
  Node52 -> Node53 [dir="back",color="midnightblue",fontsize="10",style="solid",fontname="Helvetica"];
  Node53 [label="/home/mludwig/cernLocal\l/projects/opcua-lxi-master\l/AddressSpace/src/ASSourceVariable\lIoManager.cpp",height=0.2,width=0.4,color="black", fillcolor="white", style="filled",URL="$ASSourceVariableIoManager_8cpp.html",tooltip=" "];
  Node1 -> Node7 [dir="back",color="midnightblue",fontsize="10",style="solid",fontname="Helvetica"];
  Node1 -> Node20 [dir="back",color="midnightblue",fontsize="10",style="solid",fontname="Helvetica"];
  Node1 -> Node54 [dir="back",color="midnightblue",fontsize="10",style="solid",fontname="Helvetica"];
  Node54 [label="/home/mludwig/cernLocal\l/projects/opcua-lxi-master\l/generatedSources/SourceVariables.cpp",height=0.2,width=0.4,color="black", fillcolor="white", style="filled",URL="$SourceVariables_8cpp.html",tooltip=" "];
  Node1 -> Node47 [dir="back",color="midnightblue",fontsize="10",style="solid",fontname="Helvetica"];
  Node1 -> Node55 [dir="back",color="midnightblue",fontsize="10",style="solid",fontname="Helvetica"];
  Node55 [label="/home/mludwig/cernLocal\l/projects/opcua-lxi-master\l/Server/src/BaseQuasarServer.cpp",height=0.2,width=0.4,color="black", fillcolor="white", style="filled",URL="$BaseQuasarServer_8cpp.html",tooltip=" "];
}
