digraph "/home/mludwig/cernLocal/projects/opcua-lxi-master/generatedSources/SourceVariables.cpp"
{
 // LATEX_PDF_SIZE
  edge [fontname="Helvetica",fontsize="10",labelfontname="Helvetica",labelfontsize="10"];
  node [fontname="Helvetica",fontsize="10",shape=record];
  Node1 [label="/home/mludwig/cernLocal\l/projects/opcua-lxi-master\l/generatedSources/SourceVariables.cpp",height=0.2,width=0.4,color="black", fillcolor="grey75", style="filled", fontcolor="black",tooltip=" "];
  Node1 -> Node2 [color="midnightblue",fontsize="10",style="solid",fontname="Helvetica"];
  Node2 [label="SourceVariables.h",height=0.2,width=0.4,color="black", fillcolor="white", style="filled",URL="$SourceVariables_8h.html",tooltip=" "];
  Node2 -> Node3 [color="midnightblue",fontsize="10",style="solid",fontname="Helvetica"];
  Node3 [label="QuasarThreadPool.h",height=0.2,width=0.4,color="black", fillcolor="white", style="filled",URL="$QuasarThreadPool_8h.html",tooltip=" "];
  Node3 -> Node4 [color="midnightblue",fontsize="10",style="solid",fontname="Helvetica"];
  Node4 [label="mutex",height=0.2,width=0.4,color="grey75", fillcolor="white", style="filled",tooltip=" "];
  Node3 -> Node5 [color="midnightblue",fontsize="10",style="solid",fontname="Helvetica"];
  Node5 [label="vector",height=0.2,width=0.4,color="grey75", fillcolor="white", style="filled",tooltip=" "];
  Node3 -> Node6 [color="midnightblue",fontsize="10",style="solid",fontname="Helvetica"];
  Node6 [label="thread",height=0.2,width=0.4,color="grey75", fillcolor="white", style="filled",tooltip=" "];
  Node3 -> Node7 [color="midnightblue",fontsize="10",style="solid",fontname="Helvetica"];
  Node7 [label="list",height=0.2,width=0.4,color="grey75", fillcolor="white", style="filled",tooltip=" "];
  Node3 -> Node8 [color="midnightblue",fontsize="10",style="solid",fontname="Helvetica"];
  Node8 [label="queue",height=0.2,width=0.4,color="grey75", fillcolor="white", style="filled",tooltip=" "];
  Node3 -> Node9 [color="midnightblue",fontsize="10",style="solid",fontname="Helvetica"];
  Node9 [label="condition_variable",height=0.2,width=0.4,color="grey75", fillcolor="white", style="filled",tooltip=" "];
  Node3 -> Node10 [color="midnightblue",fontsize="10",style="solid",fontname="Helvetica"];
  Node10 [label="functional",height=0.2,width=0.4,color="grey75", fillcolor="white", style="filled",tooltip=" "];
  Node3 -> Node11 [color="midnightblue",fontsize="10",style="solid",fontname="Helvetica"];
  Node11 [label="statuscode.h",height=0.2,width=0.4,color="red", fillcolor="white", style="filled",URL="$statuscode_8h.html",tooltip=" "];
  Node11 -> Node36 [color="midnightblue",fontsize="10",style="solid",fontname="Helvetica"];
  Node36 [label="opcua_platformdefs.h",height=0.2,width=0.4,color="black", fillcolor="white", style="filled",URL="$opcua__platformdefs_8h.html",tooltip=" "];
  Node36 -> Node26 [color="midnightblue",fontsize="10",style="solid",fontname="Helvetica"];
  Node26 [label="stdint.h",height=0.2,width=0.4,color="grey75", fillcolor="white", style="filled",tooltip=" "];
  Node11 -> Node5 [color="midnightblue",fontsize="10",style="solid",fontname="Helvetica"];
  Node2 -> Node37 [color="midnightblue",fontsize="10",style="solid",fontname="Helvetica"];
  Node37 [label="iomanager.h",height=0.2,width=0.4,color="grey75", fillcolor="white", style="filled",tooltip=" "];
  Node2 -> Node38 [color="midnightblue",fontsize="10",style="solid",fontname="Helvetica"];
  Node38 [label="uathreadpool.h",height=0.2,width=0.4,color="grey75", fillcolor="white", style="filled",tooltip=" "];
  Node2 -> Node39 [color="midnightblue",fontsize="10",style="solid",fontname="Helvetica"];
  Node39 [label="uabasenodes.h",height=0.2,width=0.4,color="black", fillcolor="white", style="filled",URL="$uabasenodes_8h.html",tooltip=" "];
  Node39 -> Node40 [color="midnightblue",fontsize="10",style="solid",fontname="Helvetica"];
  Node40 [label="uanode.h",height=0.2,width=0.4,color="red", fillcolor="white", style="filled",URL="$uanode_8h.html",tooltip=" "];
  Node40 -> Node7 [color="midnightblue",fontsize="10",style="solid",fontname="Helvetica"];
  Node1 -> Node43 [color="midnightblue",fontsize="10",style="solid",fontname="Helvetica"];
  Node43 [label="LogIt.h",height=0.2,width=0.4,color="black", fillcolor="white", style="filled",URL="$LogIt_8h.html",tooltip=" "];
  Node43 -> Node26 [color="midnightblue",fontsize="10",style="solid",fontname="Helvetica"];
  Node43 -> Node44 [color="midnightblue",fontsize="10",style="solid",fontname="Helvetica"];
  Node44 [label="iostream",height=0.2,width=0.4,color="grey75", fillcolor="white", style="filled",tooltip=" "];
  Node43 -> Node7 [color="midnightblue",fontsize="10",style="solid",fontname="Helvetica"];
  Node43 -> Node45 [color="midnightblue",fontsize="10",style="solid",fontname="Helvetica"];
  Node45 [label="LogItStaticDefinitions.h",height=0.2,width=0.4,color="black", fillcolor="white", style="filled",URL="$LogItStaticDefinitions_8h.html",tooltip=" "];
  Node43 -> Node46 [color="midnightblue",fontsize="10",style="solid",fontname="Helvetica"];
  Node46 [label="LogRecord.h",height=0.2,width=0.4,color="black", fillcolor="white", style="filled",URL="$LogRecord_8h.html",tooltip=" "];
  Node46 -> Node26 [color="midnightblue",fontsize="10",style="solid",fontname="Helvetica"];
  Node46 -> Node47 [color="midnightblue",fontsize="10",style="solid",fontname="Helvetica"];
  Node47 [label="sstream",height=0.2,width=0.4,color="grey75", fillcolor="white", style="filled",tooltip=" "];
  Node46 -> Node48 [color="midnightblue",fontsize="10",style="solid",fontname="Helvetica"];
  Node48 [label="LogLevels.h",height=0.2,width=0.4,color="black", fillcolor="white", style="filled",URL="$LogLevels_8h.html",tooltip=" "];
  Node48 -> Node34 [color="midnightblue",fontsize="10",style="solid",fontname="Helvetica"];
  Node34 [label="string",height=0.2,width=0.4,color="grey75", fillcolor="white", style="filled",tooltip=" "];
  Node46 -> Node45 [color="midnightblue",fontsize="10",style="solid",fontname="Helvetica"];
  Node43 -> Node48 [color="midnightblue",fontsize="10",style="solid",fontname="Helvetica"];
  Node43 -> Node49 [color="midnightblue",fontsize="10",style="solid",fontname="Helvetica"];
  Node49 [label="LogItInstance.h",height=0.2,width=0.4,color="black", fillcolor="white", style="filled",URL="$LogItInstance_8h.html",tooltip=" "];
  Node49 -> Node5 [color="midnightblue",fontsize="10",style="solid",fontname="Helvetica"];
  Node49 -> Node50 [color="midnightblue",fontsize="10",style="solid",fontname="Helvetica"];
  Node50 [label="map",height=0.2,width=0.4,color="grey75", fillcolor="white", style="filled",tooltip=" "];
  Node49 -> Node51 [color="midnightblue",fontsize="10",style="solid",fontname="Helvetica"];
  Node51 [label="memory",height=0.2,width=0.4,color="grey75", fillcolor="white", style="filled",tooltip=" "];
  Node49 -> Node52 [color="midnightblue",fontsize="10",style="solid",fontname="Helvetica"];
  Node52 [label="unordered_map",height=0.2,width=0.4,color="grey75", fillcolor="white", style="filled",tooltip=" "];
  Node49 -> Node4 [color="midnightblue",fontsize="10",style="solid",fontname="Helvetica"];
  Node49 -> Node45 [color="midnightblue",fontsize="10",style="solid",fontname="Helvetica"];
  Node49 -> Node48 [color="midnightblue",fontsize="10",style="solid",fontname="Helvetica"];
  Node49 -> Node53 [color="midnightblue",fontsize="10",style="solid",fontname="Helvetica"];
  Node53 [label="ComponentAttributes.h",height=0.2,width=0.4,color="black", fillcolor="white", style="filled",URL="$ComponentAttributes_8h.html",tooltip=" "];
  Node53 -> Node34 [color="midnightblue",fontsize="10",style="solid",fontname="Helvetica"];
  Node53 -> Node26 [color="midnightblue",fontsize="10",style="solid",fontname="Helvetica"];
  Node53 -> Node48 [color="midnightblue",fontsize="10",style="solid",fontname="Helvetica"];
  Node53 -> Node45 [color="midnightblue",fontsize="10",style="solid",fontname="Helvetica"];
  Node49 -> Node54 [color="midnightblue",fontsize="10",style="solid",fontname="Helvetica"];
  Node54 [label="LogSinks.h",height=0.2,width=0.4,color="red", fillcolor="white", style="filled",URL="$LogSinks_8h.html",tooltip=" "];
  Node54 -> Node34 [color="midnightblue",fontsize="10",style="solid",fontname="Helvetica"];
  Node54 -> Node5 [color="midnightblue",fontsize="10",style="solid",fontname="Helvetica"];
  Node1 -> Node56 [color="midnightblue",fontsize="10",style="solid",fontname="Helvetica"];
  Node56 [label="DLxiCommand.h",height=0.2,width=0.4,color="black", fillcolor="white", style="filled",URL="$DLxiCommand_8h.html",tooltip=" "];
  Node56 -> Node44 [color="midnightblue",fontsize="10",style="solid",fontname="Helvetica"];
  Node56 -> Node57 [color="midnightblue",fontsize="10",style="solid",fontname="Helvetica"];
  Node57 [label="Base_DLxiCommand.h",height=0.2,width=0.4,color="black", fillcolor="white", style="filled",URL="$Base__DLxiCommand_8h.html",tooltip=" "];
  Node57 -> Node5 [color="midnightblue",fontsize="10",style="solid",fontname="Helvetica"];
  Node57 -> Node34 [color="midnightblue",fontsize="10",style="solid",fontname="Helvetica"];
  Node57 -> Node7 [color="midnightblue",fontsize="10",style="solid",fontname="Helvetica"];
  Node57 -> Node58 [color="midnightblue",fontsize="10",style="solid",fontname="Helvetica"];
  Node58 [label="boost/thread/mutex.hpp",height=0.2,width=0.4,color="grey75", fillcolor="white", style="filled",tooltip=" "];
  Node57 -> Node36 [color="midnightblue",fontsize="10",style="solid",fontname="Helvetica"];
  Node56 -> Node50 [color="midnightblue",fontsize="10",style="solid",fontname="Helvetica"];
  Node1 -> Node59 [color="midnightblue",fontsize="10",style="solid",fontname="Helvetica"];
  Node59 [label="DLxiAbstraction.h",height=0.2,width=0.4,color="black", fillcolor="white", style="filled",URL="$DLxiAbstraction_8h.html",tooltip=" "];
  Node59 -> Node60 [color="midnightblue",fontsize="10",style="solid",fontname="Helvetica"];
  Node60 [label="Base_DLxiAbstraction.h",height=0.2,width=0.4,color="black", fillcolor="white", style="filled",URL="$Base__DLxiAbstraction_8h.html",tooltip=" "];
  Node60 -> Node5 [color="midnightblue",fontsize="10",style="solid",fontname="Helvetica"];
  Node60 -> Node34 [color="midnightblue",fontsize="10",style="solid",fontname="Helvetica"];
  Node60 -> Node7 [color="midnightblue",fontsize="10",style="solid",fontname="Helvetica"];
  Node60 -> Node58 [color="midnightblue",fontsize="10",style="solid",fontname="Helvetica"];
  Node60 -> Node36 [color="midnightblue",fontsize="10",style="solid",fontname="Helvetica"];
  Node1 -> Node61 [color="midnightblue",fontsize="10",style="solid",fontname="Helvetica"];
  Node61 [label="DStatusCh.h",height=0.2,width=0.4,color="black", fillcolor="white", style="filled",URL="$DStatusCh_8h.html",tooltip=" "];
  Node61 -> Node5 [color="midnightblue",fontsize="10",style="solid",fontname="Helvetica"];
  Node61 -> Node58 [color="midnightblue",fontsize="10",style="solid",fontname="Helvetica"];
  Node61 -> Node11 [color="midnightblue",fontsize="10",style="solid",fontname="Helvetica"];
  Node61 -> Node62 [color="midnightblue",fontsize="10",style="solid",fontname="Helvetica"];
  Node62 [label="uadatetime.h",height=0.2,width=0.4,color="red", fillcolor="white", style="filled",URL="$uadatetime_8h.html",tooltip=" "];
  Node61 -> Node63 [color="midnightblue",fontsize="10",style="solid",fontname="Helvetica"];
  Node63 [label="session.h",height=0.2,width=0.4,color="black", fillcolor="white", style="filled",URL="$session_8h.html",tooltip=" "];
  Node61 -> Node64 [color="midnightblue",fontsize="10",style="solid",fontname="Helvetica"];
  Node64 [label="DRoot.h",height=0.2,width=0.4,color="black", fillcolor="white", style="filled",URL="$DRoot_8h.html",tooltip=" "];
  Node64 -> Node36 [color="midnightblue",fontsize="10",style="solid",fontname="Helvetica"];
  Node64 -> Node5 [color="midnightblue",fontsize="10",style="solid",fontname="Helvetica"];
  Node64 -> Node34 [color="midnightblue",fontsize="10",style="solid",fontname="Helvetica"];
  Node61 -> Node65 [color="midnightblue",fontsize="10",style="solid",fontname="Helvetica"];
  Node65 [label="Configuration.hxx",height=0.2,width=0.4,color="red", fillcolor="white", style="filled",URL="$Configuration_8hxx.html",tooltip=" "];
  Node65 -> Node51 [color="midnightblue",fontsize="10",style="solid",fontname="Helvetica"];
  Node65 -> Node5 [color="midnightblue",fontsize="10",style="solid",fontname="Helvetica"];
  Node61 -> Node114 [color="midnightblue",fontsize="10",style="solid",fontname="Helvetica"];
  Node114 [label="Base_DStatusCh.h",height=0.2,width=0.4,color="black", fillcolor="white", style="filled",URL="$Base__DStatusCh_8h.html",tooltip=" "];
  Node114 -> Node5 [color="midnightblue",fontsize="10",style="solid",fontname="Helvetica"];
  Node114 -> Node34 [color="midnightblue",fontsize="10",style="solid",fontname="Helvetica"];
  Node114 -> Node7 [color="midnightblue",fontsize="10",style="solid",fontname="Helvetica"];
  Node114 -> Node58 [color="midnightblue",fontsize="10",style="solid",fontname="Helvetica"];
  Node114 -> Node36 [color="midnightblue",fontsize="10",style="solid",fontname="Helvetica"];
  Node1 -> Node115 [color="midnightblue",fontsize="10",style="solid",fontname="Helvetica"];
  Node115 [label="DStatusPs.h",height=0.2,width=0.4,color="black", fillcolor="white", style="filled",URL="$DStatusPs_8h.html",tooltip=" "];
  Node115 -> Node5 [color="midnightblue",fontsize="10",style="solid",fontname="Helvetica"];
  Node115 -> Node58 [color="midnightblue",fontsize="10",style="solid",fontname="Helvetica"];
  Node115 -> Node11 [color="midnightblue",fontsize="10",style="solid",fontname="Helvetica"];
  Node115 -> Node62 [color="midnightblue",fontsize="10",style="solid",fontname="Helvetica"];
  Node115 -> Node63 [color="midnightblue",fontsize="10",style="solid",fontname="Helvetica"];
  Node115 -> Node64 [color="midnightblue",fontsize="10",style="solid",fontname="Helvetica"];
  Node115 -> Node65 [color="midnightblue",fontsize="10",style="solid",fontname="Helvetica"];
  Node115 -> Node116 [color="midnightblue",fontsize="10",style="solid",fontname="Helvetica"];
  Node116 [label="Base_DStatusPs.h",height=0.2,width=0.4,color="black", fillcolor="white", style="filled",URL="$Base__DStatusPs_8h.html",tooltip=" "];
  Node116 -> Node5 [color="midnightblue",fontsize="10",style="solid",fontname="Helvetica"];
  Node116 -> Node34 [color="midnightblue",fontsize="10",style="solid",fontname="Helvetica"];
  Node116 -> Node7 [color="midnightblue",fontsize="10",style="solid",fontname="Helvetica"];
  Node116 -> Node58 [color="midnightblue",fontsize="10",style="solid",fontname="Helvetica"];
  Node116 -> Node36 [color="midnightblue",fontsize="10",style="solid",fontname="Helvetica"];
  Node1 -> Node117 [color="midnightblue",fontsize="10",style="solid",fontname="Helvetica"];
  Node117 [label="DChannel.h",height=0.2,width=0.4,color="black", fillcolor="white", style="filled",URL="$DChannel_8h.html",tooltip=" "];
  Node117 -> Node118 [color="midnightblue",fontsize="10",style="solid",fontname="Helvetica"];
  Node118 [label="Base_DChannel.h",height=0.2,width=0.4,color="black", fillcolor="white", style="filled",URL="$Base__DChannel_8h.html",tooltip=" "];
  Node118 -> Node5 [color="midnightblue",fontsize="10",style="solid",fontname="Helvetica"];
  Node118 -> Node34 [color="midnightblue",fontsize="10",style="solid",fontname="Helvetica"];
  Node118 -> Node7 [color="midnightblue",fontsize="10",style="solid",fontname="Helvetica"];
  Node118 -> Node58 [color="midnightblue",fontsize="10",style="solid",fontname="Helvetica"];
  Node118 -> Node36 [color="midnightblue",fontsize="10",style="solid",fontname="Helvetica"];
  Node117 -> Node56 [color="midnightblue",fontsize="10",style="solid",fontname="Helvetica"];
  Node117 -> Node119 [color="midnightblue",fontsize="10",style="solid",fontname="Helvetica"];
  Node119 [label="LxiComm.h",height=0.2,width=0.4,color="red", fillcolor="white", style="filled",URL="$LxiComm_8h.html",tooltip=" "];
  Node119 -> Node34 [color="midnightblue",fontsize="10",style="solid",fontname="Helvetica"];
  Node119 -> Node44 [color="midnightblue",fontsize="10",style="solid",fontname="Helvetica"];
  Node119 -> Node47 [color="midnightblue",fontsize="10",style="solid",fontname="Helvetica"];
  Node119 -> Node50 [color="midnightblue",fontsize="10",style="solid",fontname="Helvetica"];
  Node119 -> Node43 [color="midnightblue",fontsize="10",style="solid",fontname="Helvetica"];
  Node1 -> Node120 [color="midnightblue",fontsize="10",style="solid",fontname="Helvetica"];
  Node120 [label="DPowerSupply.h",height=0.2,width=0.4,color="black", fillcolor="white", style="filled",URL="$DPowerSupply_8h.html",tooltip=" "];
  Node120 -> Node5 [color="midnightblue",fontsize="10",style="solid",fontname="Helvetica"];
  Node120 -> Node121 [color="midnightblue",fontsize="10",style="solid",fontname="Helvetica"];
  Node121 [label="boost/foreach.hpp",height=0.2,width=0.4,color="grey75", fillcolor="white", style="filled",tooltip=" "];
  Node120 -> Node11 [color="midnightblue",fontsize="10",style="solid",fontname="Helvetica"];
  Node120 -> Node62 [color="midnightblue",fontsize="10",style="solid",fontname="Helvetica"];
  Node120 -> Node122 [color="midnightblue",fontsize="10",style="solid",fontname="Helvetica"];
  Node122 [label="Base_DPowerSupply.h",height=0.2,width=0.4,color="black", fillcolor="white", style="filled",URL="$Base__DPowerSupply_8h.html",tooltip=" "];
  Node122 -> Node5 [color="midnightblue",fontsize="10",style="solid",fontname="Helvetica"];
  Node122 -> Node34 [color="midnightblue",fontsize="10",style="solid",fontname="Helvetica"];
  Node122 -> Node7 [color="midnightblue",fontsize="10",style="solid",fontname="Helvetica"];
  Node122 -> Node58 [color="midnightblue",fontsize="10",style="solid",fontname="Helvetica"];
  Node122 -> Node36 [color="midnightblue",fontsize="10",style="solid",fontname="Helvetica"];
  Node120 -> Node56 [color="midnightblue",fontsize="10",style="solid",fontname="Helvetica"];
  Node120 -> Node117 [color="midnightblue",fontsize="10",style="solid",fontname="Helvetica"];
  Node120 -> Node119 [color="midnightblue",fontsize="10",style="solid",fontname="Helvetica"];
  Node1 -> Node37 [color="midnightblue",fontsize="10",style="solid",fontname="Helvetica"];
  Node1 -> Node44 [color="midnightblue",fontsize="10",style="solid",fontname="Helvetica"];
  Node1 -> Node123 [color="midnightblue",fontsize="10",style="solid",fontname="Helvetica"];
  Node123 [label="stdexcept",height=0.2,width=0.4,color="grey75", fillcolor="white", style="filled",tooltip=" "];
  Node1 -> Node3 [color="midnightblue",fontsize="10",style="solid",fontname="Helvetica"];
}
