digraph "/home/mludwig/cernLocal/projects/opcua-lxi-master/generatedSources/stack_fake_structures.h"
{
 // LATEX_PDF_SIZE
  edge [fontname="Helvetica",fontsize="10",labelfontname="Helvetica",labelfontsize="10"];
  node [fontname="Helvetica",fontsize="10",shape=record];
  Node1 [label="/home/mludwig/cernLocal\l/projects/opcua-lxi-master\l/generatedSources/stack_fake\l_structures.h",height=0.2,width=0.4,color="black", fillcolor="grey75", style="filled", fontcolor="black",tooltip=" "];
  Node1 -> Node2 [dir="back",color="midnightblue",fontsize="10",style="solid",fontname="Helvetica"];
  Node2 [label="/home/mludwig/cernLocal\l/projects/opcua-lxi-master\l/generatedSources/arrays.h",height=0.2,width=0.4,color="black", fillcolor="white", style="filled",URL="$arrays_8h.html",tooltip=" "];
  Node2 -> Node3 [dir="back",color="midnightblue",fontsize="10",style="solid",fontname="Helvetica"];
  Node3 [label="/home/mludwig/cernLocal\l/projects/opcua-lxi-master\l/generatedSources/arrays\l_test.cpp",height=0.2,width=0.4,color="black", fillcolor="white", style="filled",URL="$arrays__test_8cpp.html",tooltip=" "];
  Node2 -> Node4 [dir="back",color="midnightblue",fontsize="10",style="solid",fontname="Helvetica"];
  Node4 [label="/home/mludwig/cernLocal\l/projects/opcua-lxi-master\l/generatedSources/methodhandleuanode.h",height=0.2,width=0.4,color="black", fillcolor="white", style="filled",URL="$methodhandleuanode_8h.html",tooltip=" "];
  Node4 -> Node5 [dir="back",color="midnightblue",fontsize="10",style="solid",fontname="Helvetica"];
  Node5 [label="/home/mludwig/cernLocal\l/projects/opcua-lxi-master\l/generatedSources/ASChannel.h",height=0.2,width=0.4,color="black", fillcolor="white", style="filled",URL="$ASChannel_8h.html",tooltip=" "];
  Node5 -> Node6 [dir="back",color="midnightblue",fontsize="10",style="solid",fontname="Helvetica"];
  Node6 [label="/home/mludwig/cernLocal\l/projects/opcua-lxi-master\l/Device/src/DChannel.cpp",height=0.2,width=0.4,color="black", fillcolor="white", style="filled",URL="$DChannel_8cpp.html",tooltip=" "];
  Node5 -> Node7 [dir="back",color="midnightblue",fontsize="10",style="solid",fontname="Helvetica"];
  Node7 [label="/home/mludwig/cernLocal\l/projects/opcua-lxi-master\l/Device/src/DPowerSupply.cpp",height=0.2,width=0.4,color="black", fillcolor="white", style="filled",URL="$DPowerSupply_8cpp.html",tooltip=" "];
  Node5 -> Node8 [dir="back",color="midnightblue",fontsize="10",style="solid",fontname="Helvetica"];
  Node8 [label="/home/mludwig/cernLocal\l/projects/opcua-lxi-master\l/generatedSources/AddressSpaceClasses.cpp",height=0.2,width=0.4,color="black", fillcolor="white", style="filled",URL="$AddressSpaceClasses_8cpp.html",tooltip=" "];
  Node5 -> Node9 [dir="back",color="midnightblue",fontsize="10",style="solid",fontname="Helvetica"];
  Node9 [label="/home/mludwig/cernLocal\l/projects/opcua-lxi-master\l/generatedSources/Configurator.cpp",height=0.2,width=0.4,color="black", fillcolor="white", style="filled",URL="$Configurator_8cpp.html",tooltip=" "];
  Node4 -> Node10 [dir="back",color="midnightblue",fontsize="10",style="solid",fontname="Helvetica"];
  Node10 [label="/home/mludwig/cernLocal\l/projects/opcua-lxi-master\l/generatedSources/ASLxiAbstraction.h",height=0.2,width=0.4,color="black", fillcolor="white", style="filled",URL="$ASLxiAbstraction_8h.html",tooltip=" "];
  Node10 -> Node11 [dir="back",color="midnightblue",fontsize="10",style="solid",fontname="Helvetica"];
  Node11 [label="/home/mludwig/cernLocal\l/projects/opcua-lxi-master\l/Device/src/DLxiAbstraction.cpp",height=0.2,width=0.4,color="black", fillcolor="white", style="filled",URL="$DLxiAbstraction_8cpp.html",tooltip=" "];
  Node10 -> Node8 [dir="back",color="midnightblue",fontsize="10",style="solid",fontname="Helvetica"];
  Node10 -> Node9 [dir="back",color="midnightblue",fontsize="10",style="solid",fontname="Helvetica"];
  Node4 -> Node12 [dir="back",color="midnightblue",fontsize="10",style="solid",fontname="Helvetica"];
  Node12 [label="/home/mludwig/cernLocal\l/projects/opcua-lxi-master\l/generatedSources/ASLxiCommand.h",height=0.2,width=0.4,color="black", fillcolor="white", style="filled",URL="$ASLxiCommand_8h.html",tooltip=" "];
  Node12 -> Node13 [dir="back",color="midnightblue",fontsize="10",style="solid",fontname="Helvetica"];
  Node13 [label="/home/mludwig/cernLocal\l/projects/opcua-lxi-master\l/Device/src/DLxiCommand.cpp",height=0.2,width=0.4,color="black", fillcolor="white", style="filled",URL="$DLxiCommand_8cpp.html",tooltip=" "];
  Node12 -> Node8 [dir="back",color="midnightblue",fontsize="10",style="solid",fontname="Helvetica"];
  Node12 -> Node9 [dir="back",color="midnightblue",fontsize="10",style="solid",fontname="Helvetica"];
  Node12 -> Node14 [dir="back",color="midnightblue",fontsize="10",style="solid",fontname="Helvetica"];
  Node14 [label="/home/mludwig/cernLocal\l/projects/opcua-lxi-master\l/Server/src/QuasarServer.cpp",height=0.2,width=0.4,color="black", fillcolor="white", style="filled",URL="$QuasarServer_8cpp.html",tooltip=" "];
  Node4 -> Node15 [dir="back",color="midnightblue",fontsize="10",style="solid",fontname="Helvetica"];
  Node15 [label="/home/mludwig/cernLocal\l/projects/opcua-lxi-master\l/generatedSources/ASPowerSupply.h",height=0.2,width=0.4,color="black", fillcolor="white", style="filled",URL="$ASPowerSupply_8h.html",tooltip=" "];
  Node15 -> Node7 [dir="back",color="midnightblue",fontsize="10",style="solid",fontname="Helvetica"];
  Node15 -> Node8 [dir="back",color="midnightblue",fontsize="10",style="solid",fontname="Helvetica"];
  Node15 -> Node9 [dir="back",color="midnightblue",fontsize="10",style="solid",fontname="Helvetica"];
  Node15 -> Node14 [dir="back",color="midnightblue",fontsize="10",style="solid",fontname="Helvetica"];
  Node4 -> Node16 [dir="back",color="midnightblue",fontsize="10",style="solid",fontname="Helvetica"];
  Node16 [label="/home/mludwig/cernLocal\l/projects/opcua-lxi-master\l/generatedSources/ASStatusCh.h",height=0.2,width=0.4,color="black", fillcolor="white", style="filled",URL="$ASStatusCh_8h.html",tooltip=" "];
  Node16 -> Node17 [dir="back",color="midnightblue",fontsize="10",style="solid",fontname="Helvetica"];
  Node17 [label="/home/mludwig/cernLocal\l/projects/opcua-lxi-master\l/Device/src/DStatusCh.cpp",height=0.2,width=0.4,color="black", fillcolor="white", style="filled",URL="$DStatusCh_8cpp.html",tooltip=" "];
  Node16 -> Node8 [dir="back",color="midnightblue",fontsize="10",style="solid",fontname="Helvetica"];
  Node16 -> Node9 [dir="back",color="midnightblue",fontsize="10",style="solid",fontname="Helvetica"];
  Node4 -> Node18 [dir="back",color="midnightblue",fontsize="10",style="solid",fontname="Helvetica"];
  Node18 [label="/home/mludwig/cernLocal\l/projects/opcua-lxi-master\l/generatedSources/ASStatusPs.h",height=0.2,width=0.4,color="black", fillcolor="white", style="filled",URL="$ASStatusPs_8h.html",tooltip=" "];
  Node18 -> Node19 [dir="back",color="midnightblue",fontsize="10",style="solid",fontname="Helvetica"];
  Node19 [label="/home/mludwig/cernLocal\l/projects/opcua-lxi-master\l/Device/src/DStatusPs.cpp",height=0.2,width=0.4,color="black", fillcolor="white", style="filled",URL="$DStatusPs_8cpp.html",tooltip=" "];
  Node18 -> Node8 [dir="back",color="midnightblue",fontsize="10",style="solid",fontname="Helvetica"];
  Node18 -> Node9 [dir="back",color="midnightblue",fontsize="10",style="solid",fontname="Helvetica"];
  Node4 -> Node20 [dir="back",color="midnightblue",fontsize="10",style="solid",fontname="Helvetica"];
  Node20 [label="/home/mludwig/cernLocal\l/projects/opcua-lxi-master\l/generatedSources/opcua_baseobjecttype.h",height=0.2,width=0.4,color="black", fillcolor="white", style="filled",URL="$opcua__baseobjecttype_8h.html",tooltip=" "];
  Node20 -> Node5 [dir="back",color="midnightblue",fontsize="10",style="solid",fontname="Helvetica"];
  Node20 -> Node10 [dir="back",color="midnightblue",fontsize="10",style="solid",fontname="Helvetica"];
  Node20 -> Node12 [dir="back",color="midnightblue",fontsize="10",style="solid",fontname="Helvetica"];
  Node20 -> Node15 [dir="back",color="midnightblue",fontsize="10",style="solid",fontname="Helvetica"];
  Node20 -> Node16 [dir="back",color="midnightblue",fontsize="10",style="solid",fontname="Helvetica"];
  Node20 -> Node18 [dir="back",color="midnightblue",fontsize="10",style="solid",fontname="Helvetica"];
  Node20 -> Node21 [dir="back",color="midnightblue",fontsize="10",style="solid",fontname="Helvetica"];
  Node21 [label="/home/mludwig/cernLocal\l/projects/opcua-lxi-master\l/generatedSources/open62541\l_compat.h",height=0.2,width=0.4,color="black", fillcolor="white", style="filled",URL="$open62541__compat_8h.html",tooltip=" "];
  Node21 -> Node22 [dir="back",color="midnightblue",fontsize="10",style="solid",fontname="Helvetica"];
  Node22 [label="/home/mludwig/cernLocal\l/projects/opcua-lxi-master\l/generatedSources/opcua_basedatavariabletype.h",height=0.2,width=0.4,color="red", fillcolor="white", style="filled",URL="$opcua__basedatavariabletype_8h.html",tooltip=" "];
  Node22 -> Node21 [dir="back",color="midnightblue",fontsize="10",style="solid",fontname="Helvetica"];
  Node22 -> Node25 [dir="back",color="midnightblue",fontsize="10",style="solid",fontname="Helvetica"];
  Node25 [label="/home/mludwig/cernLocal\l/projects/opcua-lxi-master\l/Meta/include/ASBuildInformation.h",height=0.2,width=0.4,color="black", fillcolor="white", style="filled",URL="$ASBuildInformation_8h.html",tooltip=" "];
  Node25 -> Node26 [dir="back",color="midnightblue",fontsize="10",style="solid",fontname="Helvetica"];
  Node26 [label="/home/mludwig/cernLocal\l/projects/opcua-lxi-master\l/generatedSources/MetaAmalgamate.cpp",height=0.2,width=0.4,color="black", fillcolor="white", style="filled",URL="$MetaAmalgamate_8cpp.html",tooltip=" "];
  Node25 -> Node27 [dir="back",color="midnightblue",fontsize="10",style="solid",fontname="Helvetica"];
  Node27 [label="/home/mludwig/cernLocal\l/projects/opcua-lxi-master\l/Meta/src/ASBuildInformation.cpp",height=0.2,width=0.4,color="black", fillcolor="white", style="filled",URL="$ASBuildInformation_8cpp.html",tooltip=" "];
  Node25 -> Node28 [dir="back",color="midnightblue",fontsize="10",style="solid",fontname="Helvetica"];
  Node28 [label="/home/mludwig/cernLocal\l/projects/opcua-lxi-master\l/Meta/src/DBuildInformation.cpp",height=0.2,width=0.4,color="black", fillcolor="white", style="filled",URL="$DBuildInformation_8cpp.html",tooltip=" "];
  Node25 -> Node29 [dir="back",color="midnightblue",fontsize="10",style="solid",fontname="Helvetica"];
  Node29 [label="/home/mludwig/cernLocal\l/projects/opcua-lxi-master\l/Meta/src/meta.cpp",height=0.2,width=0.4,color="black", fillcolor="white", style="filled",URL="$meta_8cpp.html",tooltip=" "];
  Node22 -> Node30 [dir="back",color="midnightblue",fontsize="10",style="solid",fontname="Helvetica"];
  Node30 [label="/home/mludwig/cernLocal\l/projects/opcua-lxi-master\l/Meta/include/ASComponentLogLevel.h",height=0.2,width=0.4,color="black", fillcolor="white", style="filled",URL="$ASComponentLogLevel_8h.html",tooltip=" "];
  Node30 -> Node26 [dir="back",color="midnightblue",fontsize="10",style="solid",fontname="Helvetica"];
  Node30 -> Node31 [dir="back",color="midnightblue",fontsize="10",style="solid",fontname="Helvetica"];
  Node31 [label="/home/mludwig/cernLocal\l/projects/opcua-lxi-master\l/Meta/src/ASComponentLogLevel.cpp",height=0.2,width=0.4,color="black", fillcolor="white", style="filled",URL="$ASComponentLogLevel_8cpp.html",tooltip=" "];
  Node30 -> Node32 [dir="back",color="midnightblue",fontsize="10",style="solid",fontname="Helvetica"];
  Node32 [label="/home/mludwig/cernLocal\l/projects/opcua-lxi-master\l/Meta/src/Base_DComponentLogLevel.cpp",height=0.2,width=0.4,color="black", fillcolor="white", style="filled",URL="$Base__DComponentLogLevel_8cpp.html",tooltip=" "];
  Node30 -> Node33 [dir="back",color="midnightblue",fontsize="10",style="solid",fontname="Helvetica"];
  Node33 [label="/home/mludwig/cernLocal\l/projects/opcua-lxi-master\l/Meta/src/DComponentLogLevel.cpp",height=0.2,width=0.4,color="black", fillcolor="white", style="filled",URL="$DComponentLogLevel_8cpp.html",tooltip=" "];
  Node30 -> Node29 [dir="back",color="midnightblue",fontsize="10",style="solid",fontname="Helvetica"];
  Node22 -> Node34 [dir="back",color="midnightblue",fontsize="10",style="solid",fontname="Helvetica"];
  Node34 [label="/home/mludwig/cernLocal\l/projects/opcua-lxi-master\l/Meta/include/ASComponentLogLevels.h",height=0.2,width=0.4,color="black", fillcolor="white", style="filled",URL="$ASComponentLogLevels_8h.html",tooltip=" "];
  Node34 -> Node26 [dir="back",color="midnightblue",fontsize="10",style="solid",fontname="Helvetica"];
  Node34 -> Node35 [dir="back",color="midnightblue",fontsize="10",style="solid",fontname="Helvetica"];
  Node35 [label="/home/mludwig/cernLocal\l/projects/opcua-lxi-master\l/Meta/src/ASComponentLogLevels.cpp",height=0.2,width=0.4,color="black", fillcolor="white", style="filled",URL="$ASComponentLogLevels_8cpp.html",tooltip=" "];
  Node34 -> Node29 [dir="back",color="midnightblue",fontsize="10",style="solid",fontname="Helvetica"];
  Node22 -> Node36 [dir="back",color="midnightblue",fontsize="10",style="solid",fontname="Helvetica"];
  Node36 [label="/home/mludwig/cernLocal\l/projects/opcua-lxi-master\l/Meta/include/ASGeneralLogLevel.h",height=0.2,width=0.4,color="black", fillcolor="white", style="filled",URL="$ASGeneralLogLevel_8h.html",tooltip=" "];
  Node36 -> Node26 [dir="back",color="midnightblue",fontsize="10",style="solid",fontname="Helvetica"];
  Node36 -> Node37 [dir="back",color="midnightblue",fontsize="10",style="solid",fontname="Helvetica"];
  Node37 [label="/home/mludwig/cernLocal\l/projects/opcua-lxi-master\l/Meta/src/ASGeneralLogLevel.cpp",height=0.2,width=0.4,color="black", fillcolor="white", style="filled",URL="$ASGeneralLogLevel_8cpp.html",tooltip=" "];
  Node36 -> Node38 [dir="back",color="midnightblue",fontsize="10",style="solid",fontname="Helvetica"];
  Node38 [label="/home/mludwig/cernLocal\l/projects/opcua-lxi-master\l/Meta/src/Base_DGeneralLogLevel.cpp",height=0.2,width=0.4,color="black", fillcolor="white", style="filled",URL="$Base__DGeneralLogLevel_8cpp.html",tooltip=" "];
  Node36 -> Node39 [dir="back",color="midnightblue",fontsize="10",style="solid",fontname="Helvetica"];
  Node39 [label="/home/mludwig/cernLocal\l/projects/opcua-lxi-master\l/Meta/src/DGeneralLogLevel.cpp",height=0.2,width=0.4,color="black", fillcolor="white", style="filled",URL="$DGeneralLogLevel_8cpp.html",tooltip=" "];
  Node36 -> Node29 [dir="back",color="midnightblue",fontsize="10",style="solid",fontname="Helvetica"];
  Node22 -> Node40 [dir="back",color="midnightblue",fontsize="10",style="solid",fontname="Helvetica"];
  Node40 [label="/home/mludwig/cernLocal\l/projects/opcua-lxi-master\l/Meta/include/ASLog.h",height=0.2,width=0.4,color="red", fillcolor="white", style="filled",URL="$ASLog_8h.html",tooltip=" "];
  Node40 -> Node26 [dir="back",color="midnightblue",fontsize="10",style="solid",fontname="Helvetica"];
  Node40 -> Node29 [dir="back",color="midnightblue",fontsize="10",style="solid",fontname="Helvetica"];
  Node22 -> Node42 [dir="back",color="midnightblue",fontsize="10",style="solid",fontname="Helvetica"];
  Node42 [label="/home/mludwig/cernLocal\l/projects/opcua-lxi-master\l/Meta/include/ASQuasar.h",height=0.2,width=0.4,color="red", fillcolor="white", style="filled",URL="$ASQuasar_8h.html",tooltip=" "];
  Node42 -> Node26 [dir="back",color="midnightblue",fontsize="10",style="solid",fontname="Helvetica"];
  Node42 -> Node29 [dir="back",color="midnightblue",fontsize="10",style="solid",fontname="Helvetica"];
  Node22 -> Node46 [dir="back",color="midnightblue",fontsize="10",style="solid",fontname="Helvetica"];
  Node46 [label="/home/mludwig/cernLocal\l/projects/opcua-lxi-master\l/Meta/include/ASServer.h",height=0.2,width=0.4,color="red", fillcolor="white", style="filled",URL="$ASServer_8h.html",tooltip=" "];
  Node46 -> Node26 [dir="back",color="midnightblue",fontsize="10",style="solid",fontname="Helvetica"];
  Node46 -> Node29 [dir="back",color="midnightblue",fontsize="10",style="solid",fontname="Helvetica"];
  Node22 -> Node50 [dir="back",color="midnightblue",fontsize="10",style="solid",fontname="Helvetica"];
  Node50 [label="/home/mludwig/cernLocal\l/projects/opcua-lxi-master\l/Meta/include/ASSourceVariableThread\lPool.h",height=0.2,width=0.4,color="red", fillcolor="white", style="filled",URL="$ASSourceVariableThreadPool_8h.html",tooltip=" "];
  Node50 -> Node26 [dir="back",color="midnightblue",fontsize="10",style="solid",fontname="Helvetica"];
  Node50 -> Node29 [dir="back",color="midnightblue",fontsize="10",style="solid",fontname="Helvetica"];
  Node22 -> Node54 [dir="back",color="midnightblue",fontsize="10",style="solid",fontname="Helvetica"];
  Node54 [label="/home/mludwig/cernLocal\l/projects/opcua-lxi-master\l/Meta/include/ASStandardMetaData.h",height=0.2,width=0.4,color="red", fillcolor="white", style="filled",URL="$ASStandardMetaData_8h.html",tooltip=" "];
  Node54 -> Node26 [dir="back",color="midnightblue",fontsize="10",style="solid",fontname="Helvetica"];
  Node54 -> Node29 [dir="back",color="midnightblue",fontsize="10",style="solid",fontname="Helvetica"];
  Node21 -> Node69 [dir="back",color="midnightblue",fontsize="10",style="solid",fontname="Helvetica"];
  Node69 [label="/home/mludwig/cernLocal\l/projects/opcua-lxi-master\l/generatedSources/open62541\l_compat.cpp",height=0.2,width=0.4,color="black", fillcolor="white", style="filled",URL="$open62541__compat_8cpp.html",tooltip=" "];
  Node21 -> Node70 [dir="back",color="midnightblue",fontsize="10",style="solid",fontname="Helvetica"];
  Node70 [label="/home/mludwig/cernLocal\l/projects/opcua-lxi-master\l/generatedSources/uastring.cpp",height=0.2,width=0.4,color="black", fillcolor="white", style="filled",URL="$uastring_8cpp.html",tooltip=" "];
  Node21 -> Node71 [dir="back",color="midnightblue",fontsize="10",style="solid",fontname="Helvetica"];
  Node71 [label="/home/mludwig/cernLocal\l/projects/opcua-lxi-master\l/generatedSources/uavariant.cpp",height=0.2,width=0.4,color="black", fillcolor="white", style="filled",URL="$uavariant_8cpp.html",tooltip=" "];
  Node20 -> Node25 [dir="back",color="midnightblue",fontsize="10",style="solid",fontname="Helvetica"];
  Node20 -> Node30 [dir="back",color="midnightblue",fontsize="10",style="solid",fontname="Helvetica"];
  Node20 -> Node34 [dir="back",color="midnightblue",fontsize="10",style="solid",fontname="Helvetica"];
  Node20 -> Node36 [dir="back",color="midnightblue",fontsize="10",style="solid",fontname="Helvetica"];
  Node20 -> Node40 [dir="back",color="midnightblue",fontsize="10",style="solid",fontname="Helvetica"];
  Node20 -> Node42 [dir="back",color="midnightblue",fontsize="10",style="solid",fontname="Helvetica"];
  Node20 -> Node46 [dir="back",color="midnightblue",fontsize="10",style="solid",fontname="Helvetica"];
  Node20 -> Node50 [dir="back",color="midnightblue",fontsize="10",style="solid",fontname="Helvetica"];
  Node20 -> Node54 [dir="back",color="midnightblue",fontsize="10",style="solid",fontname="Helvetica"];
  Node4 -> Node25 [dir="back",color="midnightblue",fontsize="10",style="solid",fontname="Helvetica"];
  Node2 -> Node72 [dir="back",color="midnightblue",fontsize="10",style="solid",fontname="Helvetica"];
  Node72 [label="/home/mludwig/cernLocal\l/projects/opcua-lxi-master\l/generatedSources/methodmanager.h",height=0.2,width=0.4,color="black", fillcolor="white", style="filled",URL="$methodmanager_8h.html",tooltip=" "];
  Node72 -> Node20 [dir="back",color="midnightblue",fontsize="10",style="solid",fontname="Helvetica"];
  Node2 -> Node73 [dir="back",color="midnightblue",fontsize="10",style="solid",fontname="Helvetica"];
  Node73 [label="/home/mludwig/cernLocal\l/projects/opcua-lxi-master\l/generatedSources/uasession.h",height=0.2,width=0.4,color="black", fillcolor="white", style="filled",URL="$uasession_8h.html",tooltip=" "];
  Node73 -> Node74 [dir="back",color="midnightblue",fontsize="10",style="solid",fontname="Helvetica"];
  Node74 [label="/home/mludwig/cernLocal\l/projects/opcua-lxi-master\l/Server/include/QuasarServerCallback.h",height=0.2,width=0.4,color="black", fillcolor="white", style="filled",URL="$QuasarServerCallback_8h.html",tooltip=" "];
  Node74 -> Node75 [dir="back",color="midnightblue",fontsize="10",style="solid",fontname="Helvetica"];
  Node75 [label="/home/mludwig/cernLocal\l/projects/opcua-lxi-master\l/Server/src/QuasarServerCallback.cpp",height=0.2,width=0.4,color="black", fillcolor="white", style="filled",URL="$QuasarServerCallback_8cpp.html",tooltip=" "];
  Node2 -> Node76 [dir="back",color="midnightblue",fontsize="10",style="solid",fontname="Helvetica"];
  Node76 [label="/home/mludwig/cernLocal\l/projects/opcua-lxi-master\l/generatedSources/uavariant\l_test.cpp",height=0.2,width=0.4,color="black", fillcolor="white", style="filled",URL="$uavariant__test_8cpp.html",tooltip=" "];
}
