digraph "/home/mludwig/cernLocal/projects/opcua-lxi-master/generatedSources/statuscode.h"
{
 // LATEX_PDF_SIZE
  edge [fontname="Helvetica",fontsize="10",labelfontname="Helvetica",labelfontsize="10"];
  node [fontname="Helvetica",fontsize="10",shape=record];
  Node1 [label="/home/mludwig/cernLocal\l/projects/opcua-lxi-master\l/generatedSources/statuscode.h",height=0.2,width=0.4,color="black", fillcolor="grey75", style="filled", fontcolor="black",tooltip=" "];
  Node1 -> Node2 [dir="back",color="midnightblue",fontsize="10",style="solid",fontname="Helvetica"];
  Node2 [label="/home/mludwig/cernLocal\l/projects/opcua-lxi-master\l/Common/include/QuasarThreadPool.h",height=0.2,width=0.4,color="black", fillcolor="white", style="filled",URL="$QuasarThreadPool_8h.html",tooltip=" "];
  Node2 -> Node3 [dir="back",color="midnightblue",fontsize="10",style="solid",fontname="Helvetica"];
  Node3 [label="/home/mludwig/cernLocal\l/projects/opcua-lxi-master\l/Common/src/QuasarThreadPool.cpp",height=0.2,width=0.4,color="black", fillcolor="white", style="filled",URL="$QuasarThreadPool_8cpp.html",tooltip=" "];
  Node2 -> Node4 [dir="back",color="midnightblue",fontsize="10",style="solid",fontname="Helvetica"];
  Node4 [label="/home/mludwig/cernLocal\l/projects/opcua-lxi-master\l/generatedSources/SourceVariables.cpp",height=0.2,width=0.4,color="black", fillcolor="white", style="filled",URL="$SourceVariables_8cpp.html",tooltip=" "];
  Node2 -> Node5 [dir="back",color="midnightblue",fontsize="10",style="solid",fontname="Helvetica"];
  Node5 [label="/home/mludwig/cernLocal\l/projects/opcua-lxi-master\l/generatedSources/SourceVariables.h",height=0.2,width=0.4,color="red", fillcolor="white", style="filled",URL="$SourceVariables_8h.html",tooltip=" "];
  Node5 -> Node11 [dir="back",color="midnightblue",fontsize="10",style="solid",fontname="Helvetica"];
  Node11 [label="/home/mludwig/cernLocal\l/projects/opcua-lxi-master\l/generatedSources/AddressSpaceClasses.cpp",height=0.2,width=0.4,color="black", fillcolor="white", style="filled",URL="$AddressSpaceClasses_8cpp.html",tooltip=" "];
  Node5 -> Node4 [dir="back",color="midnightblue",fontsize="10",style="solid",fontname="Helvetica"];
  Node1 -> Node59 [dir="back",color="midnightblue",fontsize="10",style="solid",fontname="Helvetica"];
  Node59 [label="/home/mludwig/cernLocal\l/projects/opcua-lxi-master\l/Device/include/DPowerSupply.h",height=0.2,width=0.4,color="black", fillcolor="white", style="filled",URL="$DPowerSupply_8h.html",tooltip=" "];
  Node59 -> Node9 [dir="back",color="midnightblue",fontsize="10",style="solid",fontname="Helvetica"];
  Node9 [label="/home/mludwig/cernLocal\l/projects/opcua-lxi-master\l/Device/src/DChannel.cpp",height=0.2,width=0.4,color="black", fillcolor="white", style="filled",URL="$DChannel_8cpp.html",tooltip=" "];
  Node59 -> Node10 [dir="back",color="midnightblue",fontsize="10",style="solid",fontname="Helvetica"];
  Node10 [label="/home/mludwig/cernLocal\l/projects/opcua-lxi-master\l/Device/src/DPowerSupply.cpp",height=0.2,width=0.4,color="black", fillcolor="white", style="filled",URL="$DPowerSupply_8cpp.html",tooltip=" "];
  Node59 -> Node11 [dir="back",color="midnightblue",fontsize="10",style="solid",fontname="Helvetica"];
  Node59 -> Node60 [dir="back",color="midnightblue",fontsize="10",style="solid",fontname="Helvetica"];
  Node60 [label="/home/mludwig/cernLocal\l/projects/opcua-lxi-master\l/generatedSources/Base_All.cpp",height=0.2,width=0.4,color="black", fillcolor="white", style="filled",URL="$Base__All_8cpp.html",tooltip=" "];
  Node59 -> Node12 [dir="back",color="midnightblue",fontsize="10",style="solid",fontname="Helvetica"];
  Node12 [label="/home/mludwig/cernLocal\l/projects/opcua-lxi-master\l/generatedSources/Configurator.cpp",height=0.2,width=0.4,color="black", fillcolor="white", style="filled",URL="$Configurator_8cpp.html",tooltip=" "];
  Node59 -> Node61 [dir="back",color="midnightblue",fontsize="10",style="solid",fontname="Helvetica"];
  Node61 [label="/home/mludwig/cernLocal\l/projects/opcua-lxi-master\l/generatedSources/ConfigValidator.cpp",height=0.2,width=0.4,color="black", fillcolor="white", style="filled",URL="$ConfigValidator_8cpp.html",tooltip=" "];
  Node59 -> Node62 [dir="back",color="midnightblue",fontsize="10",style="solid",fontname="Helvetica"];
  Node62 [label="/home/mludwig/cernLocal\l/projects/opcua-lxi-master\l/generatedSources/DRoot.cpp",height=0.2,width=0.4,color="black", fillcolor="white", style="filled",URL="$DRoot_8cpp.html",tooltip=" "];
  Node59 -> Node4 [dir="back",color="midnightblue",fontsize="10",style="solid",fontname="Helvetica"];
  Node59 -> Node17 [dir="back",color="midnightblue",fontsize="10",style="solid",fontname="Helvetica"];
  Node17 [label="/home/mludwig/cernLocal\l/projects/opcua-lxi-master\l/Server/src/QuasarServer.cpp",height=0.2,width=0.4,color="black", fillcolor="white", style="filled",URL="$QuasarServer_8cpp.html",tooltip=" "];
  Node1 -> Node63 [dir="back",color="midnightblue",fontsize="10",style="solid",fontname="Helvetica"];
  Node63 [label="/home/mludwig/cernLocal\l/projects/opcua-lxi-master\l/Device/include/DStatusCh.h",height=0.2,width=0.4,color="black", fillcolor="white", style="filled",URL="$DStatusCh_8h.html",tooltip=" "];
  Node63 -> Node10 [dir="back",color="midnightblue",fontsize="10",style="solid",fontname="Helvetica"];
  Node63 -> Node20 [dir="back",color="midnightblue",fontsize="10",style="solid",fontname="Helvetica"];
  Node20 [label="/home/mludwig/cernLocal\l/projects/opcua-lxi-master\l/Device/src/DStatusCh.cpp",height=0.2,width=0.4,color="black", fillcolor="white", style="filled",URL="$DStatusCh_8cpp.html",tooltip=" "];
  Node63 -> Node11 [dir="back",color="midnightblue",fontsize="10",style="solid",fontname="Helvetica"];
  Node63 -> Node60 [dir="back",color="midnightblue",fontsize="10",style="solid",fontname="Helvetica"];
  Node63 -> Node12 [dir="back",color="midnightblue",fontsize="10",style="solid",fontname="Helvetica"];
  Node63 -> Node61 [dir="back",color="midnightblue",fontsize="10",style="solid",fontname="Helvetica"];
  Node63 -> Node4 [dir="back",color="midnightblue",fontsize="10",style="solid",fontname="Helvetica"];
  Node1 -> Node64 [dir="back",color="midnightblue",fontsize="10",style="solid",fontname="Helvetica"];
  Node64 [label="/home/mludwig/cernLocal\l/projects/opcua-lxi-master\l/Device/include/DStatusPs.h",height=0.2,width=0.4,color="black", fillcolor="white", style="filled",URL="$DStatusPs_8h.html",tooltip=" "];
  Node64 -> Node10 [dir="back",color="midnightblue",fontsize="10",style="solid",fontname="Helvetica"];
  Node64 -> Node22 [dir="back",color="midnightblue",fontsize="10",style="solid",fontname="Helvetica"];
  Node22 [label="/home/mludwig/cernLocal\l/projects/opcua-lxi-master\l/Device/src/DStatusPs.cpp",height=0.2,width=0.4,color="black", fillcolor="white", style="filled",URL="$DStatusPs_8cpp.html",tooltip=" "];
  Node64 -> Node11 [dir="back",color="midnightblue",fontsize="10",style="solid",fontname="Helvetica"];
  Node64 -> Node60 [dir="back",color="midnightblue",fontsize="10",style="solid",fontname="Helvetica"];
  Node64 -> Node12 [dir="back",color="midnightblue",fontsize="10",style="solid",fontname="Helvetica"];
  Node64 -> Node61 [dir="back",color="midnightblue",fontsize="10",style="solid",fontname="Helvetica"];
  Node64 -> Node4 [dir="back",color="midnightblue",fontsize="10",style="solid",fontname="Helvetica"];
  Node1 -> Node65 [dir="back",color="midnightblue",fontsize="10",style="solid",fontname="Helvetica"];
  Node65 [label="/home/mludwig/cernLocal\l/projects/opcua-lxi-master\l/generatedSources/arrays.h",height=0.2,width=0.4,color="black", fillcolor="white", style="filled",URL="$arrays_8h.html",tooltip=" "];
  Node65 -> Node66 [dir="back",color="midnightblue",fontsize="10",style="solid",fontname="Helvetica"];
  Node66 [label="/home/mludwig/cernLocal\l/projects/opcua-lxi-master\l/generatedSources/arrays\l_test.cpp",height=0.2,width=0.4,color="black", fillcolor="white", style="filled",URL="$arrays__test_8cpp.html",tooltip=" "];
  Node65 -> Node67 [dir="back",color="midnightblue",fontsize="10",style="solid",fontname="Helvetica"];
  Node67 [label="/home/mludwig/cernLocal\l/projects/opcua-lxi-master\l/generatedSources/methodhandleuanode.h",height=0.2,width=0.4,color="red", fillcolor="white", style="filled",URL="$methodhandleuanode_8h.html",tooltip=" "];
  Node65 -> Node85 [dir="back",color="midnightblue",fontsize="10",style="solid",fontname="Helvetica"];
  Node85 [label="/home/mludwig/cernLocal\l/projects/opcua-lxi-master\l/generatedSources/methodmanager.h",height=0.2,width=0.4,color="red", fillcolor="white", style="filled",URL="$methodmanager_8h.html",tooltip=" "];
  Node65 -> Node86 [dir="back",color="midnightblue",fontsize="10",style="solid",fontname="Helvetica"];
  Node86 [label="/home/mludwig/cernLocal\l/projects/opcua-lxi-master\l/generatedSources/uasession.h",height=0.2,width=0.4,color="red", fillcolor="white", style="filled",URL="$uasession_8h.html",tooltip=" "];
  Node65 -> Node89 [dir="back",color="midnightblue",fontsize="10",style="solid",fontname="Helvetica"];
  Node89 [label="/home/mludwig/cernLocal\l/projects/opcua-lxi-master\l/generatedSources/uavariant\l_test.cpp",height=0.2,width=0.4,color="black", fillcolor="white", style="filled",URL="$uavariant__test_8cpp.html",tooltip=" "];
  Node1 -> Node90 [dir="back",color="midnightblue",fontsize="10",style="solid",fontname="Helvetica"];
  Node90 [label="/home/mludwig/cernLocal\l/projects/opcua-lxi-master\l/generatedSources/uavariant.h",height=0.2,width=0.4,color="black", fillcolor="white", style="filled",URL="$uavariant_8h.html",tooltip=" "];
  Node90 -> Node91 [dir="back",color="midnightblue",fontsize="10",style="solid",fontname="Helvetica"];
  Node91 [label="/home/mludwig/cernLocal\l/projects/opcua-lxi-master\l/AddressSpace/include/ArrayTools.h",height=0.2,width=0.4,color="red", fillcolor="white", style="filled",URL="$ArrayTools_8h.html",tooltip=" "];
  Node91 -> Node11 [dir="back",color="midnightblue",fontsize="10",style="solid",fontname="Helvetica"];
  Node90 -> Node66 [dir="back",color="midnightblue",fontsize="10",style="solid",fontname="Helvetica"];
  Node90 -> Node85 [dir="back",color="midnightblue",fontsize="10",style="solid",fontname="Helvetica"];
  Node90 -> Node69 [dir="back",color="midnightblue",fontsize="10",style="solid",fontname="Helvetica"];
  Node69 [label="/home/mludwig/cernLocal\l/projects/opcua-lxi-master\l/generatedSources/open62541\l_compat.h",height=0.2,width=0.4,color="red", fillcolor="white", style="filled",URL="$open62541__compat_8h.html",tooltip=" "];
  Node69 -> Node70 [dir="back",color="midnightblue",fontsize="10",style="solid",fontname="Helvetica"];
  Node70 [label="/home/mludwig/cernLocal\l/projects/opcua-lxi-master\l/generatedSources/opcua_basedatavariabletype.h",height=0.2,width=0.4,color="red", fillcolor="white", style="filled",URL="$opcua__basedatavariabletype_8h.html",tooltip=" "];
  Node70 -> Node69 [dir="back",color="midnightblue",fontsize="10",style="solid",fontname="Helvetica"];
  Node90 -> Node93 [dir="back",color="midnightblue",fontsize="10",style="solid",fontname="Helvetica"];
  Node93 [label="/home/mludwig/cernLocal\l/projects/opcua-lxi-master\l/generatedSources/uaclientsdk.h",height=0.2,width=0.4,color="black", fillcolor="white", style="filled",URL="$uaclientsdk_8h.html",tooltip=" "];
  Node90 -> Node94 [dir="back",color="midnightblue",fontsize="10",style="solid",fontname="Helvetica"];
  Node94 [label="/home/mludwig/cernLocal\l/projects/opcua-lxi-master\l/generatedSources/uadatavalue.h",height=0.2,width=0.4,color="red", fillcolor="white", style="filled",URL="$uadatavalue_8h.html",tooltip=" "];
  Node94 -> Node70 [dir="back",color="midnightblue",fontsize="10",style="solid",fontname="Helvetica"];
  Node90 -> Node98 [dir="back",color="midnightblue",fontsize="10",style="solid",fontname="Helvetica"];
  Node98 [label="/home/mludwig/cernLocal\l/projects/opcua-lxi-master\l/generatedSources/uavariant_test.h",height=0.2,width=0.4,color="black", fillcolor="white", style="filled",URL="$uavariant__test_8h.html",tooltip=" "];
  Node98 -> Node89 [dir="back",color="midnightblue",fontsize="10",style="solid",fontname="Helvetica"];
  Node90 -> Node99 [dir="back",color="midnightblue",fontsize="10",style="solid",fontname="Helvetica"];
  Node99 [label="/home/mludwig/cernLocal\l/projects/opcua-lxi-master\l/Server/include/shutdown.h",height=0.2,width=0.4,color="red", fillcolor="white", style="filled",URL="$shutdown_8h.html",tooltip=" "];
  Node99 -> Node10 [dir="back",color="midnightblue",fontsize="10",style="solid",fontname="Helvetica"];
  Node99 -> Node17 [dir="back",color="midnightblue",fontsize="10",style="solid",fontname="Helvetica"];
  Node1 -> Node101 [dir="back",color="midnightblue",fontsize="10",style="solid",fontname="Helvetica"];
  Node101 [label="/home/mludwig/cernLocal\l/projects/opcua-lxi-master\l/generatedSources/nodemanagerbase.h",height=0.2,width=0.4,color="red", fillcolor="white", style="filled",URL="$nodemanagerbase_8h.html",tooltip=" "];
  Node101 -> Node70 [dir="back",color="midnightblue",fontsize="10",style="solid",fontname="Helvetica"];
  Node101 -> Node69 [dir="back",color="midnightblue",fontsize="10",style="solid",fontname="Helvetica"];
  Node1 -> Node70 [dir="back",color="midnightblue",fontsize="10",style="solid",fontname="Helvetica"];
  Node1 -> Node69 [dir="back",color="midnightblue",fontsize="10",style="solid",fontname="Helvetica"];
  Node1 -> Node115 [dir="back",color="midnightblue",fontsize="10",style="solid",fontname="Helvetica"];
  Node115 [label="/home/mludwig/cernLocal\l/projects/opcua-lxi-master\l/generatedSources/statuscode.cpp",height=0.2,width=0.4,color="black", fillcolor="white", style="filled",URL="$statuscode_8cpp.html",tooltip=" "];
  Node1 -> Node116 [dir="back",color="midnightblue",fontsize="10",style="solid",fontname="Helvetica"];
  Node116 [label="/home/mludwig/cernLocal\l/projects/opcua-lxi-master\l/generatedSources/uabytestring.cpp",height=0.2,width=0.4,color="black", fillcolor="white", style="filled",URL="$uabytestring_8cpp.html",tooltip=" "];
  Node1 -> Node117 [dir="back",color="midnightblue",fontsize="10",style="solid",fontname="Helvetica"];
  Node117 [label="/home/mludwig/cernLocal\l/projects/opcua-lxi-master\l/generatedSources/uadatavariablecache.h",height=0.2,width=0.4,color="red", fillcolor="white", style="filled",URL="$uadatavariablecache_8h.html",tooltip=" "];
  Node1 -> Node114 [dir="back",color="midnightblue",fontsize="10",style="solid",fontname="Helvetica"];
  Node114 [label="/home/mludwig/cernLocal\l/projects/opcua-lxi-master\l/generatedSources/uaserver.cpp",height=0.2,width=0.4,color="black", fillcolor="white", style="filled",URL="$uaserver_8cpp.html",tooltip=" "];
  Node1 -> Node119 [dir="back",color="midnightblue",fontsize="10",style="solid",fontname="Helvetica"];
  Node119 [label="/home/mludwig/cernLocal\l/projects/opcua-lxi-master\l/Meta/include/Base_DComponentLog\lLevel.h",height=0.2,width=0.4,color="red", fillcolor="white", style="filled",URL="$Base__DComponentLogLevel_8h.html",tooltip=" "];
  Node119 -> Node119 [dir="back",color="midnightblue",fontsize="10",style="solid",fontname="Helvetica"];
  Node119 -> Node120 [dir="back",color="midnightblue",fontsize="10",style="solid",fontname="Helvetica"];
  Node120 [label="/home/mludwig/cernLocal\l/projects/opcua-lxi-master\l/Meta/include/DComponentLogLevel.h",height=0.2,width=0.4,color="red", fillcolor="white", style="filled",URL="$DComponentLogLevel_8h.html",tooltip=" "];
  Node1 -> Node121 [dir="back",color="midnightblue",fontsize="10",style="solid",fontname="Helvetica"];
  Node121 [label="/home/mludwig/cernLocal\l/projects/opcua-lxi-master\l/Meta/include/Base_DGeneralLogLevel.h",height=0.2,width=0.4,color="red", fillcolor="white", style="filled",URL="$Base__DGeneralLogLevel_8h.html",tooltip=" "];
  Node121 -> Node121 [dir="back",color="midnightblue",fontsize="10",style="solid",fontname="Helvetica"];
  Node121 -> Node122 [dir="back",color="midnightblue",fontsize="10",style="solid",fontname="Helvetica"];
  Node122 [label="/home/mludwig/cernLocal\l/projects/opcua-lxi-master\l/Meta/include/DGeneralLogLevel.h",height=0.2,width=0.4,color="red", fillcolor="white", style="filled",URL="$DGeneralLogLevel_8h.html",tooltip=" "];
  Node1 -> Node123 [dir="back",color="midnightblue",fontsize="10",style="solid",fontname="Helvetica"];
  Node123 [label="/home/mludwig/cernLocal\l/projects/opcua-lxi-master\l/Meta/include/Base_DQuasar.h",height=0.2,width=0.4,color="red", fillcolor="white", style="filled",URL="$Base__DQuasar_8h.html",tooltip=" "];
  Node123 -> Node123 [dir="back",color="midnightblue",fontsize="10",style="solid",fontname="Helvetica"];
  Node123 -> Node124 [dir="back",color="midnightblue",fontsize="10",style="solid",fontname="Helvetica"];
  Node124 [label="/home/mludwig/cernLocal\l/projects/opcua-lxi-master\l/Meta/include/DQuasar.h",height=0.2,width=0.4,color="red", fillcolor="white", style="filled",URL="$DQuasar_8h.html",tooltip=" "];
  Node1 -> Node125 [dir="back",color="midnightblue",fontsize="10",style="solid",fontname="Helvetica"];
  Node125 [label="/home/mludwig/cernLocal\l/projects/opcua-lxi-master\l/Meta/include/Base_DServer.h",height=0.2,width=0.4,color="red", fillcolor="white", style="filled",URL="$Base__DServer_8h.html",tooltip=" "];
  Node125 -> Node125 [dir="back",color="midnightblue",fontsize="10",style="solid",fontname="Helvetica"];
  Node125 -> Node126 [dir="back",color="midnightblue",fontsize="10",style="solid",fontname="Helvetica"];
  Node126 [label="/home/mludwig/cernLocal\l/projects/opcua-lxi-master\l/Meta/include/DServer.h",height=0.2,width=0.4,color="red", fillcolor="white", style="filled",URL="$DServer_8h.html",tooltip=" "];
  Node1 -> Node127 [dir="back",color="midnightblue",fontsize="10",style="solid",fontname="Helvetica"];
  Node127 [label="/home/mludwig/cernLocal\l/projects/opcua-lxi-master\l/Meta/include/Base_DSourceVariable\lThreadPool.h",height=0.2,width=0.4,color="red", fillcolor="white", style="filled",URL="$Base__DSourceVariableThreadPool_8h.html",tooltip=" "];
  Node127 -> Node127 [dir="back",color="midnightblue",fontsize="10",style="solid",fontname="Helvetica"];
  Node127 -> Node128 [dir="back",color="midnightblue",fontsize="10",style="solid",fontname="Helvetica"];
  Node128 [label="/home/mludwig/cernLocal\l/projects/opcua-lxi-master\l/Meta/include/DSourceVariableThread\lPool.h",height=0.2,width=0.4,color="red", fillcolor="white", style="filled",URL="$DSourceVariableThreadPool_8h.html",tooltip=" "];
  Node1 -> Node129 [dir="back",color="midnightblue",fontsize="10",style="solid",fontname="Helvetica"];
  Node129 [label="/home/mludwig/cernLocal\l/projects/opcua-lxi-master\l/Meta/include/Base_DStandardMeta\lData.h",height=0.2,width=0.4,color="red", fillcolor="white", style="filled",URL="$Base__DStandardMetaData_8h.html",tooltip=" "];
  Node129 -> Node129 [dir="back",color="midnightblue",fontsize="10",style="solid",fontname="Helvetica"];
  Node129 -> Node130 [dir="back",color="midnightblue",fontsize="10",style="solid",fontname="Helvetica"];
  Node130 [label="/home/mludwig/cernLocal\l/projects/opcua-lxi-master\l/Meta/include/DStandardMetaData.h",height=0.2,width=0.4,color="red", fillcolor="white", style="filled",URL="$DStandardMetaData_8h.html",tooltip=" "];
  Node130 -> Node127 [dir="back",color="midnightblue",fontsize="10",style="solid",fontname="Helvetica"];
  Node1 -> Node131 [dir="back",color="midnightblue",fontsize="10",style="solid",fontname="Helvetica"];
  Node131 [label="/home/mludwig/cernLocal\l/projects/opcua-lxi-master\l/Meta/include/DBuildInformation.h",height=0.2,width=0.4,color="red", fillcolor="white", style="filled",URL="$DBuildInformation_8h.html",tooltip=" "];
  Node1 -> Node120 [dir="back",color="midnightblue",fontsize="10",style="solid",fontname="Helvetica"];
  Node1 -> Node122 [dir="back",color="midnightblue",fontsize="10",style="solid",fontname="Helvetica"];
  Node1 -> Node124 [dir="back",color="midnightblue",fontsize="10",style="solid",fontname="Helvetica"];
  Node1 -> Node126 [dir="back",color="midnightblue",fontsize="10",style="solid",fontname="Helvetica"];
  Node1 -> Node128 [dir="back",color="midnightblue",fontsize="10",style="solid",fontname="Helvetica"];
  Node1 -> Node130 [dir="back",color="midnightblue",fontsize="10",style="solid",fontname="Helvetica"];
}
