digraph "UA_ActivateSessionResponse"
{
 // LATEX_PDF_SIZE
  edge [fontname="Helvetica",fontsize="10",labelfontname="Helvetica",labelfontsize="10"];
  node [fontname="Helvetica",fontsize="10",shape=record];
  Node1 [label="UA_ActivateSessionResponse",height=0.2,width=0.4,color="black", fillcolor="grey75", style="filled", fontcolor="black",tooltip=" "];
  Node2 -> Node1 [dir="back",color="darkorchid3",fontsize="10",style="dashed",label=" diagnosticInfos" ,fontname="Helvetica"];
  Node2 [label="UA_DiagnosticInfo",height=0.2,width=0.4,color="black", fillcolor="white", style="filled",URL="$structUA__DiagnosticInfo.html",tooltip=" "];
  Node2 -> Node2 [dir="back",color="darkorchid3",fontsize="10",style="dashed",label=" innerDiagnosticInfo" ,fontname="Helvetica"];
  Node3 -> Node2 [dir="back",color="darkorchid3",fontsize="10",style="dashed",label=" additionalInfo" ,fontname="Helvetica"];
  Node3 [label="UA_String",height=0.2,width=0.4,color="black", fillcolor="white", style="filled",URL="$structUA__String.html",tooltip=" "];
  Node3 -> Node1 [dir="back",color="darkorchid3",fontsize="10",style="dashed",label=" serverNonce" ,fontname="Helvetica"];
  Node4 -> Node1 [dir="back",color="darkorchid3",fontsize="10",style="dashed",label=" responseHeader" ,fontname="Helvetica"];
  Node4 [label="UA_ResponseHeader",height=0.2,width=0.4,color="black", fillcolor="white", style="filled",URL="$structUA__ResponseHeader.html",tooltip=" "];
  Node3 -> Node4 [dir="back",color="darkorchid3",fontsize="10",style="dashed",label=" stringTable" ,fontname="Helvetica"];
  Node2 -> Node4 [dir="back",color="darkorchid3",fontsize="10",style="dashed",label=" serviceDiagnostics" ,fontname="Helvetica"];
  Node5 -> Node4 [dir="back",color="darkorchid3",fontsize="10",style="dashed",label=" additionalHeader" ,fontname="Helvetica"];
  Node5 [label="UA_ExtensionObject",height=0.2,width=0.4,color="black", fillcolor="white", style="filled",URL="$structUA__ExtensionObject.html",tooltip=" "];
  Node6 -> Node5 [dir="back",color="darkorchid3",fontsize="10",style="dashed",label=" typeId" ,fontname="Helvetica"];
  Node6 [label="UA_NodeId",height=0.2,width=0.4,color="black", fillcolor="white", style="filled",URL="$structUA__NodeId.html",tooltip=" "];
  Node7 -> Node6 [dir="back",color="darkorchid3",fontsize="10",style="dashed",label=" identifierType" ,fontname="Helvetica"];
  Node7 [label="enum",height=0.2,width=0.4,color="grey75", fillcolor="white", style="filled",tooltip=" "];
  Node3 -> Node6 [dir="back",color="darkorchid3",fontsize="10",style="dashed",label=" string\nbyteString" ,fontname="Helvetica"];
  Node8 -> Node6 [dir="back",color="darkorchid3",fontsize="10",style="dashed",label=" guid" ,fontname="Helvetica"];
  Node8 [label="UA_Guid",height=0.2,width=0.4,color="black", fillcolor="white", style="filled",URL="$structUA__Guid.html",tooltip=" "];
  Node3 -> Node5 [dir="back",color="darkorchid3",fontsize="10",style="dashed",label=" body" ,fontname="Helvetica"];
  Node9 -> Node5 [dir="back",color="darkorchid3",fontsize="10",style="dashed",label=" type" ,fontname="Helvetica"];
  Node9 [label="UA_DataType",height=0.2,width=0.4,color="black", fillcolor="white", style="filled",URL="$structUA__DataType.html",tooltip=" "];
  Node6 -> Node9 [dir="back",color="darkorchid3",fontsize="10",style="dashed",label=" typeId" ,fontname="Helvetica"];
  Node10 -> Node9 [dir="back",color="darkorchid3",fontsize="10",style="dashed",label=" members" ,fontname="Helvetica"];
  Node10 [label="UA_DataTypeMember",height=0.2,width=0.4,color="black", fillcolor="white", style="filled",URL="$structUA__DataTypeMember.html",tooltip=" "];
}
