digraph "UA_ReferenceDescription"
{
 // LATEX_PDF_SIZE
  edge [fontname="Helvetica",fontsize="10",labelfontname="Helvetica",labelfontsize="10"];
  node [fontname="Helvetica",fontsize="10",shape=record];
  Node1 [label="UA_ReferenceDescription",height=0.2,width=0.4,color="black", fillcolor="grey75", style="filled", fontcolor="black",tooltip=" "];
  Node2 -> Node1 [dir="back",color="darkorchid3",fontsize="10",style="dashed",label=" referenceTypeId" ,fontname="Helvetica"];
  Node2 [label="UA_NodeId",height=0.2,width=0.4,color="black", fillcolor="white", style="filled",URL="$structUA__NodeId.html",tooltip=" "];
  Node3 -> Node2 [dir="back",color="darkorchid3",fontsize="10",style="dashed",label=" identifierType" ,fontname="Helvetica"];
  Node3 [label="enum",height=0.2,width=0.4,color="grey75", fillcolor="white", style="filled",tooltip=" "];
  Node4 -> Node2 [dir="back",color="darkorchid3",fontsize="10",style="dashed",label=" string\nbyteString" ,fontname="Helvetica"];
  Node4 [label="UA_String",height=0.2,width=0.4,color="black", fillcolor="white", style="filled",URL="$structUA__String.html",tooltip=" "];
  Node5 -> Node2 [dir="back",color="darkorchid3",fontsize="10",style="dashed",label=" guid" ,fontname="Helvetica"];
  Node5 [label="UA_Guid",height=0.2,width=0.4,color="black", fillcolor="white", style="filled",URL="$structUA__Guid.html",tooltip=" "];
  Node6 -> Node1 [dir="back",color="darkorchid3",fontsize="10",style="dashed",label=" displayName" ,fontname="Helvetica"];
  Node6 [label="UA_LocalizedText",height=0.2,width=0.4,color="black", fillcolor="white", style="filled",URL="$structUA__LocalizedText.html",tooltip=" "];
  Node4 -> Node6 [dir="back",color="darkorchid3",fontsize="10",style="dashed",label=" locale\ntext" ,fontname="Helvetica"];
  Node7 -> Node1 [dir="back",color="darkorchid3",fontsize="10",style="dashed",label=" browseName" ,fontname="Helvetica"];
  Node7 [label="UA_QualifiedName",height=0.2,width=0.4,color="black", fillcolor="white", style="filled",URL="$structUA__QualifiedName.html",tooltip=" "];
  Node4 -> Node7 [dir="back",color="darkorchid3",fontsize="10",style="dashed",label=" name" ,fontname="Helvetica"];
  Node8 -> Node1 [dir="back",color="darkorchid3",fontsize="10",style="dashed",label=" typeDefinition\nnodeId" ,fontname="Helvetica"];
  Node8 [label="UA_ExpandedNodeId",height=0.2,width=0.4,color="black", fillcolor="white", style="filled",URL="$structUA__ExpandedNodeId.html",tooltip=" "];
  Node2 -> Node8 [dir="back",color="darkorchid3",fontsize="10",style="dashed",label=" nodeId" ,fontname="Helvetica"];
  Node4 -> Node8 [dir="back",color="darkorchid3",fontsize="10",style="dashed",label=" namespaceUri" ,fontname="Helvetica"];
}
