digraph "UA_AddReferencesRequest"
{
 // LATEX_PDF_SIZE
  edge [fontname="Helvetica",fontsize="10",labelfontname="Helvetica",labelfontsize="10"];
  node [fontname="Helvetica",fontsize="10",shape=record];
  Node1 [label="UA_AddReferencesRequest",height=0.2,width=0.4,color="black", fillcolor="grey75", style="filled", fontcolor="black",tooltip=" "];
  Node2 -> Node1 [dir="back",color="darkorchid3",fontsize="10",style="dashed",label=" requestHeader" ,fontname="Helvetica"];
  Node2 [label="UA_RequestHeader",height=0.2,width=0.4,color="black", fillcolor="white", style="filled",URL="$structUA__RequestHeader.html",tooltip=" "];
  Node3 -> Node2 [dir="back",color="darkorchid3",fontsize="10",style="dashed",label=" authenticationToken" ,fontname="Helvetica"];
  Node3 [label="UA_NodeId",height=0.2,width=0.4,color="black", fillcolor="white", style="filled",URL="$structUA__NodeId.html",tooltip=" "];
  Node4 -> Node3 [dir="back",color="darkorchid3",fontsize="10",style="dashed",label=" identifierType" ,fontname="Helvetica"];
  Node4 [label="enum",height=0.2,width=0.4,color="grey75", fillcolor="white", style="filled",tooltip=" "];
  Node5 -> Node3 [dir="back",color="darkorchid3",fontsize="10",style="dashed",label=" string\nbyteString" ,fontname="Helvetica"];
  Node5 [label="UA_String",height=0.2,width=0.4,color="black", fillcolor="white", style="filled",URL="$structUA__String.html",tooltip=" "];
  Node6 -> Node3 [dir="back",color="darkorchid3",fontsize="10",style="dashed",label=" guid" ,fontname="Helvetica"];
  Node6 [label="UA_Guid",height=0.2,width=0.4,color="black", fillcolor="white", style="filled",URL="$structUA__Guid.html",tooltip=" "];
  Node5 -> Node2 [dir="back",color="darkorchid3",fontsize="10",style="dashed",label=" auditEntryId" ,fontname="Helvetica"];
  Node7 -> Node2 [dir="back",color="darkorchid3",fontsize="10",style="dashed",label=" additionalHeader" ,fontname="Helvetica"];
  Node7 [label="UA_ExtensionObject",height=0.2,width=0.4,color="black", fillcolor="white", style="filled",URL="$structUA__ExtensionObject.html",tooltip=" "];
  Node3 -> Node7 [dir="back",color="darkorchid3",fontsize="10",style="dashed",label=" typeId" ,fontname="Helvetica"];
  Node5 -> Node7 [dir="back",color="darkorchid3",fontsize="10",style="dashed",label=" body" ,fontname="Helvetica"];
  Node8 -> Node7 [dir="back",color="darkorchid3",fontsize="10",style="dashed",label=" type" ,fontname="Helvetica"];
  Node8 [label="UA_DataType",height=0.2,width=0.4,color="black", fillcolor="white", style="filled",URL="$structUA__DataType.html",tooltip=" "];
  Node3 -> Node8 [dir="back",color="darkorchid3",fontsize="10",style="dashed",label=" typeId" ,fontname="Helvetica"];
  Node9 -> Node8 [dir="back",color="darkorchid3",fontsize="10",style="dashed",label=" members" ,fontname="Helvetica"];
  Node9 [label="UA_DataTypeMember",height=0.2,width=0.4,color="black", fillcolor="white", style="filled",URL="$structUA__DataTypeMember.html",tooltip=" "];
  Node10 -> Node1 [dir="back",color="darkorchid3",fontsize="10",style="dashed",label=" referencesToAdd" ,fontname="Helvetica"];
  Node10 [label="UA_AddReferencesItem",height=0.2,width=0.4,color="black", fillcolor="white", style="filled",URL="$structUA__AddReferencesItem.html",tooltip=" "];
  Node3 -> Node10 [dir="back",color="darkorchid3",fontsize="10",style="dashed",label=" referenceTypeId\nsourceNodeId" ,fontname="Helvetica"];
  Node5 -> Node10 [dir="back",color="darkorchid3",fontsize="10",style="dashed",label=" targetServerUri" ,fontname="Helvetica"];
  Node11 -> Node10 [dir="back",color="darkorchid3",fontsize="10",style="dashed",label=" targetNodeId" ,fontname="Helvetica"];
  Node11 [label="UA_ExpandedNodeId",height=0.2,width=0.4,color="black", fillcolor="white", style="filled",URL="$structUA__ExpandedNodeId.html",tooltip=" "];
  Node3 -> Node11 [dir="back",color="darkorchid3",fontsize="10",style="dashed",label=" nodeId" ,fontname="Helvetica"];
  Node5 -> Node11 [dir="back",color="darkorchid3",fontsize="10",style="dashed",label=" namespaceUri" ,fontname="Helvetica"];
}
