digraph "UA_CallMethodRequest"
{
 // LATEX_PDF_SIZE
  edge [fontname="Helvetica",fontsize="10",labelfontname="Helvetica",labelfontsize="10"];
  node [fontname="Helvetica",fontsize="10",shape=record];
  Node1 [label="UA_CallMethodRequest",height=0.2,width=0.4,color="black", fillcolor="grey75", style="filled", fontcolor="black",tooltip=" "];
  Node2 -> Node1 [dir="back",color="darkorchid3",fontsize="10",style="dashed",label=" methodId\nobjectId" ,fontname="Helvetica"];
  Node2 [label="UA_NodeId",height=0.2,width=0.4,color="black", fillcolor="white", style="filled",URL="$structUA__NodeId.html",tooltip=" "];
  Node3 -> Node2 [dir="back",color="darkorchid3",fontsize="10",style="dashed",label=" identifierType" ,fontname="Helvetica"];
  Node3 [label="enum",height=0.2,width=0.4,color="grey75", fillcolor="white", style="filled",tooltip=" "];
  Node4 -> Node2 [dir="back",color="darkorchid3",fontsize="10",style="dashed",label=" string\nbyteString" ,fontname="Helvetica"];
  Node4 [label="UA_String",height=0.2,width=0.4,color="black", fillcolor="white", style="filled",URL="$structUA__String.html",tooltip=" "];
  Node5 -> Node2 [dir="back",color="darkorchid3",fontsize="10",style="dashed",label=" guid" ,fontname="Helvetica"];
  Node5 [label="UA_Guid",height=0.2,width=0.4,color="black", fillcolor="white", style="filled",URL="$structUA__Guid.html",tooltip=" "];
  Node6 -> Node1 [dir="back",color="darkorchid3",fontsize="10",style="dashed",label=" inputArguments" ,fontname="Helvetica"];
  Node6 [label="UA_Variant",height=0.2,width=0.4,color="black", fillcolor="white", style="filled",URL="$structUA__Variant.html",tooltip=" "];
  Node7 -> Node6 [dir="back",color="darkorchid3",fontsize="10",style="dashed",label=" type" ,fontname="Helvetica"];
  Node7 [label="UA_DataType",height=0.2,width=0.4,color="black", fillcolor="white", style="filled",URL="$structUA__DataType.html",tooltip=" "];
  Node2 -> Node7 [dir="back",color="darkorchid3",fontsize="10",style="dashed",label=" typeId" ,fontname="Helvetica"];
  Node8 -> Node7 [dir="back",color="darkorchid3",fontsize="10",style="dashed",label=" members" ,fontname="Helvetica"];
  Node8 [label="UA_DataTypeMember",height=0.2,width=0.4,color="black", fillcolor="white", style="filled",URL="$structUA__DataTypeMember.html",tooltip=" "];
}
