digraph "UA_BrowsePathTarget"
{
 // LATEX_PDF_SIZE
  edge [fontname="Helvetica",fontsize="10",labelfontname="Helvetica",labelfontsize="10"];
  node [fontname="Helvetica",fontsize="10",shape=record];
  Node1 [label="UA_BrowsePathTarget",height=0.2,width=0.4,color="black", fillcolor="grey75", style="filled", fontcolor="black",tooltip=" "];
  Node2 -> Node1 [dir="back",color="darkorchid3",fontsize="10",style="dashed",label=" targetId" ,fontname="Helvetica"];
  Node2 [label="UA_ExpandedNodeId",height=0.2,width=0.4,color="black", fillcolor="white", style="filled",URL="$structUA__ExpandedNodeId.html",tooltip=" "];
  Node3 -> Node2 [dir="back",color="darkorchid3",fontsize="10",style="dashed",label=" nodeId" ,fontname="Helvetica"];
  Node3 [label="UA_NodeId",height=0.2,width=0.4,color="black", fillcolor="white", style="filled",URL="$structUA__NodeId.html",tooltip=" "];
  Node4 -> Node3 [dir="back",color="darkorchid3",fontsize="10",style="dashed",label=" identifierType" ,fontname="Helvetica"];
  Node4 [label="enum",height=0.2,width=0.4,color="grey75", fillcolor="white", style="filled",tooltip=" "];
  Node5 -> Node3 [dir="back",color="darkorchid3",fontsize="10",style="dashed",label=" string\nbyteString" ,fontname="Helvetica"];
  Node5 [label="UA_String",height=0.2,width=0.4,color="black", fillcolor="white", style="filled",URL="$structUA__String.html",tooltip=" "];
  Node6 -> Node3 [dir="back",color="darkorchid3",fontsize="10",style="dashed",label=" guid" ,fontname="Helvetica"];
  Node6 [label="UA_Guid",height=0.2,width=0.4,color="black", fillcolor="white", style="filled",URL="$structUA__Guid.html",tooltip=" "];
  Node5 -> Node2 [dir="back",color="darkorchid3",fontsize="10",style="dashed",label=" namespaceUri" ,fontname="Helvetica"];
}
