digraph "VisitorData"
{
 // LATEX_PDF_SIZE
  edge [fontname="Helvetica",fontsize="10",labelfontname="Helvetica",labelfontsize="10"];
  node [fontname="Helvetica",fontsize="10",shape=record];
  Node1 [label="VisitorData",height=0.2,width=0.4,color="black", fillcolor="grey75", style="filled", fontcolor="black",tooltip=" "];
  Node2 -> Node1 [dir="back",color="darkorchid3",fontsize="10",style="dashed",label=" visitor" ,fontname="Helvetica"];
  Node2 [label="UA_Node",height=0.2,width=0.4,color="black", fillcolor="white", style="filled",URL="$structUA__Node.html",tooltip=" "];
}
