digraph "/home/mludwig/cernLocal/projects/opcua-lxi-master/tools/lxitest/include/VERSION.h"
{
 // LATEX_PDF_SIZE
  edge [fontname="Helvetica",fontsize="10",labelfontname="Helvetica",labelfontsize="10"];
  node [fontname="Helvetica",fontsize="10",shape=record];
  Node1 [label="/home/mludwig/cernLocal\l/projects/opcua-lxi-master\l/tools/lxitest/include/VERSION.h",height=0.2,width=0.4,color="black", fillcolor="grey75", style="filled", fontcolor="black",tooltip=" "];
  Node1 -> Node2 [dir="back",color="midnightblue",fontsize="10",style="solid",fontname="Helvetica"];
  Node2 [label="/home/mludwig/cernLocal\l/projects/opcua-lxi-master\l/Server/src/QuasarServer.cpp",height=0.2,width=0.4,color="black", fillcolor="white", style="filled",URL="$QuasarServer_8cpp.html",tooltip=" "];
  Node1 -> Node3 [dir="back",color="midnightblue",fontsize="10",style="solid",fontname="Helvetica"];
  Node3 [label="/home/mludwig/cernLocal\l/projects/opcua-lxi-master\l/tools/curltest/src/main.cpp",height=0.2,width=0.4,color="black", fillcolor="white", style="filled",URL="$tools_2curltest_2src_2main_8cpp.html",tooltip=" "];
  Node1 -> Node4 [dir="back",color="midnightblue",fontsize="10",style="solid",fontname="Helvetica"];
  Node4 [label="/home/mludwig/cernLocal\l/projects/opcua-lxi-master\l/tools/lxitest/src/mainControl.cpp",height=0.2,width=0.4,color="black", fillcolor="white", style="filled",URL="$mainControl_8cpp.html",tooltip=" "];
  Node1 -> Node5 [dir="back",color="midnightblue",fontsize="10",style="solid",fontname="Helvetica"];
  Node5 [label="/home/mludwig/cernLocal\l/projects/opcua-lxi-master\l/tools/lxitest/src/mainPoll.cpp",height=0.2,width=0.4,color="black", fillcolor="white", style="filled",URL="$mainPoll_8cpp.html",tooltip=" "];
}
