digraph "/home/mludwig/cernLocal/projects/opcua-lxi-master/generatedSources/uadatetime.h"
{
 // LATEX_PDF_SIZE
  edge [fontname="Helvetica",fontsize="10",labelfontname="Helvetica",labelfontsize="10"];
  node [fontname="Helvetica",fontsize="10",shape=record];
  Node1 [label="/home/mludwig/cernLocal\l/projects/opcua-lxi-master\l/generatedSources/uadatetime.h",height=0.2,width=0.4,color="black", fillcolor="grey75", style="filled", fontcolor="black",tooltip=" "];
  Node1 -> Node2 [dir="back",color="midnightblue",fontsize="10",style="solid",fontname="Helvetica"];
  Node2 [label="/home/mludwig/cernLocal\l/projects/opcua-lxi-master\l/Device/include/DPowerSupply.h",height=0.2,width=0.4,color="black", fillcolor="white", style="filled",URL="$DPowerSupply_8h.html",tooltip=" "];
  Node2 -> Node3 [dir="back",color="midnightblue",fontsize="10",style="solid",fontname="Helvetica"];
  Node3 [label="/home/mludwig/cernLocal\l/projects/opcua-lxi-master\l/Device/src/DChannel.cpp",height=0.2,width=0.4,color="black", fillcolor="white", style="filled",URL="$DChannel_8cpp.html",tooltip=" "];
  Node2 -> Node4 [dir="back",color="midnightblue",fontsize="10",style="solid",fontname="Helvetica"];
  Node4 [label="/home/mludwig/cernLocal\l/projects/opcua-lxi-master\l/Device/src/DPowerSupply.cpp",height=0.2,width=0.4,color="black", fillcolor="white", style="filled",URL="$DPowerSupply_8cpp.html",tooltip=" "];
  Node2 -> Node5 [dir="back",color="midnightblue",fontsize="10",style="solid",fontname="Helvetica"];
  Node5 [label="/home/mludwig/cernLocal\l/projects/opcua-lxi-master\l/generatedSources/AddressSpaceClasses.cpp",height=0.2,width=0.4,color="black", fillcolor="white", style="filled",URL="$AddressSpaceClasses_8cpp.html",tooltip=" "];
  Node2 -> Node6 [dir="back",color="midnightblue",fontsize="10",style="solid",fontname="Helvetica"];
  Node6 [label="/home/mludwig/cernLocal\l/projects/opcua-lxi-master\l/generatedSources/Base_All.cpp",height=0.2,width=0.4,color="black", fillcolor="white", style="filled",URL="$Base__All_8cpp.html",tooltip=" "];
  Node2 -> Node7 [dir="back",color="midnightblue",fontsize="10",style="solid",fontname="Helvetica"];
  Node7 [label="/home/mludwig/cernLocal\l/projects/opcua-lxi-master\l/generatedSources/Configurator.cpp",height=0.2,width=0.4,color="black", fillcolor="white", style="filled",URL="$Configurator_8cpp.html",tooltip=" "];
  Node2 -> Node8 [dir="back",color="midnightblue",fontsize="10",style="solid",fontname="Helvetica"];
  Node8 [label="/home/mludwig/cernLocal\l/projects/opcua-lxi-master\l/generatedSources/ConfigValidator.cpp",height=0.2,width=0.4,color="black", fillcolor="white", style="filled",URL="$ConfigValidator_8cpp.html",tooltip=" "];
  Node2 -> Node9 [dir="back",color="midnightblue",fontsize="10",style="solid",fontname="Helvetica"];
  Node9 [label="/home/mludwig/cernLocal\l/projects/opcua-lxi-master\l/generatedSources/DRoot.cpp",height=0.2,width=0.4,color="black", fillcolor="white", style="filled",URL="$DRoot_8cpp.html",tooltip=" "];
  Node2 -> Node10 [dir="back",color="midnightblue",fontsize="10",style="solid",fontname="Helvetica"];
  Node10 [label="/home/mludwig/cernLocal\l/projects/opcua-lxi-master\l/generatedSources/SourceVariables.cpp",height=0.2,width=0.4,color="black", fillcolor="white", style="filled",URL="$SourceVariables_8cpp.html",tooltip=" "];
  Node2 -> Node11 [dir="back",color="midnightblue",fontsize="10",style="solid",fontname="Helvetica"];
  Node11 [label="/home/mludwig/cernLocal\l/projects/opcua-lxi-master\l/Server/src/QuasarServer.cpp",height=0.2,width=0.4,color="black", fillcolor="white", style="filled",URL="$QuasarServer_8cpp.html",tooltip=" "];
  Node1 -> Node12 [dir="back",color="midnightblue",fontsize="10",style="solid",fontname="Helvetica"];
  Node12 [label="/home/mludwig/cernLocal\l/projects/opcua-lxi-master\l/Device/include/DStatusCh.h",height=0.2,width=0.4,color="black", fillcolor="white", style="filled",URL="$DStatusCh_8h.html",tooltip=" "];
  Node12 -> Node4 [dir="back",color="midnightblue",fontsize="10",style="solid",fontname="Helvetica"];
  Node12 -> Node13 [dir="back",color="midnightblue",fontsize="10",style="solid",fontname="Helvetica"];
  Node13 [label="/home/mludwig/cernLocal\l/projects/opcua-lxi-master\l/Device/src/DStatusCh.cpp",height=0.2,width=0.4,color="black", fillcolor="white", style="filled",URL="$DStatusCh_8cpp.html",tooltip=" "];
  Node12 -> Node5 [dir="back",color="midnightblue",fontsize="10",style="solid",fontname="Helvetica"];
  Node12 -> Node6 [dir="back",color="midnightblue",fontsize="10",style="solid",fontname="Helvetica"];
  Node12 -> Node7 [dir="back",color="midnightblue",fontsize="10",style="solid",fontname="Helvetica"];
  Node12 -> Node8 [dir="back",color="midnightblue",fontsize="10",style="solid",fontname="Helvetica"];
  Node12 -> Node10 [dir="back",color="midnightblue",fontsize="10",style="solid",fontname="Helvetica"];
  Node1 -> Node14 [dir="back",color="midnightblue",fontsize="10",style="solid",fontname="Helvetica"];
  Node14 [label="/home/mludwig/cernLocal\l/projects/opcua-lxi-master\l/Device/include/DStatusPs.h",height=0.2,width=0.4,color="black", fillcolor="white", style="filled",URL="$DStatusPs_8h.html",tooltip=" "];
  Node14 -> Node4 [dir="back",color="midnightblue",fontsize="10",style="solid",fontname="Helvetica"];
  Node14 -> Node15 [dir="back",color="midnightblue",fontsize="10",style="solid",fontname="Helvetica"];
  Node15 [label="/home/mludwig/cernLocal\l/projects/opcua-lxi-master\l/Device/src/DStatusPs.cpp",height=0.2,width=0.4,color="black", fillcolor="white", style="filled",URL="$DStatusPs_8cpp.html",tooltip=" "];
  Node14 -> Node5 [dir="back",color="midnightblue",fontsize="10",style="solid",fontname="Helvetica"];
  Node14 -> Node6 [dir="back",color="midnightblue",fontsize="10",style="solid",fontname="Helvetica"];
  Node14 -> Node7 [dir="back",color="midnightblue",fontsize="10",style="solid",fontname="Helvetica"];
  Node14 -> Node8 [dir="back",color="midnightblue",fontsize="10",style="solid",fontname="Helvetica"];
  Node14 -> Node10 [dir="back",color="midnightblue",fontsize="10",style="solid",fontname="Helvetica"];
  Node1 -> Node16 [dir="back",color="midnightblue",fontsize="10",style="solid",fontname="Helvetica"];
  Node16 [label="/home/mludwig/cernLocal\l/projects/opcua-lxi-master\l/generatedSources/uavariant.h",height=0.2,width=0.4,color="black", fillcolor="white", style="filled",URL="$uavariant_8h.html",tooltip=" "];
  Node16 -> Node17 [dir="back",color="midnightblue",fontsize="10",style="solid",fontname="Helvetica"];
  Node17 [label="/home/mludwig/cernLocal\l/projects/opcua-lxi-master\l/AddressSpace/include/ArrayTools.h",height=0.2,width=0.4,color="red", fillcolor="white", style="filled",URL="$ArrayTools_8h.html",tooltip=" "];
  Node17 -> Node5 [dir="back",color="midnightblue",fontsize="10",style="solid",fontname="Helvetica"];
  Node17 -> Node19 [dir="back",color="midnightblue",fontsize="10",style="solid",fontname="Helvetica"];
  Node19 [label="/home/mludwig/cernLocal\l/projects/opcua-lxi-master\l/generatedSources/MetaAmalgamate.cpp",height=0.2,width=0.4,color="black", fillcolor="white", style="filled",URL="$MetaAmalgamate_8cpp.html",tooltip=" "];
  Node17 -> Node20 [dir="back",color="midnightblue",fontsize="10",style="solid",fontname="Helvetica"];
  Node20 [label="/home/mludwig/cernLocal\l/projects/opcua-lxi-master\l/Meta/src/ASBuildInformation.cpp",height=0.2,width=0.4,color="black", fillcolor="white", style="filled",URL="$ASBuildInformation_8cpp.html",tooltip=" "];
  Node16 -> Node21 [dir="back",color="midnightblue",fontsize="10",style="solid",fontname="Helvetica"];
  Node21 [label="/home/mludwig/cernLocal\l/projects/opcua-lxi-master\l/generatedSources/arrays\l_test.cpp",height=0.2,width=0.4,color="black", fillcolor="white", style="filled",URL="$arrays__test_8cpp.html",tooltip=" "];
  Node16 -> Node22 [dir="back",color="midnightblue",fontsize="10",style="solid",fontname="Helvetica"];
  Node22 [label="/home/mludwig/cernLocal\l/projects/opcua-lxi-master\l/generatedSources/methodmanager.h",height=0.2,width=0.4,color="red", fillcolor="white", style="filled",URL="$methodmanager_8h.html",tooltip=" "];
  Node16 -> Node32 [dir="back",color="midnightblue",fontsize="10",style="solid",fontname="Helvetica"];
  Node32 [label="/home/mludwig/cernLocal\l/projects/opcua-lxi-master\l/generatedSources/open62541\l_compat.h",height=0.2,width=0.4,color="black", fillcolor="white", style="filled",URL="$open62541__compat_8h.html",tooltip=" "];
  Node32 -> Node33 [dir="back",color="midnightblue",fontsize="10",style="solid",fontname="Helvetica"];
  Node33 [label="/home/mludwig/cernLocal\l/projects/opcua-lxi-master\l/generatedSources/opcua_basedatavariabletype.h",height=0.2,width=0.4,color="red", fillcolor="white", style="filled",URL="$opcua__basedatavariabletype_8h.html",tooltip=" "];
  Node33 -> Node32 [dir="back",color="midnightblue",fontsize="10",style="solid",fontname="Helvetica"];
  Node32 -> Node78 [dir="back",color="midnightblue",fontsize="10",style="solid",fontname="Helvetica"];
  Node78 [label="/home/mludwig/cernLocal\l/projects/opcua-lxi-master\l/generatedSources/open62541\l_compat.cpp",height=0.2,width=0.4,color="black", fillcolor="white", style="filled",URL="$open62541__compat_8cpp.html",tooltip=" "];
  Node32 -> Node79 [dir="back",color="midnightblue",fontsize="10",style="solid",fontname="Helvetica"];
  Node79 [label="/home/mludwig/cernLocal\l/projects/opcua-lxi-master\l/generatedSources/uastring.cpp",height=0.2,width=0.4,color="black", fillcolor="white", style="filled",URL="$uastring_8cpp.html",tooltip=" "];
  Node32 -> Node80 [dir="back",color="midnightblue",fontsize="10",style="solid",fontname="Helvetica"];
  Node80 [label="/home/mludwig/cernLocal\l/projects/opcua-lxi-master\l/generatedSources/uavariant.cpp",height=0.2,width=0.4,color="black", fillcolor="white", style="filled",URL="$uavariant_8cpp.html",tooltip=" "];
  Node16 -> Node81 [dir="back",color="midnightblue",fontsize="10",style="solid",fontname="Helvetica"];
  Node81 [label="/home/mludwig/cernLocal\l/projects/opcua-lxi-master\l/generatedSources/uaclientsdk.h",height=0.2,width=0.4,color="black", fillcolor="white", style="filled",URL="$uaclientsdk_8h.html",tooltip=" "];
  Node16 -> Node82 [dir="back",color="midnightblue",fontsize="10",style="solid",fontname="Helvetica"];
  Node82 [label="/home/mludwig/cernLocal\l/projects/opcua-lxi-master\l/generatedSources/uadatavalue.h",height=0.2,width=0.4,color="red", fillcolor="white", style="filled",URL="$uadatavalue_8h.html",tooltip=" "];
  Node82 -> Node33 [dir="back",color="midnightblue",fontsize="10",style="solid",fontname="Helvetica"];
  Node16 -> Node92 [dir="back",color="midnightblue",fontsize="10",style="solid",fontname="Helvetica"];
  Node92 [label="/home/mludwig/cernLocal\l/projects/opcua-lxi-master\l/generatedSources/uavariant_test.h",height=0.2,width=0.4,color="red", fillcolor="white", style="filled",URL="$uavariant__test_8h.html",tooltip=" "];
  Node16 -> Node93 [dir="back",color="midnightblue",fontsize="10",style="solid",fontname="Helvetica"];
  Node93 [label="/home/mludwig/cernLocal\l/projects/opcua-lxi-master\l/Server/include/shutdown.h",height=0.2,width=0.4,color="red", fillcolor="white", style="filled",URL="$shutdown_8h.html",tooltip=" "];
  Node93 -> Node4 [dir="back",color="midnightblue",fontsize="10",style="solid",fontname="Helvetica"];
  Node93 -> Node11 [dir="back",color="midnightblue",fontsize="10",style="solid",fontname="Helvetica"];
  Node1 -> Node32 [dir="back",color="midnightblue",fontsize="10",style="solid",fontname="Helvetica"];
  Node1 -> Node96 [dir="back",color="midnightblue",fontsize="10",style="solid",fontname="Helvetica"];
  Node96 [label="/home/mludwig/cernLocal\l/projects/opcua-lxi-master\l/generatedSources/uadatetime.cpp",height=0.2,width=0.4,color="black", fillcolor="white", style="filled",URL="$uadatetime_8cpp.html",tooltip=" "];
  Node1 -> Node97 [dir="back",color="midnightblue",fontsize="10",style="solid",fontname="Helvetica"];
  Node97 [label="/home/mludwig/cernLocal\l/projects/opcua-lxi-master\l/Meta/include/Base_DComponentLog\lLevel.h",height=0.2,width=0.4,color="black", fillcolor="white", style="filled",URL="$Base__DComponentLogLevel_8h.html",tooltip=" "];
  Node97 -> Node19 [dir="back",color="midnightblue",fontsize="10",style="solid",fontname="Helvetica"];
  Node97 -> Node97 [dir="back",color="midnightblue",fontsize="10",style="solid",fontname="Helvetica"];
  Node97 -> Node98 [dir="back",color="midnightblue",fontsize="10",style="solid",fontname="Helvetica"];
  Node98 [label="/home/mludwig/cernLocal\l/projects/opcua-lxi-master\l/Meta/include/DComponentLogLevel.h",height=0.2,width=0.4,color="red", fillcolor="white", style="filled",URL="$DComponentLogLevel_8h.html",tooltip=" "];
  Node98 -> Node19 [dir="back",color="midnightblue",fontsize="10",style="solid",fontname="Helvetica"];
  Node97 -> Node41 [dir="back",color="midnightblue",fontsize="10",style="solid",fontname="Helvetica"];
  Node41 [label="/home/mludwig/cernLocal\l/projects/opcua-lxi-master\l/Meta/src/Base_DComponentLogLevel.cpp",height=0.2,width=0.4,color="black", fillcolor="white", style="filled",URL="$Base__DComponentLogLevel_8cpp.html",tooltip=" "];
  Node1 -> Node99 [dir="back",color="midnightblue",fontsize="10",style="solid",fontname="Helvetica"];
  Node99 [label="/home/mludwig/cernLocal\l/projects/opcua-lxi-master\l/Meta/include/Base_DGeneralLogLevel.h",height=0.2,width=0.4,color="black", fillcolor="white", style="filled",URL="$Base__DGeneralLogLevel_8h.html",tooltip=" "];
  Node99 -> Node19 [dir="back",color="midnightblue",fontsize="10",style="solid",fontname="Helvetica"];
  Node99 -> Node99 [dir="back",color="midnightblue",fontsize="10",style="solid",fontname="Helvetica"];
  Node99 -> Node100 [dir="back",color="midnightblue",fontsize="10",style="solid",fontname="Helvetica"];
  Node100 [label="/home/mludwig/cernLocal\l/projects/opcua-lxi-master\l/Meta/include/DGeneralLogLevel.h",height=0.2,width=0.4,color="red", fillcolor="white", style="filled",URL="$DGeneralLogLevel_8h.html",tooltip=" "];
  Node100 -> Node19 [dir="back",color="midnightblue",fontsize="10",style="solid",fontname="Helvetica"];
  Node99 -> Node47 [dir="back",color="midnightblue",fontsize="10",style="solid",fontname="Helvetica"];
  Node47 [label="/home/mludwig/cernLocal\l/projects/opcua-lxi-master\l/Meta/src/Base_DGeneralLogLevel.cpp",height=0.2,width=0.4,color="black", fillcolor="white", style="filled",URL="$Base__DGeneralLogLevel_8cpp.html",tooltip=" "];
  Node1 -> Node101 [dir="back",color="midnightblue",fontsize="10",style="solid",fontname="Helvetica"];
  Node101 [label="/home/mludwig/cernLocal\l/projects/opcua-lxi-master\l/Meta/include/Base_DQuasar.h",height=0.2,width=0.4,color="black", fillcolor="white", style="filled",URL="$Base__DQuasar_8h.html",tooltip=" "];
  Node101 -> Node19 [dir="back",color="midnightblue",fontsize="10",style="solid",fontname="Helvetica"];
  Node101 -> Node101 [dir="back",color="midnightblue",fontsize="10",style="solid",fontname="Helvetica"];
  Node101 -> Node102 [dir="back",color="midnightblue",fontsize="10",style="solid",fontname="Helvetica"];
  Node102 [label="/home/mludwig/cernLocal\l/projects/opcua-lxi-master\l/Meta/include/DQuasar.h",height=0.2,width=0.4,color="red", fillcolor="white", style="filled",URL="$DQuasar_8h.html",tooltip=" "];
  Node102 -> Node19 [dir="back",color="midnightblue",fontsize="10",style="solid",fontname="Helvetica"];
  Node101 -> Node53 [dir="back",color="midnightblue",fontsize="10",style="solid",fontname="Helvetica"];
  Node53 [label="/home/mludwig/cernLocal\l/projects/opcua-lxi-master\l/Meta/src/Base_DQuasar.cpp",height=0.2,width=0.4,color="black", fillcolor="white", style="filled",URL="$Base__DQuasar_8cpp.html",tooltip=" "];
  Node1 -> Node103 [dir="back",color="midnightblue",fontsize="10",style="solid",fontname="Helvetica"];
  Node103 [label="/home/mludwig/cernLocal\l/projects/opcua-lxi-master\l/Meta/include/Base_DServer.h",height=0.2,width=0.4,color="black", fillcolor="white", style="filled",URL="$Base__DServer_8h.html",tooltip=" "];
  Node103 -> Node19 [dir="back",color="midnightblue",fontsize="10",style="solid",fontname="Helvetica"];
  Node103 -> Node103 [dir="back",color="midnightblue",fontsize="10",style="solid",fontname="Helvetica"];
  Node103 -> Node104 [dir="back",color="midnightblue",fontsize="10",style="solid",fontname="Helvetica"];
  Node104 [label="/home/mludwig/cernLocal\l/projects/opcua-lxi-master\l/Meta/include/DServer.h",height=0.2,width=0.4,color="red", fillcolor="white", style="filled",URL="$DServer_8h.html",tooltip=" "];
  Node104 -> Node19 [dir="back",color="midnightblue",fontsize="10",style="solid",fontname="Helvetica"];
  Node103 -> Node57 [dir="back",color="midnightblue",fontsize="10",style="solid",fontname="Helvetica"];
  Node57 [label="/home/mludwig/cernLocal\l/projects/opcua-lxi-master\l/Meta/src/Base_DServer.cpp",height=0.2,width=0.4,color="black", fillcolor="white", style="filled",URL="$Base__DServer_8cpp.html",tooltip=" "];
  Node1 -> Node107 [dir="back",color="midnightblue",fontsize="10",style="solid",fontname="Helvetica"];
  Node107 [label="/home/mludwig/cernLocal\l/projects/opcua-lxi-master\l/Meta/include/Base_DSourceVariable\lThreadPool.h",height=0.2,width=0.4,color="black", fillcolor="white", style="filled",URL="$Base__DSourceVariableThreadPool_8h.html",tooltip=" "];
  Node107 -> Node19 [dir="back",color="midnightblue",fontsize="10",style="solid",fontname="Helvetica"];
  Node107 -> Node107 [dir="back",color="midnightblue",fontsize="10",style="solid",fontname="Helvetica"];
  Node107 -> Node108 [dir="back",color="midnightblue",fontsize="10",style="solid",fontname="Helvetica"];
  Node108 [label="/home/mludwig/cernLocal\l/projects/opcua-lxi-master\l/Meta/include/DSourceVariableThread\lPool.h",height=0.2,width=0.4,color="red", fillcolor="white", style="filled",URL="$DSourceVariableThreadPool_8h.html",tooltip=" "];
  Node108 -> Node19 [dir="back",color="midnightblue",fontsize="10",style="solid",fontname="Helvetica"];
  Node107 -> Node61 [dir="back",color="midnightblue",fontsize="10",style="solid",fontname="Helvetica"];
  Node61 [label="/home/mludwig/cernLocal\l/projects/opcua-lxi-master\l/Meta/src/Base_DSourceVariableThread\lPool.cpp",height=0.2,width=0.4,color="black", fillcolor="white", style="filled",URL="$Base__DSourceVariableThreadPool_8cpp.html",tooltip=" "];
  Node1 -> Node109 [dir="back",color="midnightblue",fontsize="10",style="solid",fontname="Helvetica"];
  Node109 [label="/home/mludwig/cernLocal\l/projects/opcua-lxi-master\l/Meta/include/Base_DStandardMeta\lData.h",height=0.2,width=0.4,color="black", fillcolor="white", style="filled",URL="$Base__DStandardMetaData_8h.html",tooltip=" "];
  Node109 -> Node19 [dir="back",color="midnightblue",fontsize="10",style="solid",fontname="Helvetica"];
  Node109 -> Node109 [dir="back",color="midnightblue",fontsize="10",style="solid",fontname="Helvetica"];
  Node109 -> Node110 [dir="back",color="midnightblue",fontsize="10",style="solid",fontname="Helvetica"];
  Node110 [label="/home/mludwig/cernLocal\l/projects/opcua-lxi-master\l/Meta/include/DStandardMetaData.h",height=0.2,width=0.4,color="red", fillcolor="white", style="filled",URL="$DStandardMetaData_8h.html",tooltip=" "];
  Node110 -> Node19 [dir="back",color="midnightblue",fontsize="10",style="solid",fontname="Helvetica"];
  Node110 -> Node107 [dir="back",color="midnightblue",fontsize="10",style="solid",fontname="Helvetica"];
  Node109 -> Node65 [dir="back",color="midnightblue",fontsize="10",style="solid",fontname="Helvetica"];
  Node65 [label="/home/mludwig/cernLocal\l/projects/opcua-lxi-master\l/Meta/src/Base_DStandardMetaData.cpp",height=0.2,width=0.4,color="black", fillcolor="white", style="filled",URL="$Base__DStandardMetaData_8cpp.html",tooltip=" "];
  Node1 -> Node112 [dir="back",color="midnightblue",fontsize="10",style="solid",fontname="Helvetica"];
  Node112 [label="/home/mludwig/cernLocal\l/projects/opcua-lxi-master\l/Meta/include/DBuildInformation.h",height=0.2,width=0.4,color="red", fillcolor="white", style="filled",URL="$DBuildInformation_8h.html",tooltip=" "];
  Node112 -> Node19 [dir="back",color="midnightblue",fontsize="10",style="solid",fontname="Helvetica"];
  Node112 -> Node20 [dir="back",color="midnightblue",fontsize="10",style="solid",fontname="Helvetica"];
  Node1 -> Node98 [dir="back",color="midnightblue",fontsize="10",style="solid",fontname="Helvetica"];
  Node1 -> Node100 [dir="back",color="midnightblue",fontsize="10",style="solid",fontname="Helvetica"];
  Node1 -> Node102 [dir="back",color="midnightblue",fontsize="10",style="solid",fontname="Helvetica"];
  Node1 -> Node104 [dir="back",color="midnightblue",fontsize="10",style="solid",fontname="Helvetica"];
  Node1 -> Node108 [dir="back",color="midnightblue",fontsize="10",style="solid",fontname="Helvetica"];
  Node1 -> Node110 [dir="back",color="midnightblue",fontsize="10",style="solid",fontname="Helvetica"];
}
